{
  "fresh": true,
  "fresh_highlights": false,
  "fresh_dynamic_data": false,
  "data": [
    {
      "id": 119,
      "title": "Sunrot",
      "slug": "sunrot",
      "content": "<p>Round these parts, we\u2019ve got a lot of time and a lot of love for <strong>Sunrot<\/strong>. This brand new track, titled <em>1312<\/em>, wears its heart on its sleeve and features <strong>Zellie Imani<\/strong> of <strong>Black Lives Matter Paterson<\/strong>. It is taken from an upcoming split between <strong>Sunrot<\/strong> and <strong>Ides<\/strong> due out on May 7 via Bandcamp. All first day sales will be donated to <strong>Black Lives Matter Paterson<\/strong>. If this gets your heart racing and you feel like you need a moment - <a href=\"https:\/\/sunrot.bandcamp.com\/\" rel=\"noopener noreferrer\" target=\"_blank\">may we suggest checking out the third track of their recent release <\/a>which is a *guided meditation* - yes really.&nbsp;Told you... we love <strong>Sunrot<\/strong> here! <\/p>",
      "post_type_status": "available",
      "post_type": "soundcloud",
      "post_type_data": {
        "url": "https:\/\/w.soundcloud.com\/player\/?url=https%3A\/\/api.soundcloud.com\/tracks\/1012833619%3Fsecret_token%3Ds-fHdyhBv7RtH&color=%23ff5500&auto_play=false&hide_related=true&show_comments=false&show_user=true&show_reposts=false&show_teaser=false&visual=true",
        "images": [
          {
            "url": "https:\/\/storage.googleapis.com\/lw-poppodium013-roadburn-prod\/cms\/uploads\/2021-04-15-3e28990a25fd48374f97247e8c820c6279f4f640.jpg",
            "name": "2021-04-15-3e28990a25fd48374f97247e8c820c6279f4f640.jpg"
          }
        ]
      },
      "category": {
        "id": 3,
        "name": "Audio & video premieres",
        "code": "audio_n_video_premieres"
      },
      "likes_count": 7,
      "comments_count": 1,
      "highlight": 1,
      "active": 1,
      "published_at": "2021-04-17T19:30:00.000000Z",
      "time_start": "2021-04-14T09:00:00.000000Z",
      "time_end": null,
      "created_at": "2021-04-14T08:34:23.000000Z",
      "updated_at": "2021-04-17T19:36:37.000000Z",
      "liked": false
    },
    {
      "id": 101,
      "title": "Wayfarer",
      "slug": "wayfarer",
      "content": "<p>Of all the festivals, in all the world, we really wanted <strong>Wayfarer<\/strong> to walk into ours. And in they came with an understated swagger. <em>A Romance With Violence<\/em> deserves to be experienced live - we know that, we can tell. But until circumstances make that a genuine possibility we\u2019ll have to settle for this performance video from <strong>Wayfarer<\/strong>\u2026 however \u2018settling\u2019 does it a disservice. Hit play and prepare to be transported to a saloon bar, with a sawdust floor and one hell of a band playing in the corner\u2026 <\/p><p><a href=\"https:\/\/linktr.ee\/Wayfarercolorado\" rel=\"noopener noreferrer\" target=\"_blank\">More about <strong>Wayfarer<\/strong><\/a><\/p>",
      "post_type_status": "available",
      "post_type": "video",
      "post_type_data": {
        "type": "VIMEO",
        "url": "https:\/\/player.vimeo.com\/video\/536243426",
        "images": [
          {
            "url": "https:\/\/storage.googleapis.com\/lw-poppodium013-roadburn-prod\/cms\/uploads\/2021-04-15-81c31a27236eee8e701afbf71e8788b2516dea94.jpg",
            "name": "2021-04-15-81c31a27236eee8e701afbf71e8788b2516dea94.jpg"
          }
        ]
      },
      "category": {
        "id": 2,
        "name": "Exclusive sets",
        "code": "exclusive_sets"
      },
      "likes_count": 37,
      "comments_count": 4,
      "highlight": 1,
      "active": 1,
      "published_at": "2021-04-17T19:00:00.000000Z",
      "time_start": "2021-04-14T09:00:00.000000Z",
      "time_end": null,
      "created_at": "2021-04-13T12:15:03.000000Z",
      "updated_at": "2021-04-17T19:36:37.000000Z",
      "liked": false
    },
    {
      "id": 24,
      "title": "Album Premiere: Die Wilde Jagd performing Haut",
      "slug": "album-premiere-die-wilde-jagd-performing-haut",
      "content": "<p><strong>Die Wilde Jagd\u2019s<\/strong> <em>Haut<\/em> was one of our favourite psych albums of 2020 - no surprise given we firmly believe that this band has injected a new lease of live into what can often be a backward looking psych scene. No time for stagnating now - prepare to witness <em>Haut<\/em> in all its glory, live from the 013.<\/p>",
      "post_type_status": "available",
      "post_type": "livestream",
      "post_type_data": {
        "url": null,
        "thumb_url": null,
        "channel_id": "sziy4T7C",
        "images": [
          {
            "url": "https:\/\/storage.googleapis.com\/lw-poppodium013-roadburn-prod\/cms\/uploads\/2021-04-15-073749e7ddf2f853c202ec8d678e1a3ca80b106d.jpg",
            "name": "2021-04-15-073749e7ddf2f853c202ec8d678e1a3ca80b106d.jpg"
          }
        ]
      },
      "category": {
        "id": 1,
        "name": "Livestreams",
        "code": "livestreams"
      },
      "likes_count": 32,
      "comments_count": 3,
      "highlight": 1,
      "active": 1,
      "published_at": "2021-04-17T18:50:00.000000Z",
      "time_start": "2021-04-14T08:50:00.000000Z",
      "time_end": null,
      "created_at": "2021-04-09T13:25:49.000000Z",
      "updated_at": "2021-04-17T19:38:26.000000Z",
      "liked": false
    },
    {
      "id": 80,
      "title": "Body Void",
      "slug": "body-void",
      "content": "<p>If epic doom is your jam, then <strong>Body Void<\/strong> will be right up your street. This performance is of a track titled <em>Fawn<\/em>, taken from their upcoming album, <em>Bury Me Beneath This Rotting Earth <\/em>(out next week via Prosthetic Records - <a href=\"https:\/\/smarturl.it\/BodyVoid\" rel=\"noopener noreferrer\" target=\"_blank\">click here to buy<\/a>).<\/p>",
      "post_type_status": "available",
      "post_type": "video",
      "post_type_data": {
        "type": "VIMEO",
        "url": "https:\/\/player.vimeo.com\/video\/533521456",
        "images": [
          {
            "url": "https:\/\/storage.googleapis.com\/lw-poppodium013-roadburn-prod\/cms\/uploads\/2021-04-15-dce2b54c829a1bdb06f0f2c3c2985952f942a020.jpg",
            "name": "2021-04-15-dce2b54c829a1bdb06f0f2c3c2985952f942a020.jpg"
          }
        ]
      },
      "category": {
        "id": 3,
        "name": "Audio & video premieres",
        "code": "audio_n_video_premieres"
      },
      "likes_count": 28,
      "comments_count": 4,
      "highlight": 1,
      "active": 1,
      "published_at": "2021-04-17T18:45:00.000000Z",
      "time_start": "2021-04-14T08:45:00.000000Z",
      "time_end": null,
      "created_at": "2021-04-13T11:03:33.000000Z",
      "updated_at": "2021-04-17T19:36:51.000000Z",
      "liked": false
    },
    {
      "id": 222,
      "title": "Plague Organ - in pictures",
      "slug": "plague-organ-in-pictures",
      "content": "<p><strong>Plague Organ<\/strong> - captured by Niels Vinck, live from the 013 venue, Tilburg. April 17, 2021.<\/p>",
      "post_type_status": "available",
      "post_type": "carousel",
      "post_type_data": {
        "images": [
          {
            "url": "https:\/\/storage.googleapis.com\/lw-poppodium013-roadburn-prod\/cms\/uploads\/2021-04-17-915b0dc0a1eb80fd485dc4830da44b62d18da35e.jpg",
            "name": "2021-04-17-915b0dc0a1eb80fd485dc4830da44b62d18da35e.jpg"
          },
          {
            "url": "https:\/\/storage.googleapis.com\/lw-poppodium013-roadburn-prod\/cms\/uploads\/2021-04-17-d0228a97e534eb6dc318046471b1ec75248f1290.jpg",
            "name": "2021-04-17-d0228a97e534eb6dc318046471b1ec75248f1290.jpg"
          },
          {
            "url": "https:\/\/storage.googleapis.com\/lw-poppodium013-roadburn-prod\/cms\/uploads\/2021-04-17-c140b01d8f87de34865e505e1df469f077fb7c31.jpg",
            "name": "2021-04-17-c140b01d8f87de34865e505e1df469f077fb7c31.jpg"
          },
          {
            "url": "https:\/\/storage.googleapis.com\/lw-poppodium013-roadburn-prod\/cms\/uploads\/2021-04-17-4173f2b39bc868bdc4885147bdfd8c79ccacf9d9.jpg",
            "name": "2021-04-17-4173f2b39bc868bdc4885147bdfd8c79ccacf9d9.jpg"
          },
          {
            "url": "https:\/\/storage.googleapis.com\/lw-poppodium013-roadburn-prod\/cms\/uploads\/2021-04-17-9f02ee2e4086b308ad1e6b5d49d60d97cf26eff9.jpg",
            "name": "2021-04-17-9f02ee2e4086b308ad1e6b5d49d60d97cf26eff9.jpg"
          },
          {
            "url": "https:\/\/storage.googleapis.com\/lw-poppodium013-roadburn-prod\/cms\/uploads\/2021-04-17-600ef8257a3c936a39b198b8e200c68aed739077.jpg",
            "name": "2021-04-17-600ef8257a3c936a39b198b8e200c68aed739077.jpg"
          },
          {
            "url": "https:\/\/storage.googleapis.com\/lw-poppodium013-roadburn-prod\/cms\/uploads\/2021-04-17-c05443ff0b4c62171e7fe519071dfcd767ccccf6.jpg",
            "name": "2021-04-17-c05443ff0b4c62171e7fe519071dfcd767ccccf6.jpg"
          },
          {
            "url": "https:\/\/storage.googleapis.com\/lw-poppodium013-roadburn-prod\/cms\/uploads\/2021-04-17-1da179885f241f79fb4d852e63e9459fbdfffce4.jpg",
            "name": "2021-04-17-1da179885f241f79fb4d852e63e9459fbdfffce4.jpg"
          },
          {
            "url": "https:\/\/storage.googleapis.com\/lw-poppodium013-roadburn-prod\/cms\/uploads\/2021-04-17-b2907eb2638546b9cfa7954b1b0a16a1e11f44bb.jpg",
            "name": "2021-04-17-b2907eb2638546b9cfa7954b1b0a16a1e11f44bb.jpg"
          }
        ]
      },
      "category": null,
      "likes_count": 11,
      "comments_count": 0,
      "highlight": 1,
      "active": 1,
      "published_at": "2021-04-17T18:40:00.000000Z",
      "time_start": "2021-04-14T09:00:00.000000Z",
      "time_end": null,
      "created_at": "2021-04-17T18:40:39.000000Z",
      "updated_at": "2021-04-17T19:36:30.000000Z",
      "liked": false
    },
    {
      "id": 221,
      "title": "Homeburn - scenes from around the globe",
      "slug": "homeburn-scenes-from-around-the-globe",
      "content": "<p>We've been loving your Roadburn at home pics! If you have a great set up to enjoy Roadburn from home, tag us in your tweets, insta posts or join us in the <a href=\"https:\/\/www.facebook.com\/groups\/Roadburners\/\" rel=\"noopener noreferrer\" target=\"_blank\">Roadburners Facebook group<\/a> and let's have a peep! Especially if there's cats.<\/p>",
      "post_type_status": "available",
      "post_type": "carousel",
      "post_type_data": {
        "images": [
          {
            "url": "https:\/\/storage.googleapis.com\/lw-poppodium013-roadburn-prod\/cms\/uploads\/2021-04-17-ef6c45a1139270fc6b8d5c9ad2abc453c13d5d44.jpeg",
            "name": "2021-04-17-ef6c45a1139270fc6b8d5c9ad2abc453c13d5d44.jpeg"
          },
          {
            "url": "https:\/\/storage.googleapis.com\/lw-poppodium013-roadburn-prod\/cms\/uploads\/2021-04-17-a2d2707598a54db88c8f28a2fb8dbb8cf9aa8d5f.jpeg",
            "name": "2021-04-17-a2d2707598a54db88c8f28a2fb8dbb8cf9aa8d5f.jpeg"
          },
          {
            "url": "https:\/\/storage.googleapis.com\/lw-poppodium013-roadburn-prod\/cms\/uploads\/2021-04-17-699416f6d1626fd15da595fc1545f4193c536c6a.jpeg",
            "name": "2021-04-17-699416f6d1626fd15da595fc1545f4193c536c6a.jpeg"
          },
          {
            "url": "https:\/\/storage.googleapis.com\/lw-poppodium013-roadburn-prod\/cms\/uploads\/2021-04-17-15379b0a18e359cf44cc7ee0616c240eca8288ef.jpeg",
            "name": "2021-04-17-15379b0a18e359cf44cc7ee0616c240eca8288ef.jpeg"
          },
          {
            "url": "https:\/\/storage.googleapis.com\/lw-poppodium013-roadburn-prod\/cms\/uploads\/2021-04-17-5b616c64d571305d7c7b2e4e6cc86c81e90bb333.jpeg",
            "name": "2021-04-17-5b616c64d571305d7c7b2e4e6cc86c81e90bb333.jpeg"
          },
          {
            "url": "https:\/\/storage.googleapis.com\/lw-poppodium013-roadburn-prod\/cms\/uploads\/2021-04-17-d77542838c344bffa986b62063b0dc7444fdd6df.jpeg",
            "name": "2021-04-17-d77542838c344bffa986b62063b0dc7444fdd6df.jpeg"
          },
          {
            "url": "https:\/\/storage.googleapis.com\/lw-poppodium013-roadburn-prod\/cms\/uploads\/2021-04-17-24a44bd75927d572ff33207756959f5b154d9c6e.JPG",
            "name": "2021-04-17-24a44bd75927d572ff33207756959f5b154d9c6e.JPG"
          },
          {
            "url": "https:\/\/storage.googleapis.com\/lw-poppodium013-roadburn-prod\/cms\/uploads\/2021-04-17-83308e9830e7a5acbce78720271b6c68af06f031.jpeg",
            "name": "2021-04-17-83308e9830e7a5acbce78720271b6c68af06f031.jpeg"
          },
          {
            "url": "https:\/\/storage.googleapis.com\/lw-poppodium013-roadburn-prod\/cms\/uploads\/2021-04-17-b1e982ef5464ab197db51caf3aa14088345fe07e.jpeg",
            "name": "2021-04-17-b1e982ef5464ab197db51caf3aa14088345fe07e.jpeg"
          }
        ]
      },
      "category": null,
      "likes_count": 24,
      "comments_count": 1,
      "highlight": 0,
      "active": 1,
      "published_at": "2021-04-17T18:40:00.000000Z",
      "time_start": "2021-04-15T10:00:00.000000Z",
      "time_end": null,
      "created_at": "2021-04-17T18:18:08.000000Z",
      "updated_at": "2021-04-17T19:36:38.000000Z",
      "liked": false
    },
    {
      "id": 206,
      "title": "Commissioned: Mizmor presents Wit's End",
      "slug": "commissioned-mizmor-presents-wits-end",
      "content": "<p><a href=\"https:\/\/www.roadburnredux.com\/#detail?id=149\" rel=\"noopener noreferrer\" target=\"_blank\">This<\/a> great interview with <strong>Mizmor\u2019<\/strong>s <strong>A.L.N<\/strong>. by <strong>Cody F Davis<\/strong> does more justice than we could ever hope to when it comes to explaining what this incredible track is all about. With <strong>Mizmor<\/strong>, there\u2019s almost always another layer to peel back and explore and <em>Wit\u2019s End<\/em> is no difference. Words can\u2019t express how lucky we feel to be presenting this piece of music to you. <\/p><p><em>Wit\u2019s End <\/em>was written, performed, produced, recorded, and mixed by <strong>A.L.N<\/strong>., mastered by <strong>Adam Gonsalves<\/strong> and has an accompanying video by <strong>Zev Deans<\/strong>. <\/p><p><em>Wit's End<\/em> is the title track off an upcoming <strong>Mizmor<\/strong> EP coming to <strong>Gilead Media<\/strong> later this year. Click <a href=\"https:\/\/linktr.ee\/MizmorALN\" rel=\"noopener noreferrer\" target=\"_blank\">here <\/a>to find out more\/support <strong>Mizmor.<\/strong><\/p>",
      "post_type_status": "available",
      "post_type": "video",
      "post_type_data": {
        "type": "VIMEO",
        "url": "https:\/\/player.vimeo.com\/video\/538016044",
        "images": [
          {
            "url": "https:\/\/storage.googleapis.com\/lw-poppodium013-roadburn-prod\/cms\/uploads\/2021-04-17-4d99389e88584e093211ff701f6c9514cd2fd54f.jpg",
            "name": "2021-04-17-4d99389e88584e093211ff701f6c9514cd2fd54f.jpg"
          }
        ]
      },
      "category": {
        "id": 3,
        "name": "Audio & video premieres",
        "code": "audio_n_video_premieres"
      },
      "likes_count": 63,
      "comments_count": 16,
      "highlight": 1,
      "active": 1,
      "published_at": "2021-04-17T18:20:00.000000Z",
      "time_start": "2021-04-17T09:00:00.000000Z",
      "time_end": null,
      "created_at": "2021-04-17T07:51:14.000000Z",
      "updated_at": "2021-04-17T19:36:58.000000Z",
      "liked": false
    },
    {
      "id": 220,
      "title": "Haunted Plasma - coming up soon!",
      "slug": "haunted-plasma-coming-up-soon",
      "content": "<p>If you missed our excited posts about it in advance, Haunted Plasma is a power-house of futuristic synth in symbiosis with the super violence of kosmische black metal. The phantoms at the beating nucleus of this unearthly machine are <strong>Juho Vanhanen<\/strong> (<strong>Oranssi Pazuzu, Grave Pleasures<\/strong>), <strong>Timo Kaukolampi<\/strong> (<strong>K-X-P, Op:l Bastards<\/strong>) and <strong>Tomi Lepp\u00e4nen<\/strong> (<strong>CIRCLE, Aavikko, K-X-P<\/strong>), transmitting a music form evolved from a life of redefining sonic boundaries in their respective projects. Also featuring guest vocals from <strong>Mat McNerney <\/strong>(<strong>Hexvessel, Carpenter Brut, Beast Milk<\/strong>) and<strong> Ringa Manner<\/strong> (<strong>Ruusut, The Hearing<\/strong>).<\/p><p>If we were together in Tilburg today - THIS would be the set that everyone in the Weirdo Canyon was getting hyped for.<\/p>",
      "post_type_status": "available",
      "post_type": "written_update",
      "post_type_data": {
        "images": [
          {
            "url": "https:\/\/storage.googleapis.com\/lw-poppodium013-roadburn-prod\/cms\/uploads\/2021-04-17-f64476c687f62f320a655d9a7b4d8985f418900b.jpeg",
            "name": "2021-04-17-f64476c687f62f320a655d9a7b4d8985f418900b.jpeg"
          }
        ]
      },
      "category": null,
      "likes_count": 14,
      "comments_count": 0,
      "highlight": 0,
      "active": 1,
      "published_at": "2021-04-17T18:00:00.000000Z",
      "time_start": "2021-04-15T10:00:00.000000Z",
      "time_end": null,
      "created_at": "2021-04-17T18:02:38.000000Z",
      "updated_at": "2021-04-17T19:27:06.000000Z",
      "liked": false
    },
    {
      "id": 79,
      "title": "Commissioned: BADA",
      "slug": "commissioned-bada",
      "content": "<p><strong>Anna Von Hausswolff<\/strong> is full of surprises. Despite our love for her output we weren\u2019t quite prepared for how she dominated the Main Stage in 2019\u2026 and now, with her band, <strong>BADA<\/strong>, we weren\u2019t sure what to expect from this commissioned performance. If sprawling, psychedelic jams are your thing then these guys have delivered just the thing to get your Saturday evening heading in some kind of spacey direction. Hit play and prepare to be transported somewhere altogether more diaphanous.<\/p><p><a href=\"https:\/\/badaband.bandcamp.com\/releases\" rel=\"noopener noreferrer\" target=\"_blank\">Click here for bonus <strong>BADA.<\/strong><\/a><\/p>",
      "post_type_status": "available",
      "post_type": "video",
      "post_type_data": {
        "type": "VIMEO",
        "url": "https:\/\/player.vimeo.com\/video\/531179499",
        "images": [
          {
            "url": "https:\/\/storage.googleapis.com\/lw-poppodium013-roadburn-prod\/cms\/uploads\/2021-04-15-9189448ea0987d2c7e4524add0b15bb4e5bc2153.jpg",
            "name": "2021-04-15-9189448ea0987d2c7e4524add0b15bb4e5bc2153.jpg"
          }
        ]
      },
      "category": {
        "id": 2,
        "name": "Exclusive sets",
        "code": "exclusive_sets"
      },
      "likes_count": 97,
      "comments_count": 14,
      "highlight": 1,
      "active": 1,
      "published_at": "2021-04-17T17:50:00.000000Z",
      "time_start": "2021-04-14T08:00:00.000000Z",
      "time_end": null,
      "created_at": "2021-04-13T11:00:40.000000Z",
      "updated_at": "2021-04-17T19:36:49.000000Z",
      "liked": false
    },
    {
      "id": 166,
      "title": "Roadburn Deep Dive - Wolves In The Throne Room",
      "slug": "roadburn-deep-dive-wolves-in-the-throne-room",
      "content": "<p>\u201cIt was a formative time for Wolves In The Throne Room and also for Roadburn\"<\/p><p><strong>Jos\u00e9 Carlos Santos <\/strong>caught up with <strong>Aaron Weaver <\/strong>and took him on a deep dive into <strong>Wolves In The Throne Room<\/strong>'s formidable Roadburn debut, way back in 2008.<\/p>",
      "post_type_status": "available",
      "post_type": "article",
      "post_type_data": {
        "url": "https:\/\/roadburn.com\/roadburn-deep-dives-wolves-in-the-throne-room\/",
        "meta_title": null,
        "meta_image": null,
        "images": [
          {
            "url": "https:\/\/storage.googleapis.com\/lw-poppodium013-roadburn-prod\/cms\/uploads\/2021-04-15-2571be080efc5ff063a52d55fc2fb21594032446.jpg",
            "name": "2021-04-15-2571be080efc5ff063a52d55fc2fb21594032446.jpg"
          }
        ]
      },
      "category": {
        "id": 5,
        "name": "Articles",
        "code": "articles"
      },
      "likes_count": 16,
      "comments_count": 0,
      "highlight": 1,
      "active": 1,
      "published_at": "2021-04-17T17:45:00.000000Z",
      "time_start": "2021-04-14T09:00:00.000000Z",
      "time_end": null,
      "created_at": "2021-04-15T12:42:19.000000Z",
      "updated_at": "2021-04-17T19:33:53.000000Z",
      "liked": false
    }
  ],
  "links": {
    "first": "https:\/\/roadburn-api.lwprod.nl\/api\/posts?page=1",
    "last": "https:\/\/roadburn-api.lwprod.nl\/api\/posts?page=12",
    "prev": null,
    "next": "https:\/\/roadburn-api.lwprod.nl\/api\/posts?page=2"
  },
  "meta": {
    "current_page": 1,
    "from": 1,
    "last_page": 12,
    "path": "https:\/\/roadburn-api.lwprod.nl\/api\/posts",
    "per_page": 10,
    "to": 10,
    "total": 120
  },
  "highlights": [
    {
      "id": 83,
      "title": "Steve Von Till presents A Remote Wilderness",
      "slug": "steve-von-till-presents-a-remote-wilderness",
      "content": "<p>Is there really a headliner slot at a virtual festival that\u2019s running at different times around the globe, that\u2019s re-watchable at your leisure? Not sure we can answer that for sure, but if there\u2019s a man with a set ready to fit the bill today it\u2019s most definitely <strong>Steve Von Till.&nbsp;<\/strong><\/p><p>Filmed and recorded live at the legendary<strong> Robert Lang Studios<\/strong> in Seattle, <strong>Von Till <\/strong>performs his album <em>No Wilderness Deep Enough<\/em> in full - plus a selection of other tracks.<\/p><p><strong>Von Till<\/strong> is on vocals, piano and guitar and is joined by<strong> Dave French<\/strong> (<strong>Brothers of the Sonic Cloth<\/strong>) on synthesiser, percussion, guitar and backing vocals, <strong>Lori Goldston<\/strong> (<strong>Nirvana<\/strong>, <strong>Earth<\/strong>) on cello, <strong>David Lutz <\/strong>on synthesiser, <strong>Eric Padget<\/strong> on French horn, and <strong>Olie Eshleman<\/strong> on pedal steel. Video is captured by <strong>Bobby Cochran<\/strong>, whose work you may know from <strong>Amenra\u2019s<\/strong> <em>A Flood of Light<\/em> documentary.<\/p><p>Without further ado, please enjoy <strong>Steve Von Till\u2019s<\/strong> incredible set,<em> A Remote Wilderness.<\/em><\/p><p><a href=\"https:\/\/www.vontill.org\/store\" rel=\"noopener noreferrer\" target=\"_blank\">Visit Steve's store here.<\/a><\/p>",
      "post_type_status": "available",
      "post_type": "video",
      "post_type_data": {
        "type": "VIMEO",
        "url": "https:\/\/player.vimeo.com\/video\/535765113",
        "images": [
          {
            "url": "https:\/\/storage.googleapis.com\/lw-poppodium013-roadburn-prod\/cms\/uploads\/2021-04-15-db865522ec3cff0d5fe123ece2ac4bd2473cf116.jpg",
            "name": "2021-04-15-db865522ec3cff0d5fe123ece2ac4bd2473cf116.jpg"
          }
        ]
      },
      "category": {
        "id": 2,
        "name": "Exclusive sets",
        "code": "exclusive_sets"
      },
      "likes_count": 0,
      "comments_count": 0,
      "highlight": 1,
      "active": 1,
      "published_at": "2021-04-17T19:40:00.000000Z",
      "time_start": "2021-04-14T09:00:00.000000Z",
      "time_end": null,
      "created_at": "2021-04-13T11:09:25.000000Z",
      "updated_at": "2021-04-17T13:59:20.000000Z",
      "liked": false
    },
    {
      "id": 84,
      "title": "Witch Mountain",
      "slug": "witch-mountain",
      "content": "<p>We love a birthday party! Next year, <strong>Witch Mountain<\/strong> will be celebrating their 25th anniversary and we\u2019re getting things started early! Here, they tribute to one of the greatest groups from their home turf in the Pacific Northwest. A cover of <strong>Soundgarden\u2019s<\/strong> <em>Limo Wreck<\/em> is the first <strong>Witch Mountain<\/strong> recording to be entirely produced in guitarist <strong>Rob Wrong<\/strong>\u2019s 'Wrong Way Recording' studio. One further connection to the source: the song was mastered by Seattle legend <strong>Tad Doyle<\/strong>.<\/p>",
      "post_type_status": "available",
      "post_type": "video",
      "post_type_data": {
        "type": "VIMEO",
        "url": "https:\/\/player.vimeo.com\/video\/533467566",
        "images": [
          {
            "url": "https:\/\/storage.googleapis.com\/lw-poppodium013-roadburn-prod\/cms\/uploads\/2021-04-15-e0fb36f4e0b62a226993c3b8cbaf3827c37cbea5.jpg",
            "name": "2021-04-15-e0fb36f4e0b62a226993c3b8cbaf3827c37cbea5.jpg"
          }
        ]
      },
      "category": {
        "id": 3,
        "name": "Audio & video premieres",
        "code": "audio_n_video_premieres"
      },
      "likes_count": 0,
      "comments_count": 0,
      "highlight": 1,
      "active": 1,
      "published_at": "2021-04-17T19:45:00.000000Z",
      "time_start": "2021-04-14T06:00:00.000000Z",
      "time_end": null,
      "created_at": "2021-04-13T11:11:34.000000Z",
      "updated_at": "2021-04-17T14:00:16.000000Z",
      "liked": false
    }
  ]
}