{
  "fresh_dynamic_data": false,
  "links": {
    "next": "https://roadburn-api.lwprod.nl/api/posts?page=27",
    "prev": "https://roadburn-api.lwprod.nl/api/posts?page=25",
    "last": "https://roadburn-api.lwprod.nl/api/posts?page=38",
    "first": "https://roadburn-api.lwprod.nl/api/posts?page=1"
  },
  "meta": {
    "to": 130,
    "total": 189,
    "last_page": 38,
    "from": 126,
    "per_page": 5,
    "path": "https://roadburn-api.lwprod.nl/api/posts",
    "current_page": 26
  },
  "fresh": true,
  "posts_data": [
    {
      "liked": false,
      "likes_count": 217,
      "post_type_status": "available",
      "title": "Pelagic Presents: The Ocean performing Phanerozoic II",
      "post_type_data": {
        "images": [
          {
            "name": "2021-04-16-e898d26d9aff7c796b9460badd8a7474bbc5c1bf.jpeg",
            "image_url": "https://storage.googleapis.com/lw-poppodium013-roadburn-prod/cms/uploads/2021-04-16-e898d26d9aff7c796b9460badd8a7474bbc5c1bf.jpeg"
          }
        ],
        "data_url": "https://player.vimeo.com/video/537673194",
        "meta_image": null,
        "meta_title": null,
        "thumb_url": null,
        "data_type": "VIMEO",
        "channel_id": null
      },
      "category": {
        "code": "exclusive_sets",
        "category_name": "Exclusive sets",
        "category_id": 2
      },
      "time_end": null,
      "time_start": "2021-04-16T09:00:00.000000Z",
      "updated_at": "2021-04-19T08:05:23.000000Z",
      "post_type": "video",
      "comments_count": 31,
      "active": 1,
      "content": "<p>If you were lucky enough to catch <strong>The Ocean’s</strong> recent stream of <em>Phanerozoic I: Palaeozoic </em>then you’ll know that this video barely needs an introduction. We’re in good hands for the next hour or so - witnessing a swathe of songs performed live for the very first time no less! The intimate vibe of this performance lends itself to being a part of your Roadburn from home. Enjoy - and if you want more from <strong>The Ocean </strong><a href=\"https://pelagic-records.com/artist/the-ocean/\" rel=\"noopener noreferrer\" target=\"_blank\">click here.</a> </p>",
      "highlight": 1,
      "slug": "pelagic-presents-the-ocean-performing-phanerozoic-ii",
      "data_id": 189,
      "published_at": "2021-04-16T20:30:00.000000Z",
      "created_at": "2021-04-16T14:32:13.000000Z"
    },
    {
      "liked": false,
      "likes_count": 82,
      "post_type_status": "available",
      "title": "Pelagic Presents: Briqueville",
      "post_type_data": {
        "images": [
          {
            "name": "2021-04-14-37e417798e34ed69db659f13822996f2cd8dda41.jpg",
            "image_url": "https://storage.googleapis.com/lw-poppodium013-roadburn-prod/cms/uploads/2021-04-14-37e417798e34ed69db659f13822996f2cd8dda41.jpg"
          }
        ],
        "data_url": "https://player.vimeo.com/video/531215535",
        "meta_image": null,
        "meta_title": null,
        "thumb_url": null,
        "data_type": "VIMEO",
        "channel_id": null
      },
      "category": {
        "code": "audio_n_video_premieres",
        "category_name": "Audio & video premieres",
        "category_id": 3
      },
      "time_end": null,
      "time_start": "2021-04-14T08:00:00.000000Z",
      "updated_at": "2021-04-19T01:27:32.000000Z",
      "post_type": "video",
      "comments_count": 4,
      "active": 1,
      "content": "<p>We’ve championed <strong>Briqueville</strong> for a few years now - highlighting their talent back at Roadburn 2015! Now with a couple of releases under their belt - including <a href=\"https://pelagic-records.com/?s=briqueville&amp;post_type=product\" rel=\"noopener noreferrer\" target=\"_blank\">2020’s <em>Quelle</em></a> - capturing on record their eerie soundscapes and shamanic ritualism.&nbsp;<strong>Briqueville</strong> is truly coming into bloom. As part of <strong>Pelagic Presents</strong>… we’re delighted to premiere the video for the track <em>AKTE XII</em> taken from the aforementioned <em>Quelle</em>.</p>",
      "highlight": 1,
      "slug": "pelagic-presents-briqueville",
      "data_id": 64,
      "published_at": "2021-04-16T20:20:00.000000Z",
      "created_at": "2021-04-13T09:45:07.000000Z"
    },
    {
      "liked": false,
      "likes_count": 89,
      "post_type_status": "available",
      "title": "Svart Sessions: Polymoon performing Caterpillars of Creation",
      "post_type_data": {
        "images": [
          {
            "name": "2021-04-14-ff902d14d232d496d7364714d0e1bd3e9afa8b97.jpg",
            "image_url": "https://storage.googleapis.com/lw-poppodium013-roadburn-prod/cms/uploads/2021-04-14-ff902d14d232d496d7364714d0e1bd3e9afa8b97.jpg"
          }
        ],
        "data_url": "https://player.vimeo.com/video/533464826",
        "meta_image": null,
        "meta_title": null,
        "thumb_url": null,
        "data_type": "VIMEO",
        "channel_id": null
      },
      "category": {
        "code": "exclusive_sets",
        "category_name": "Exclusive sets",
        "category_id": 2
      },
      "time_end": null,
      "time_start": "2021-04-14T08:00:00.000000Z",
      "updated_at": "2021-04-18T22:03:31.000000Z",
      "post_type": "video",
      "comments_count": 10,
      "active": 1,
      "content": "<p>Marking the first ever performance for an international audience, <strong>Polymoon</strong> are here to play their critically acclaimed debut album, <em>Caterpillars of Creation</em>, as part of the <strong>Svart Sessions</strong> at Roadburn Redux - and we’re over the erm… moon about it! They described this as “six track psych prog explosion” - and they’re bang on the money.&nbsp;</p><p><a href=\"https://svartrecords.com/product/polymoon-caterpillars-of-creation-album/?fbclid=IwAR3iZIQm8gSypOLj2OC_3fcl5p7SUsgfd9I8HO9z7gX61I1yYNvHKNYetQ4 \" rel=\"noopener noreferrer\" target=\"_blank\">Buy the album!</a></p><p><a href=\"https://polymoon.bandcamp.com/merch \" rel=\"noopener noreferrer\" target=\"_blank\">Buy their merch!</a></p>",
      "highlight": 1,
      "slug": "svart-sessions-polymoon-performing-caterpillars-of-creation",
      "data_id": 63,
      "published_at": "2021-04-16T19:40:00.000000Z",
      "created_at": "2021-04-13T09:43:27.000000Z"
    },
    {
      "liked": false,
      "likes_count": 77,
      "post_type_status": "available",
      "title": "Album Premiere: Emptiness performing Vide",
      "post_type_data": {
        "images": [
          {
            "name": "2021-04-14-eac10b063edfec9a9d4e9972709babb65b78d4f3.jpg",
            "image_url": "https://storage.googleapis.com/lw-poppodium013-roadburn-prod/cms/uploads/2021-04-14-eac10b063edfec9a9d4e9972709babb65b78d4f3.jpg"
          }
        ],
        "data_url": "https://player.vimeo.com/video/538105352",
        "meta_image": null,
        "meta_title": null,
        "thumb_url": "https://media-storage.lwmicro.com/uploads/andgage_content/2b6b2b10-9ef2-11eb-a2ae-3b2112a0060e_Roadburn_4.jpg",
        "data_type": null,
        "channel_id": "6sVZEWZk"
      },
      "category": {
        "code": "livestreams",
        "category_name": "Livestreams",
        "category_id": 1
      },
      "time_end": null,
      "time_start": "2021-04-16T19:30:00.000000Z",
      "updated_at": "2021-04-18T21:12:18.000000Z",
      "post_type": "livestream",
      "comments_count": 7,
      "active": 1,
      "content": "<p>We’re honoured to present <strong>Emptiness</strong> performing their sixth studio offering in its entirety - <em>Vide</em> is about to take on a life of its own. To listen to <em>Vide</em> on record is to let the rolling fog pin us down and envelop us, to witness it live may just consume us entirely...</p><p>Buy <em>Vide</em> (and more) <a href=\"https://emptiness.bandcamp.com/\" rel=\"noopener noreferrer\" target=\"_blank\">HERE</a>.</p>",
      "highlight": 1,
      "slug": "album-premiere-emptiness-performing-vide",
      "data_id": 19,
      "published_at": "2021-04-16T19:30:00.000000Z",
      "created_at": "2021-04-09T13:16:59.000000Z"
    },
    {
      "liked": false,
      "likes_count": 42,
      "post_type_status": "available",
      "title": "Commissioned: Many Blessings",
      "post_type_data": {
        "images": [
          {
            "name": "2021-04-14-fe259885a4f1c131ebfee29a7c69e0d840261aac.jpg",
            "image_url": "https://storage.googleapis.com/lw-poppodium013-roadburn-prod/cms/uploads/2021-04-14-fe259885a4f1c131ebfee29a7c69e0d840261aac.jpg"
          }
        ],
        "data_url": "https://player.vimeo.com/video/533939705",
        "meta_image": null,
        "meta_title": null,
        "thumb_url": null,
        "data_type": "VIMEO",
        "channel_id": null
      },
      "category": {
        "code": "audio_n_video_premieres",
        "category_name": "Audio & video premieres",
        "category_id": 3
      },
      "time_end": null,
      "time_start": "2021-04-14T08:15:00.000000Z",
      "updated_at": "2021-04-18T01:10:57.000000Z",
      "post_type": "video",
      "comments_count": 5,
      "active": 1,
      "content": "<p>Okay, this one is a trip. I know we say it a lot but you’ll want to brace yourself for this one. This specially commissioned music from <strong>Many Blessings</strong> is actually three tracks titled: </p><ol><li><em>The Conflict</em></li><li><em>The Repercussions </em></li><li><em>The Weasel</em></li></ol><p>This is the result of weeks of work from <strong>Ethan Lee McCarthy</strong>, and we’re honoured to be presenting it to you today for your uneasy listening pleasure.</p><p><br></p><p>Need <strong>Many Blessings </strong>in your life? Click <a href=\"https://manyblessings.bandcamp.com/\" rel=\"noopener noreferrer\" target=\"_blank\">HERE</a>.</p>",
      "highlight": 1,
      "slug": "commissioned-many-blessings",
      "data_id": 62,
      "published_at": "2021-04-16T19:15:00.000000Z",
      "created_at": "2021-04-13T09:41:44.000000Z"
    }
  ],
  "fresh_highlights": false,
  "highlights": []
}