{
  "fresh_dynamic_data": false,
  "links": {
    "next": "https://roadburn-api.lwprod.nl/api/posts?page=20",
    "prev": "https://roadburn-api.lwprod.nl/api/posts?page=18",
    "last": "https://roadburn-api.lwprod.nl/api/posts?page=38",
    "first": "https://roadburn-api.lwprod.nl/api/posts?page=1"
  },
  "meta": {
    "to": 95,
    "total": 189,
    "last_page": 38,
    "from": 91,
    "per_page": 5,
    "path": "https://roadburn-api.lwprod.nl/api/posts",
    "current_page": 19
  },
  "fresh": true,
  "posts_data": [
    {
      "liked": false,
      "likes_count": 16,
      "post_type_status": "available",
      "title": "Q&A: Tomi Pulkki & Mat McNerney of Svart Records",
      "post_type_data": {
        "images": [
          {
            "name": "2021-04-17-b21bd9abc823a724c28348fd4218456cedc5d3e2.jpg",
            "image_url": "https://storage.googleapis.com/lw-poppodium013-roadburn-prod/cms/uploads/2021-04-17-b21bd9abc823a724c28348fd4218456cedc5d3e2.jpg"
          }
        ],
        "data_url": "https://www.youtube.com/embed/wmFc9JEc04c",
        "meta_image": null,
        "meta_title": null,
        "thumb_url": null,
        "data_type": "YOUTUBE",
        "channel_id": null
      },
      "category": {
        "code": "talks",
        "category_name": "Talks",
        "category_id": 6
      },
      "time_end": null,
      "time_start": "2021-04-14T09:00:00.000000Z",
      "updated_at": "2021-04-18T17:12:09.000000Z",
      "post_type": "video",
      "comments_count": 4,
      "active": 1,
      "content": "<p>The <strong>Svart Sessions</strong> at Roadburn Redux is a bombardment of high quality, diverse and downright incredible sets. <strong>Jonathan Selze</strong>r catches up with two of the men behind this blossoming label to find out what makes them tick, what their plans are - and why they were so keen to participate in Roadburn Redux. </p><p><a href=\"https://svartrecords.com/\" rel=\"noopener noreferrer\" target=\"_blank\">Find out more about <strong>Svart Records</strong></a></p>",
      "highlight": 1,
      "slug": "qa-tomi-pulkki-mat-mcnerney-of-svart-records",
      "data_id": 126,
      "published_at": "2021-04-17T15:15:00.000000Z",
      "created_at": "2021-04-14T09:05:47.000000Z"
    },
    {
      "liked": false,
      "likes_count": 131,
      "post_type_status": "available",
      "title": "Commissioned: Solar Temple performing The Great Star Above Provides",
      "post_type_data": {
        "images": [
          {
            "name": "2021-04-15-b144f3c3a47c7dcf72b6ef4783e72aa724084594.jpg",
            "image_url": "https://storage.googleapis.com/lw-poppodium013-roadburn-prod/cms/uploads/2021-04-15-b144f3c3a47c7dcf72b6ef4783e72aa724084594.jpg"
          }
        ],
        "data_url": "https://player.vimeo.com/video/538108368",
        "meta_image": null,
        "meta_title": null,
        "thumb_url": null,
        "data_type": null,
        "channel_id": "BhDPh9fC"
      },
      "category": {
        "code": "livestreams",
        "category_name": "Livestreams",
        "category_id": 1
      },
      "time_end": null,
      "time_start": "2021-04-14T08:00:00.000000Z",
      "updated_at": "2021-04-18T22:39:04.000000Z",
      "post_type": "livestream",
      "comments_count": 29,
      "active": 1,
      "content": "<p>We’re used to nothing normal being the new normal - and therefore somehow it makes perfect sense for the first live outing for <strong>Solar Temple</strong> to be broadcast around the globe from the 013 venue. Sure, why not?! They’re performing their commissioned piece, <em>The Great Star Above Provides</em> - expect psychedelic black metal and ceremonial brilliance<span style=\"background-color: transparent; color: rgb(0, 0, 0);\">. </span></p><p>Get more <strong>Solar Temple</strong> in your life <a href=\"https://solartemplehn.bandcamp.com/\" rel=\"noopener noreferrer\" target=\"_blank\">HERE</a>.</p>",
      "highlight": 1,
      "slug": "commissioned-solar-temple-performing-the-great-star-above-provides",
      "data_id": 22,
      "published_at": "2021-04-17T15:00:00.000000Z",
      "created_at": "2021-04-09T13:22:16.000000Z"
    },
    {
      "liked": false,
      "likes_count": 36,
      "post_type_status": "available",
      "title": "Spill Gold - in pictures",
      "post_type_data": {
        "images": [
          {
            "name": "2021-04-17-dc25fb94ed4468ca77b4bceafc8f8d59181a0fbd.jpg",
            "image_url": "https://storage.googleapis.com/lw-poppodium013-roadburn-prod/cms/uploads/2021-04-17-dc25fb94ed4468ca77b4bceafc8f8d59181a0fbd.jpg"
          },
          {
            "name": "2021-04-17-bd80634d7f5047bf58b9aecc700b1b88bcdb0b7a.jpg",
            "image_url": "https://storage.googleapis.com/lw-poppodium013-roadburn-prod/cms/uploads/2021-04-17-bd80634d7f5047bf58b9aecc700b1b88bcdb0b7a.jpg"
          },
          {
            "name": "2021-04-17-fedc80fa8d9f2894c66cc8359920c68453898998.jpg",
            "image_url": "https://storage.googleapis.com/lw-poppodium013-roadburn-prod/cms/uploads/2021-04-17-fedc80fa8d9f2894c66cc8359920c68453898998.jpg"
          },
          {
            "name": "2021-04-17-90120ee82524a843d85e008ec712d27cce8b7666.jpg",
            "image_url": "https://storage.googleapis.com/lw-poppodium013-roadburn-prod/cms/uploads/2021-04-17-90120ee82524a843d85e008ec712d27cce8b7666.jpg"
          },
          {
            "name": "2021-04-17-79e553d6b348b7eef837586568752c1c905373c1.jpg",
            "image_url": "https://storage.googleapis.com/lw-poppodium013-roadburn-prod/cms/uploads/2021-04-17-79e553d6b348b7eef837586568752c1c905373c1.jpg"
          },
          {
            "name": "2021-04-17-6db31c84814bfaf18c027b84cabdffa970ddaffb.jpg",
            "image_url": "https://storage.googleapis.com/lw-poppodium013-roadburn-prod/cms/uploads/2021-04-17-6db31c84814bfaf18c027b84cabdffa970ddaffb.jpg"
          },
          {
            "name": "2021-04-17-65f6bdb3001ad6ce2c494e3d113e828dc0f64f7a.jpg",
            "image_url": "https://storage.googleapis.com/lw-poppodium013-roadburn-prod/cms/uploads/2021-04-17-65f6bdb3001ad6ce2c494e3d113e828dc0f64f7a.jpg"
          },
          {
            "name": "2021-04-17-f4d6e200dc8a69e0bdecf4e1e8b77507c7fc983c.jpg",
            "image_url": "https://storage.googleapis.com/lw-poppodium013-roadburn-prod/cms/uploads/2021-04-17-f4d6e200dc8a69e0bdecf4e1e8b77507c7fc983c.jpg"
          },
          {
            "name": "2021-04-17-9a71b314287cb2b4ae1672b9ab75eec92915f0fd.jpg",
            "image_url": "https://storage.googleapis.com/lw-poppodium013-roadburn-prod/cms/uploads/2021-04-17-9a71b314287cb2b4ae1672b9ab75eec92915f0fd.jpg"
          },
          {
            "name": "2021-04-17-2b0eb234127737ba7d23bde7b0619a111dd07075.jpg",
            "image_url": "https://storage.googleapis.com/lw-poppodium013-roadburn-prod/cms/uploads/2021-04-17-2b0eb234127737ba7d23bde7b0619a111dd07075.jpg"
          }
        ],
        "data_url": null,
        "meta_image": null,
        "meta_title": null,
        "thumb_url": null,
        "data_type": null,
        "channel_id": null
      },
      "category": null,
      "time_end": null,
      "time_start": "2021-04-16T05:00:00.000000Z",
      "updated_at": "2021-04-18T04:59:55.000000Z",
      "post_type": "carousel",
      "comments_count": 1,
      "active": 1,
      "content": "<p><strong>Spill Gold</strong> - captured by Niels Vinck, live from the 013 venue, Tilburg. April 17, 2021.</p>",
      "highlight": 0,
      "slug": "spill-gold-in-pictures",
      "data_id": 214,
      "published_at": "2021-04-17T14:46:00.000000Z",
      "created_at": "2021-04-17T14:42:29.000000Z"
    },
    {
      "liked": false,
      "likes_count": 83,
      "post_type_status": "available",
      "title": "Commissioned: Primitive Man",
      "post_type_data": {
        "images": [
          {
            "name": "2021-04-15-c56b482c684b7fcad21941f708e26dc1a308764b.jpeg",
            "image_url": "https://storage.googleapis.com/lw-poppodium013-roadburn-prod/cms/uploads/2021-04-15-c56b482c684b7fcad21941f708e26dc1a308764b.jpeg"
          }
        ],
        "data_url": "https://player.vimeo.com/video/536819205",
        "meta_image": null,
        "meta_title": null,
        "thumb_url": null,
        "data_type": "VIMEO",
        "channel_id": null
      },
      "category": {
        "code": "audio_n_video_premieres",
        "category_name": "Audio & video premieres",
        "category_id": 3
      },
      "time_end": null,
      "time_start": "2021-04-15T08:00:00.000000Z",
      "updated_at": "2021-04-18T21:27:24.000000Z",
      "post_type": "video",
      "comments_count": 10,
      "active": 1,
      "content": "<p>If you’ve not read <strong>Vince Bellino</strong>’s preview of what <strong>Primitive Man</strong> have in store click <a href=\"https://www.roadburnredux.com/#detail?id=160\" rel=\"noopener noreferrer\" target=\"_blank\">HERE</a> to do that right now. We’d be surprised if you’re not already familiar with these guys - we’ve been singing their praises and considered ourselves fans for several years now, so much so that when circumstances prevented an in-person Roadburn performance, we commissioned them to create some new music. And it’s that which we’re delighted to bring you right now - a force of nature, a testament to determination, against the odds - <strong>Primitive Man</strong>.</p><p>The track is titled <em>Cage Intimacy</em>&nbsp;and it was written, conceptualised, and pulled out of the mud by E<strong>than Lee McCarthy</strong>, <strong>Jonathan Campos</strong> &amp; <strong>Joseph Linden</strong>. Of the track, <strong>Ethan</strong> told us:</p><p>“This song is about how I would rather find the strength to persevere alone while facing extremely difficult circumstances, than to ask for the aid of anyone who base all of their relationships on having strings attached that they will later use to strangle you with.&nbsp;How some individuals will use intimacy as a weapon to gain an advantage over you.&nbsp;&nbsp;&nbsp;&nbsp;</p><p><br></p><p>Filmed by Neil Barrett in Lubbock, TX</p><p>Concepts &amp; art direction by Ethan Lee McCarthy &amp; Neil Barrett</p><p>Song mixed &amp; mastered by Adam Tucker at Signature Tone Recording.&nbsp;&nbsp;</p><p>Performances captured at Juggernaut audio in March of 2021.</p><p><br></p><p><a href=\"https://www.primitivemandoom.com/\" rel=\"noopener noreferrer\" target=\"_blank\">Support the band here.</a></p>",
      "highlight": 1,
      "slug": "commissioned-primitive-man",
      "data_id": 153,
      "published_at": "2021-04-17T14:40:00.000000Z",
      "created_at": "2021-04-15T07:42:23.000000Z"
    },
    {
      "liked": false,
      "likes_count": 61,
      "post_type_status": "available",
      "title": "Knoll",
      "post_type_data": {
        "images": [
          {
            "name": "2021-04-15-7359c91b2a09d893073a271c0ae368b490778f19.jpg",
            "image_url": "https://storage.googleapis.com/lw-poppodium013-roadburn-prod/cms/uploads/2021-04-15-7359c91b2a09d893073a271c0ae368b490778f19.jpg"
          }
        ],
        "data_url": "https://player.vimeo.com/video/535830031",
        "meta_image": null,
        "meta_title": null,
        "thumb_url": null,
        "data_type": "VIMEO",
        "channel_id": null
      },
      "category": {
        "code": "exclusive_sets",
        "category_name": "Exclusive sets",
        "category_id": 2
      },
      "time_end": null,
      "time_start": "2021-04-14T08:20:00.000000Z",
      "updated_at": "2021-04-18T20:42:38.000000Z",
      "post_type": "video",
      "comments_count": 11,
      "active": 1,
      "content": "<p>They may be young but don’t allow their age to give you cause to underestimate this Tennessee ensemble. They have one self-released full length - <a href=\"https://knollvhs.bandcamp.com/album/interstice-2\" rel=\"noopener noreferrer\" target=\"_blank\">Interstice</a> - out now, and we’re told there’s plans for further releases this year. They still made time to record us this special set - which they’re all getting together to watch right now (Hello <strong>Knoll</strong>! Hello mum!) - so prepare to have your face ripped clean off. </p>",
      "highlight": 1,
      "slug": "knoll",
      "data_id": 75,
      "published_at": "2021-04-17T14:20:00.000000Z",
      "created_at": "2021-04-13T10:53:14.000000Z"
    }
  ],
  "fresh_highlights": false,
  "highlights": []
}