{
  "fresh_dynamic_data": false,
  "links": {
    "next": "https://roadburn-api.lwprod.nl/api/posts?page=18",
    "prev": "https://roadburn-api.lwprod.nl/api/posts?page=16",
    "last": "https://roadburn-api.lwprod.nl/api/posts?page=38",
    "first": "https://roadburn-api.lwprod.nl/api/posts?page=1"
  },
  "meta": {
    "to": 85,
    "total": 189,
    "last_page": 38,
    "from": 81,
    "per_page": 5,
    "path": "https://roadburn-api.lwprod.nl/api/posts",
    "current_page": 17
  },
  "fresh": true,
  "posts_data": [
    {
      "liked": false,
      "likes_count": 87,
      "post_type_status": "available",
      "title": "TESA",
      "post_type_data": {
        "images": [
          {
            "name": "2021-04-15-713a95b831b6d6c19bfc9fa6011c57f8d03d3356.jpg",
            "image_url": "https://storage.googleapis.com/lw-poppodium013-roadburn-prod/cms/uploads/2021-04-15-713a95b831b6d6c19bfc9fa6011c57f8d03d3356.jpg"
          }
        ],
        "data_url": "https://player.vimeo.com/video/530691553",
        "meta_image": null,
        "meta_title": null,
        "thumb_url": null,
        "data_type": "VIMEO",
        "channel_id": null
      },
      "category": {
        "code": "audio_n_video_premieres",
        "category_name": "Audio & video premieres",
        "category_id": 3
      },
      "time_end": null,
      "time_start": "2021-04-14T08:15:00.000000Z",
      "updated_at": "2021-04-18T22:09:24.000000Z",
      "post_type": "video",
      "comments_count": 6,
      "active": 1,
      "content": "<p><strong>TESA</strong> released their hypnotic album <em>C O N T R O L</em> last year and we were enraptured. Today, we’re presenting the album with an exclusive element in the form of the accompanying visuals - originally designed to be part of a live show - that add an extra dynamic to the already mesmerising album. Stand too close to the cat and decant your beer into a plastic cup and you could almost pretend you’re at one of those live shows that never was.&nbsp;</p><p><a href=\"https://tesamusic.bandcamp.com/album/c-o-n-t-r-o-l\" rel=\"noopener noreferrer\" target=\"_blank\">More <strong>TESA</strong></a>!</p><p><br></p><p><br></p>",
      "highlight": 1,
      "slug": "tesa",
      "data_id": 77,
      "published_at": "2021-04-17T17:15:00.000000Z",
      "created_at": "2021-04-13T10:57:47.000000Z"
    },
    {
      "liked": false,
      "likes_count": 26,
      "post_type_status": "available",
      "title": "Solar Temple - in pictures",
      "post_type_data": {
        "images": [
          {
            "name": "2021-04-17-8b4681f2f762cb2b93a7b483fb229cdc7ab3ca50.jpg",
            "image_url": "https://storage.googleapis.com/lw-poppodium013-roadburn-prod/cms/uploads/2021-04-17-8b4681f2f762cb2b93a7b483fb229cdc7ab3ca50.jpg"
          },
          {
            "name": "2021-04-17-409bf9ff00108a51f3da09303019a263ac55a76e.jpg",
            "image_url": "https://storage.googleapis.com/lw-poppodium013-roadburn-prod/cms/uploads/2021-04-17-409bf9ff00108a51f3da09303019a263ac55a76e.jpg"
          },
          {
            "name": "2021-04-17-a063a846cabc2a8b87c97e37d5501ed8a11425b8.jpg",
            "image_url": "https://storage.googleapis.com/lw-poppodium013-roadburn-prod/cms/uploads/2021-04-17-a063a846cabc2a8b87c97e37d5501ed8a11425b8.jpg"
          },
          {
            "name": "2021-04-17-abd64368a35d94793af9d44626f09095f3bd4a88.jpg",
            "image_url": "https://storage.googleapis.com/lw-poppodium013-roadburn-prod/cms/uploads/2021-04-17-abd64368a35d94793af9d44626f09095f3bd4a88.jpg"
          },
          {
            "name": "2021-04-17-69041cded5f100a7f74ec9d7a246dc878aaa999a.jpg",
            "image_url": "https://storage.googleapis.com/lw-poppodium013-roadburn-prod/cms/uploads/2021-04-17-69041cded5f100a7f74ec9d7a246dc878aaa999a.jpg"
          },
          {
            "name": "2021-04-17-c471216c902bba8518afd60db9cff82975538053.jpg",
            "image_url": "https://storage.googleapis.com/lw-poppodium013-roadburn-prod/cms/uploads/2021-04-17-c471216c902bba8518afd60db9cff82975538053.jpg"
          },
          {
            "name": "2021-04-17-8121615dda04a4b11910686a689cb93d40259f32.jpg",
            "image_url": "https://storage.googleapis.com/lw-poppodium013-roadburn-prod/cms/uploads/2021-04-17-8121615dda04a4b11910686a689cb93d40259f32.jpg"
          },
          {
            "name": "2021-04-17-3dacc1856ceebaeeede0a6388d9bc90a970ecfab.jpg",
            "image_url": "https://storage.googleapis.com/lw-poppodium013-roadburn-prod/cms/uploads/2021-04-17-3dacc1856ceebaeeede0a6388d9bc90a970ecfab.jpg"
          }
        ],
        "data_url": null,
        "meta_image": null,
        "meta_title": null,
        "thumb_url": null,
        "data_type": null,
        "channel_id": null
      },
      "category": null,
      "time_end": null,
      "time_start": "2021-04-15T08:00:00.000000Z",
      "updated_at": "2021-04-18T22:57:50.000000Z",
      "post_type": "carousel",
      "comments_count": 2,
      "active": 1,
      "content": "<p><strong>Solar Temple</strong> - captured by Niels Vinck, live from the 013 venue, Tilburg. April 17, 2021.</p>",
      "highlight": 0,
      "slug": "solar-temple-in-pictures",
      "data_id": 219,
      "published_at": "2021-04-17T17:08:00.000000Z",
      "created_at": "2021-04-17T17:08:24.000000Z"
    },
    {
      "liked": false,
      "likes_count": 56,
      "post_type_status": "available",
      "title": "Le Guess Who? at Roadburn Redux: Plague Organ performing Orphan",
      "post_type_data": {
        "images": [
          {
            "name": "2021-04-15-8134f48e0467eaa8615b6f437409d51b228eb815.jpg",
            "image_url": "https://storage.googleapis.com/lw-poppodium013-roadburn-prod/cms/uploads/2021-04-15-8134f48e0467eaa8615b6f437409d51b228eb815.jpg"
          }
        ],
        "data_url": "https://player.vimeo.com/video/538128296",
        "meta_image": null,
        "meta_title": null,
        "thumb_url": null,
        "data_type": null,
        "channel_id": "M2ijTTmY"
      },
      "category": {
        "code": "livestreams",
        "category_name": "Livestreams",
        "category_id": 1
      },
      "time_end": null,
      "time_start": "2021-04-14T08:00:00.000000Z",
      "updated_at": "2021-04-19T01:52:12.000000Z",
      "post_type": "livestream",
      "comments_count": 24,
      "active": 1,
      "content": "<p>Offered up in conjunction with one of our all time favourite festivals, <strong>Le Guess Who?</strong>, we’re thrilled to be presenting <strong>Plague Organ</strong> - performing the soundtrack to your nightmares, AKA their album, <em>Orphan</em>.</p><p><a href=\"https://plagueorgan.bandcamp.com/album/orphan\" rel=\"noopener noreferrer\" target=\"_blank\">Click here if you want to get your own copy of <em>Orphan</em>. </a></p>",
      "highlight": 1,
      "slug": "le-guess-who-at-roadburn-redux-plague-organ-performing-orphan",
      "data_id": 23,
      "published_at": "2021-04-17T17:00:00.000000Z",
      "created_at": "2021-04-09T13:24:47.000000Z"
    },
    {
      "liked": false,
      "likes_count": 98,
      "post_type_status": "available",
      "title": "Jonathan Hultén",
      "post_type_data": {
        "images": [
          {
            "name": "2021-04-15-dc97667094918c974fa3e7043b518adc6e6adfe6.jpg",
            "image_url": "https://storage.googleapis.com/lw-poppodium013-roadburn-prod/cms/uploads/2021-04-15-dc97667094918c974fa3e7043b518adc6e6adfe6.jpg"
          }
        ],
        "data_url": "https://player.vimeo.com/video/538065182",
        "meta_image": null,
        "meta_title": null,
        "thumb_url": null,
        "data_type": "VIMEO",
        "channel_id": null
      },
      "category": {
        "code": "audio_n_video_premieres",
        "category_name": "Audio & video premieres",
        "category_id": 3
      },
      "time_end": null,
      "time_start": "2021-04-16T21:00:00.000000Z",
      "updated_at": "2021-04-19T05:10:20.000000Z",
      "post_type": "video",
      "comments_count": 15,
      "active": 1,
      "content": "<p><strong>Jonathan Hultén</strong> may be a familiar face to some of you - he’s graced our stages before! Now he’s back for Roadburn Redux to perform an online set of re-envisioned, minimalistic songs from recent album, <em>Chants From Another Place</em>. <strong>Hultén</strong> said in advance, “I’m excited to be performing at Roadburn again, this time with a short film created by my friends Jakob Johansson, Maria Larsson and myself. We call it “Ghosts and Memories of a Dead Forest”. The audio is mixed and mastered by Ola Ersfjord. We hope you will enjoy it!”</p><p><a href=\"https://jonathanhulten.com/\" rel=\"noopener noreferrer\" target=\"_blank\">More Jonathan here!</a></p>",
      "highlight": 1,
      "slug": "jonathan-hulten",
      "data_id": 173,
      "published_at": "2021-04-17T16:50:00.000000Z",
      "created_at": "2021-04-15T13:07:31.000000Z"
    },
    {
      "liked": false,
      "likes_count": 14,
      "post_type_status": "available",
      "title": "Preview: Neptunian Maximalism",
      "post_type_data": {
        "images": [
          {
            "name": "2021-04-15-e5fa82cf08679801fc4877bf75ca2f407cab054f.jpeg",
            "image_url": "https://storage.googleapis.com/lw-poppodium013-roadburn-prod/cms/uploads/2021-04-15-e5fa82cf08679801fc4877bf75ca2f407cab054f.jpeg"
          }
        ],
        "data_url": "https://roadburn.com/interview-neptunian-maximalism/",
        "meta_image": null,
        "meta_title": null,
        "thumb_url": null,
        "data_type": null,
        "channel_id": null
      },
      "category": {
        "code": "articles",
        "category_name": "Articles",
        "category_id": 5
      },
      "time_end": null,
      "time_start": "2021-04-14T10:00:00.000000Z",
      "updated_at": "2021-04-18T17:58:19.000000Z",
      "post_type": "article",
      "comments_count": 0,
      "active": 1,
      "content": "<p>\"I always dreamt of going to Roadburn, but every time my studies or my job made it impossible.”</p><p><strong>Dom Lawson</strong> caught up with <strong>Neptunian Maximalism</strong> - to find out what it’s like have your first in-the-flesh Roadburn experience be one where you’re preparing to play a specially commissioned project to a near empty venue.</p><p><br></p><p><br></p>",
      "highlight": 1,
      "slug": "preview-neptunian-maximalism",
      "data_id": 165,
      "published_at": "2021-04-17T16:30:00.000000Z",
      "created_at": "2021-04-15T12:37:24.000000Z"
    }
  ],
  "fresh_highlights": false,
  "highlights": []
}