{"fresh_dynamic_data":false,"links":{"next":"https://roadburn-api.lwprod.nl/api/posts?page=9","prev":"https://roadburn-api.lwprod.nl/api/posts?page=7","last":"https://roadburn-api.lwprod.nl/api/posts?page=38","first":"https://roadburn-api.lwprod.nl/api/posts?page=1"},"meta":{"to":40,"total":189,"last_page":38,"from":36,"per_page":5,"path":"https://roadburn-api.lwprod.nl/api/posts","current_page":8},"fresh":true,"posts_data":[{"liked":false,"likes_count":106,"post_type_status":"available","title":"Pelagic Presents: Psychonaut","post_type_data":{"images":[{"name":"2021-04-17-9167a6306fd7a51f24d1c78c723338819d1c1c82.jpg","image_url":"https://storage.googleapis.com/lw-poppodium013-roadburn-prod/cms/uploads/2021-04-17-9167a6306fd7a51f24d1c78c723338819d1c1c82.jpg"}],"data_url":"https://player.vimeo.com/video/523801946","meta_image":null,"meta_title":null,"thumb_url":null,"data_type":"VIMEO","channel_id":null},"category":{"code":"exclusive_sets","category_name":"Exclusive sets","category_id":2},"time_end":null,"time_start":"2021-04-13T21:00:00.000000Z","updated_at":"2021-04-19T04:28:06.000000Z","post_type":"video","comments_count":11,"active":1,"content":"<p><strong>Psychonaut</strong> will release a split with label-mates <strong>Sâver</strong> this year via <strong>Pelagic</strong>, which pushes the boundaries of the band in new directions. Relishing the challenge, they have recorded a play-through video of their new 16 minutes single, <em>The Great Realisation</em> featuring some special guests. </p><p><a href=\"https://pelagic-records.com/?s=psychonaut&amp;post_type=product\" rel=\"noopener noreferrer\" target=\"_blank\">More Psychonaut</a>.</p>","highlight":1,"slug":"pelagic-presents-psychonaut","data_id":94,"published_at":"2021-04-18T13:45:00.000000Z","created_at":"2021-04-13T11:57:16.000000Z"},{"liked":false,"likes_count":19,"post_type_status":"available","title":"Vinyl Veda Vault","post_type_data":{"images":[],"data_url":"https://www.youtube.com/embed/NK_wwTRapVc","meta_image":null,"meta_title":null,"thumb_url":null,"data_type":"YOUTUBE","channel_id":null},"category":{"code":"talks","category_name":"Talks","category_id":6},"time_end":null,"time_start":"2021-04-14T09:00:00.000000Z","updated_at":"2021-04-18T22:35:53.000000Z","post_type":"video","comments_count":4,"active":1,"content":"<p>A mainstay of Roadburn when it takes place in a physical form - we were keen to invite <strong>Andreas Kohl</strong> back for a 2021 edition of the <strong>Vinyl Veda Vault</strong>. Working in the vinyl business has been tumultuous for many years now, but surely a pandemic has made this even more of a wild ride to be on. <strong>José Carlos Santos</strong> catches up with <strong>Andreas</strong> to quiz him on the state of the industry and put your questions to him to (leave your questions in the comments below if you’re watching live!)</p>","highlight":1,"slug":"vinyl-veda-vault","data_id":128,"published_at":"2021-04-18T13:30:00.000000Z","created_at":"2021-04-14T09:14:06.000000Z"},{"liked":false,"likes_count":44,"post_type_status":"available","title":"Midwife","post_type_data":{"images":[{"name":"2021-04-17-160b67de983afa9e0391ca78ae3ded3fad733d1c.jpg","image_url":"https://storage.googleapis.com/lw-poppodium013-roadburn-prod/cms/uploads/2021-04-17-160b67de983afa9e0391ca78ae3ded3fad733d1c.jpg"}],"data_url":"https://player.vimeo.com/video/533944628","meta_image":null,"meta_title":null,"thumb_url":null,"data_type":"VIMEO","channel_id":null},"category":{"code":"audio_n_video_premieres","category_name":"Audio & video premieres","category_id":3},"time_end":null,"time_start":"2021-04-14T07:00:00.000000Z","updated_at":"2021-04-19T02:44:51.000000Z","post_type":"video","comments_count":9,"active":1,"content":"<p><strong>Madeline Johnston</strong> AKA <strong>Midwife</strong> was one of our most anticipated sets of the ill-fated 2020 line up, so we’re delighted to be able to bring you new material from this most captivating and enchanting musician.</p><p>The track is titled <em>Christina’s World</em>, and it's taken from the upcoming album, <em>Luminol</em>, <a href=\"https://nowflensing.com/blogs/news/midwife-luminol\" rel=\"noopener noreferrer\" target=\"_blank\">due out via <strong>The Flenser</strong> on July 16</a>.</p>","highlight":1,"slug":"midwife","data_id":93,"published_at":"2021-04-18T13:20:00.000000Z","created_at":"2021-04-13T11:54:53.000000Z"},{"liked":false,"likes_count":9,"post_type_status":"available","title":"Preview: Dead Neanderthals","post_type_data":{"images":[{"name":"2021-04-15-62bf6f0208354e78a0be2d5369353205e80a54ca.jpg","image_url":"https://storage.googleapis.com/lw-poppodium013-roadburn-prod/cms/uploads/2021-04-15-62bf6f0208354e78a0be2d5369353205e80a54ca.jpg"}],"data_url":"https://roadburn.com/interview-dead-neanderthals/","meta_image":null,"meta_title":null,"thumb_url":null,"data_type":null,"channel_id":null},"category":{"code":"articles","category_name":"Articles","category_id":5},"time_end":null,"time_start":"2021-04-15T13:10:00.000000Z","updated_at":"2021-04-18T21:28:35.000000Z","post_type":"article","comments_count":0,"active":1,"content":"<p>“Things are moving forward at breakneck speed”</p><p>The pandemic hasn’t slowed down the prolific output of <strong>Dead Neanderthals</strong>. <strong>Dom Lawson</strong> found out how their straight ahead attitude allowed them to prepare for Roadburn Redux with their trademark casual cool.&nbsp;</p><p><br></p><p><br></p>","highlight":1,"slug":"preview-dead-neanderthals","data_id":169,"published_at":"2021-04-18T13:10:00.000000Z","created_at":"2021-04-15T12:49:33.000000Z"},{"liked":false,"likes_count":46,"post_type_status":"available","title":"Commissioned: Dirk Serries performing Epitaph","post_type_data":{"images":[{"name":"2021-04-15-7bdf96d8d885bc794f1966f998095b4a7f5eb7f9.jpg","image_url":"https://storage.googleapis.com/lw-poppodium013-roadburn-prod/cms/uploads/2021-04-15-7bdf96d8d885bc794f1966f998095b4a7f5eb7f9.jpg"}],"data_url":"https://player.vimeo.com/video/538320834","meta_image":null,"meta_title":null,"thumb_url":null,"data_type":null,"channel_id":"SglMxxjk"},"category":{"code":"livestreams","category_name":"Livestreams","category_id":1},"time_end":null,"time_start":"2021-04-14T09:00:00.000000Z","updated_at":"2021-04-19T07:42:34.000000Z","post_type":"livestream","comments_count":2,"active":1,"content":"<p>Having already hosted <strong>Dirk Serries</strong> with <strong>Fear Falls Burning</strong>, <strong>Microphonics,</strong> <strong>Year of No Light,</strong> <strong>Yodok III </strong>and <strong>Scatterwound</strong> already, we were due to welcome him back in 2020 with <strong>Kodian Trio</strong>. Fate had other ideas… but with a creative spirit that never stops wandering and a thirst for experimenting, we knew that <strong>Dirk</strong> would be primed and ready to throw himself head first into a commissioned project for Roadburn Redux. And now the time is here… presenting<strong> Dirk Serries’ </strong><em>Epitaph.</em></p>","highlight":1,"slug":"commissioned-dirk-serries-performing-epitaph","data_id":27,"published_at":"2021-04-18T12:50:00.000000Z","created_at":"2021-04-09T13:33:24.000000Z"}],"fresh_highlights":false,"highlights":[]}