{
  "fresh_dynamic_data": false,
  "links": {
    "next": "https://roadburn-api.lwprod.nl/api/posts?page=11",
    "prev": "https://roadburn-api.lwprod.nl/api/posts?page=9",
    "last": "https://roadburn-api.lwprod.nl/api/posts?page=38",
    "first": "https://roadburn-api.lwprod.nl/api/posts?page=1"
  },
  "meta": {
    "to": 50,
    "total": 189,
    "last_page": 38,
    "from": 46,
    "per_page": 5,
    "path": "https://roadburn-api.lwprod.nl/api/posts",
    "current_page": 10
  },
  "fresh": true,
  "posts_data": [
    {
      "liked": false,
      "likes_count": 9,
      "post_type_status": "available",
      "title": "Scene Report: Psych",
      "post_type_data": {
        "images": [
          {
            "name": "2021-04-15-ff335d089c46a1fbd19babf3921824bed4418373.jpg",
            "image_url": "https://storage.googleapis.com/lw-poppodium013-roadburn-prod/cms/uploads/2021-04-15-ff335d089c46a1fbd19babf3921824bed4418373.jpg"
          }
        ],
        "data_url": "https://roadburn.com/scene-report-psych/",
        "meta_image": null,
        "meta_title": null,
        "thumb_url": null,
        "data_type": null,
        "channel_id": null
      },
      "category": {
        "code": "articles",
        "category_name": "Articles",
        "category_id": 5
      },
      "time_end": null,
      "time_start": "2021-04-14T09:00:00.000000Z",
      "updated_at": "2021-04-19T03:35:46.000000Z",
      "post_type": "article",
      "comments_count": 0,
      "active": 1,
      "content": "<p>For Roadburn Redux we approached three of our favourite writers to see if they’d use their skills and insight to whip up something of a scene report on an area of their expertise, in a style that felt most natural to them.</p><p><strong>Harry Sword</strong> loves the weird and the wonderful, and by pure coincidence he also loves psychedelic music. He often writes about it for <strong>The Quietus</strong>, and recently had his debut book published (it’s great - <a href=\"http://smarturl.it/MonolithicUndertow\" rel=\"noopener noreferrer\" target=\"_blank\">you can buy it here</a>) - which actually opens at Roadburn. We gave him free rein to delve into the noisy, fuzzy end of the musical spectrum and present his findings as he saw fit. And now we’re wrapping that up with a big ol’ Roadburn bow and presenting it to you, dear reader. Let’s get weird…&nbsp;</p>",
      "highlight": 1,
      "slug": "scene-report-psych",
      "data_id": 168,
      "published_at": "2021-04-18T11:30:00.000000Z",
      "created_at": "2021-04-15T12:48:04.000000Z"
    },
    {
      "liked": false,
      "likes_count": 10,
      "post_type_status": "available",
      "title": "Ticket To Tilburg: Fans",
      "post_type_data": {
        "images": [],
        "data_url": null,
        "meta_image": null,
        "meta_title": null,
        "thumb_url": null,
        "data_type": null,
        "channel_id": null
      },
      "category": null,
      "time_end": null,
      "time_start": "2021-04-15T10:00:00.000000Z",
      "updated_at": "2021-04-18T21:29:02.000000Z",
      "post_type": "written_update",
      "comments_count": 0,
      "active": 1,
      "content": "<p>The community is what makes Roadburn so special. In this City Marketing article, we meet Roadburn fan, <strong>Tim</strong>, he’s been visiting the festival since 2012. This year he is watching together with his wife <strong>Laura</strong> and perhaps the youngestRoadburn visitor ever: his daughter <strong>Zana</strong>.</p><p>&nbsp;</p><p>The feature is available to read in <a href=\"https://www.tickettotilburg.com/en/practical-information/blogs/roadburn-redux-is-back-with-another-3-days-of-heavy-music\" rel=\"noopener noreferrer\" target=\"_blank\">English</a> and <a href=\"https://www.tickettotilburg.com/nl/praktische-info/blogs/ook-dit-jaar-3-dagen-zware-muziek-tijdens-roadburn-redux\" rel=\"noopener noreferrer\" target=\"_blank\">Dutch</a>.\t </p>",
      "highlight": 0,
      "slug": "ticket-to-tilburg-fans",
      "data_id": 230,
      "published_at": "2021-04-18T11:15:00.000000Z",
      "created_at": "2021-04-18T11:10:57.000000Z"
    },
    {
      "liked": false,
      "likes_count": 38,
      "post_type_status": "available",
      "title": "Astrosoniq - Live at Roadburn 2016",
      "post_type_data": {
        "images": [
          {
            "name": "2021-04-17-54a122b77557ef517df140502d73f5e8e4744ca6.jpg",
            "image_url": "https://storage.googleapis.com/lw-poppodium013-roadburn-prod/cms/uploads/2021-04-17-54a122b77557ef517df140502d73f5e8e4744ca6.jpg"
          }
        ],
        "data_url": "https://player.vimeo.com/video/525650620",
        "meta_image": null,
        "meta_title": null,
        "thumb_url": null,
        "data_type": "VIMEO",
        "channel_id": null
      },
      "category": {
        "code": "audio_n_video_premieres",
        "category_name": "Audio & video premieres",
        "category_id": 3
      },
      "time_end": null,
      "time_start": "2021-04-13T21:00:00.000000Z",
      "updated_at": "2021-04-19T00:59:00.000000Z",
      "post_type": "video",
      "comments_count": 4,
      "active": 1,
      "content": "<p>As with a ‘normal’ edition of Roadburn we are always looking to the future - but with one eye always on what has gone before, the past, our foundations and where we came from. Sometimes it’s just what’s needed to take a glance backward, especially when we’re so devoid of the things we once took for granted. This <strong>Astrosoniq</strong> set from 2016 has been set free from the vault, and now seems like the perfect time to share it with you. Whether you’re reliving this extended set or experiencing this sonic wizardry for the first time, you can see for yourself why <strong>Astrosoniq</strong> was at vanguard of the homegrown Dutch psychedelic / stoner scene of the '90s and '00s, and are still met with much reverence in The Netherlands and abroad.</p>",
      "highlight": 1,
      "slug": "astrosoniq-live-at-roadburn-2016",
      "data_id": 89,
      "published_at": "2021-04-18T11:00:00.000000Z",
      "created_at": "2021-04-13T11:46:42.000000Z"
    },
    {
      "liked": false,
      "likes_count": 34,
      "post_type_status": "available",
      "title": "Neptunian Maximalism - in pictures",
      "post_type_data": {
        "images": [
          {
            "name": "2021-04-18-e6bd6d278b8fdb5080c81a1c1d63e0c48aaee5e2.jpg",
            "image_url": "https://storage.googleapis.com/lw-poppodium013-roadburn-prod/cms/uploads/2021-04-18-e6bd6d278b8fdb5080c81a1c1d63e0c48aaee5e2.jpg"
          },
          {
            "name": "2021-04-18-bfcc0776f3d680df4347e6195857850f8bd2e67e.jpg",
            "image_url": "https://storage.googleapis.com/lw-poppodium013-roadburn-prod/cms/uploads/2021-04-18-bfcc0776f3d680df4347e6195857850f8bd2e67e.jpg"
          },
          {
            "name": "2021-04-18-895e98bf12cd2a296ee87df916c7be15cca7e6b3.jpg",
            "image_url": "https://storage.googleapis.com/lw-poppodium013-roadburn-prod/cms/uploads/2021-04-18-895e98bf12cd2a296ee87df916c7be15cca7e6b3.jpg"
          },
          {
            "name": "2021-04-18-98cceb8f446092d9f742c422db36f20339c13c48.jpg",
            "image_url": "https://storage.googleapis.com/lw-poppodium013-roadburn-prod/cms/uploads/2021-04-18-98cceb8f446092d9f742c422db36f20339c13c48.jpg"
          },
          {
            "name": "2021-04-18-f60af2de0f23e03191b9496fce71b8d312da3e99.jpg",
            "image_url": "https://storage.googleapis.com/lw-poppodium013-roadburn-prod/cms/uploads/2021-04-18-f60af2de0f23e03191b9496fce71b8d312da3e99.jpg"
          },
          {
            "name": "2021-04-18-763897dec099ff13223bdbb8759161a5513361c1.jpg",
            "image_url": "https://storage.googleapis.com/lw-poppodium013-roadburn-prod/cms/uploads/2021-04-18-763897dec099ff13223bdbb8759161a5513361c1.jpg"
          },
          {
            "name": "2021-04-18-9b65f84c28498172373a766469c6cd87b957bb7e.jpg",
            "image_url": "https://storage.googleapis.com/lw-poppodium013-roadburn-prod/cms/uploads/2021-04-18-9b65f84c28498172373a766469c6cd87b957bb7e.jpg"
          },
          {
            "name": "2021-04-18-2cada1be3fef150192aedca5fed88530007d3667.jpg",
            "image_url": "https://storage.googleapis.com/lw-poppodium013-roadburn-prod/cms/uploads/2021-04-18-2cada1be3fef150192aedca5fed88530007d3667.jpg"
          },
          {
            "name": "2021-04-18-d3309103ad3f8cc5dc68e9b89f8f115eacd3c2df.jpg",
            "image_url": "https://storage.googleapis.com/lw-poppodium013-roadburn-prod/cms/uploads/2021-04-18-d3309103ad3f8cc5dc68e9b89f8f115eacd3c2df.jpg"
          },
          {
            "name": "2021-04-18-e8ab470f53c3c072972bd071e45fc93a6098b8a5.jpg",
            "image_url": "https://storage.googleapis.com/lw-poppodium013-roadburn-prod/cms/uploads/2021-04-18-e8ab470f53c3c072972bd071e45fc93a6098b8a5.jpg"
          },
          {
            "name": "2021-04-18-10badbf76b88b31f9e4c82f6e934c3374362d131.jpg",
            "image_url": "https://storage.googleapis.com/lw-poppodium013-roadburn-prod/cms/uploads/2021-04-18-10badbf76b88b31f9e4c82f6e934c3374362d131.jpg"
          },
          {
            "name": "2021-04-18-600e0ffdba51032ebb4a5711133d71b5488932fd.jpg",
            "image_url": "https://storage.googleapis.com/lw-poppodium013-roadburn-prod/cms/uploads/2021-04-18-600e0ffdba51032ebb4a5711133d71b5488932fd.jpg"
          },
          {
            "name": "2021-04-18-3948913f6360c5b4e3be3c0acafd9d668f7fe908.jpg",
            "image_url": "https://storage.googleapis.com/lw-poppodium013-roadburn-prod/cms/uploads/2021-04-18-3948913f6360c5b4e3be3c0acafd9d668f7fe908.jpg"
          },
          {
            "name": "2021-04-18-b8732332c4cdfb913c1b7df95b3c3a60d22b1ae4.jpg",
            "image_url": "https://storage.googleapis.com/lw-poppodium013-roadburn-prod/cms/uploads/2021-04-18-b8732332c4cdfb913c1b7df95b3c3a60d22b1ae4.jpg"
          }
        ],
        "data_url": null,
        "meta_image": null,
        "meta_title": null,
        "thumb_url": null,
        "data_type": null,
        "channel_id": null
      },
      "category": null,
      "time_end": null,
      "time_start": "2021-04-08T08:00:00.000000Z",
      "updated_at": "2021-04-19T04:04:05.000000Z",
      "post_type": "carousel",
      "comments_count": 0,
      "active": 1,
      "content": "<p><strong>Neptunian Maximalism</strong> - captured by Niels Vinck, live from the 013 venue, Tilburg. April 17, 2021.</p>",
      "highlight": 0,
      "slug": "neptunian-maximalism-in-pictures",
      "data_id": 229,
      "published_at": "2021-04-18T10:50:00.000000Z",
      "created_at": "2021-04-18T10:42:02.000000Z"
    },
    {
      "liked": false,
      "likes_count": 33,
      "post_type_status": "available",
      "title": "Talea Jacta meets Electric Moon",
      "post_type_data": {
        "images": [
          {
            "name": "2021-04-18-1ccea2836fe8ea659ae01c67caa9bb7ebbab1369.jpg",
            "image_url": "https://storage.googleapis.com/lw-poppodium013-roadburn-prod/cms/uploads/2021-04-18-1ccea2836fe8ea659ae01c67caa9bb7ebbab1369.jpg"
          }
        ],
        "data_url": "https://w.soundcloud.com/player/?url=https%3A//api.soundcloud.com/tracks/1024328773%3Fsecret_token%3Ds-DuMNTmPOYnX&color=%23ff5500&auto_play=false&hide_related=true&show_comments=false&show_user=true&show_reposts=false&show_teaser=false&visual=true",
        "meta_image": null,
        "meta_title": null,
        "thumb_url": null,
        "data_type": null,
        "channel_id": null
      },
      "category": {
        "code": "audio_n_video_premieres",
        "category_name": "Audio & video premieres",
        "category_id": 3
      },
      "time_end": null,
      "time_start": "2021-04-14T09:00:00.000000Z",
      "updated_at": "2021-04-19T04:12:35.000000Z",
      "post_type": "soundcloud",
      "comments_count": 1,
      "active": 1,
      "content": "<p>It's no secret we like to make our way through the outer reaches of the galaxy, and we consider <strong>Electric Moon</strong> a part of our Roadburn family, and so it’s truly a pleasure to bring you the exclusive premiere of <em>Part 1</em>, the opener of <em>Sabator</em>, the forthcoming live album to be released in September on the band's <strong>Sula Bassana’s</strong> own <strong>Sulatron</strong> <strong>Records</strong>.</p>",
      "highlight": 1,
      "slug": "talea-jacta-meets-electric-moon",
      "data_id": 121,
      "published_at": "2021-04-18T10:40:00.000000Z",
      "created_at": "2021-04-14T08:40:15.000000Z"
    }
  ],
  "fresh_highlights": false,
  "highlights": []
}