{
  "fresh_dynamic_data": false,
  "links": {
    "next": "https://roadburn-api.lwprod.nl/api/posts?page=29",
    "prev": "https://roadburn-api.lwprod.nl/api/posts?page=27",
    "last": "https://roadburn-api.lwprod.nl/api/posts?page=38",
    "first": "https://roadburn-api.lwprod.nl/api/posts?page=1"
  },
  "meta": {
    "to": 140,
    "total": 189,
    "last_page": 38,
    "from": 136,
    "per_page": 5,
    "path": "https://roadburn-api.lwprod.nl/api/posts",
    "current_page": 28
  },
  "fresh": true,
  "posts_data": [
    {
      "liked": false,
      "likes_count": 74,
      "post_type_status": "available",
      "title": "Svart Sessions: Dust Mountain",
      "post_type_data": {
        "images": [
          {
            "name": "2021-04-14-e01cfa0ac4b8713a02b162f343c163c30f4a3ae2.jpg",
            "image_url": "https://storage.googleapis.com/lw-poppodium013-roadburn-prod/cms/uploads/2021-04-14-e01cfa0ac4b8713a02b162f343c163c30f4a3ae2.jpg"
          }
        ],
        "data_url": "https://player.vimeo.com/video/535767666",
        "meta_image": null,
        "meta_title": null,
        "thumb_url": null,
        "data_type": "VIMEO",
        "channel_id": null
      },
      "category": {
        "code": "exclusive_sets",
        "category_name": "Exclusive sets",
        "category_id": 2
      },
      "time_end": null,
      "time_start": "2021-04-14T08:40:00.000000Z",
      "updated_at": "2021-04-18T16:22:25.000000Z",
      "post_type": "video",
      "comments_count": 11,
      "active": 1,
      "content": "<p>We didn’t have any reservations about taking a leap of faith with <strong>Dust Mountain</strong> - including them on the line up for Roadburn Redux. Having taken a sneaky peek at this video in advance, we were right to have absolute confidence. From a dark, damp Wastement of Tampere, Finland, rises a new musical force in the form of <strong>Dust Mountain</strong>. At the core of the five-piece is the songwriting duo, siblings <strong>Henna Hietamaki</strong> (<strong>Cats of Transnistria</strong>) and <strong>Toni Hietamaki </strong>(<strong>Oranssi Pazuzu</strong>, <strong>Waste of Space Orchestra</strong>); the ensemble also features members of <strong>Hexvessel</strong> / <strong>Dark Buddha Rising</strong> and <strong>Death Hawks</strong>. Now it’s time for you to meet them… </p>",
      "highlight": 1,
      "slug": "svart-sessions-dust-mountain",
      "data_id": 60,
      "published_at": "2021-04-16T17:40:00.000000Z",
      "created_at": "2021-04-13T09:36:47.000000Z"
    },
    {
      "liked": false,
      "likes_count": 226,
      "post_type_status": "available",
      "title": "Commissioned: GOLD performing This Shame Should Not Be Mine",
      "post_type_data": {
        "images": [
          {
            "name": "2021-04-14-5a9cf4ca397b1610ea0be90b61d800bbd1f06c9b.jpg",
            "image_url": "https://storage.googleapis.com/lw-poppodium013-roadburn-prod/cms/uploads/2021-04-14-5a9cf4ca397b1610ea0be90b61d800bbd1f06c9b.jpg"
          }
        ],
        "data_url": "https://player.vimeo.com/video/538095907",
        "meta_image": null,
        "meta_title": null,
        "thumb_url": "https://media-storage.lwmicro.com/uploads/andgage_content/932fc130-9ee2-11eb-ae59-7f411a4541b4_Roadburn_2.jpg",
        "data_type": null,
        "channel_id": "pSfUVTtE"
      },
      "category": {
        "code": "livestreams",
        "category_name": "Livestreams",
        "category_id": 1
      },
      "time_end": null,
      "time_start": "2021-04-16T17:30:00.000000Z",
      "updated_at": "2021-04-19T08:05:21.000000Z",
      "post_type": "livestream",
      "comments_count": 43,
      "active": 1,
      "content": "<p>Mark this down as one of our most highly anticipated performances of this weekend. Having been privy to a sneak peek at the material, we can confirm that this performance will be as beautiful as it will be raw; as cathartic as it will be emotionally charged. <em>This Shame Should Not Be Mine</em> will see <strong>GOLD</strong> at the height of their powers. Take a deep breath, and let’s do this…</p><p><br></p><p>If you like what you see, click here for more from <a href=\"https://linktr.ee/thebandGOLD \" rel=\"noopener noreferrer\" target=\"_blank\"><strong>GOLD</strong></a>. </p>",
      "highlight": 1,
      "slug": "commissioned-gold-performing-this-shame-should-not-be-mine",
      "data_id": 18,
      "published_at": "2021-04-16T17:30:00.000000Z",
      "created_at": "2021-04-09T13:15:37.000000Z"
    },
    {
      "liked": false,
      "likes_count": 42,
      "post_type_status": "available",
      "title": "Autarkh - in pictures",
      "post_type_data": {
        "images": [
          {
            "name": "2021-04-16-34c63a1a279a91035918c25edb5fdb2d377ce7be.jpg",
            "image_url": "https://storage.googleapis.com/lw-poppodium013-roadburn-prod/cms/uploads/2021-04-16-34c63a1a279a91035918c25edb5fdb2d377ce7be.jpg"
          },
          {
            "name": "2021-04-16-170ed19ee59b8ed2aabe3913e9af8075ee3d2dcc.jpg",
            "image_url": "https://storage.googleapis.com/lw-poppodium013-roadburn-prod/cms/uploads/2021-04-16-170ed19ee59b8ed2aabe3913e9af8075ee3d2dcc.jpg"
          },
          {
            "name": "2021-04-16-3b6c4064b5f585dfd047a3dbc2efcf0f893d3ac9.jpg",
            "image_url": "https://storage.googleapis.com/lw-poppodium013-roadburn-prod/cms/uploads/2021-04-16-3b6c4064b5f585dfd047a3dbc2efcf0f893d3ac9.jpg"
          },
          {
            "name": "2021-04-16-8843ec7731af8c76e06e4fc146d7d58bc1d47b8c.jpg",
            "image_url": "https://storage.googleapis.com/lw-poppodium013-roadburn-prod/cms/uploads/2021-04-16-8843ec7731af8c76e06e4fc146d7d58bc1d47b8c.jpg"
          },
          {
            "name": "2021-04-16-a0c5a3fd335469f2e1fbd0d3e655117b8b3a0b6e.jpg",
            "image_url": "https://storage.googleapis.com/lw-poppodium013-roadburn-prod/cms/uploads/2021-04-16-a0c5a3fd335469f2e1fbd0d3e655117b8b3a0b6e.jpg"
          },
          {
            "name": "2021-04-16-3230bf904901cefcb68b336a0c13704ef0061084.jpg",
            "image_url": "https://storage.googleapis.com/lw-poppodium013-roadburn-prod/cms/uploads/2021-04-16-3230bf904901cefcb68b336a0c13704ef0061084.jpg"
          },
          {
            "name": "2021-04-16-2cd103f56b53e63464eb6c16f15830c0586b4d48.jpg",
            "image_url": "https://storage.googleapis.com/lw-poppodium013-roadburn-prod/cms/uploads/2021-04-16-2cd103f56b53e63464eb6c16f15830c0586b4d48.jpg"
          },
          {
            "name": "2021-04-16-1c1868b5616910cf90ae9c1a87dad1b2e805b531.jpg",
            "image_url": "https://storage.googleapis.com/lw-poppodium013-roadburn-prod/cms/uploads/2021-04-16-1c1868b5616910cf90ae9c1a87dad1b2e805b531.jpg"
          },
          {
            "name": "2021-04-16-9cfe84a3531af5a5ed8fc730f06f14595d13026d.jpg",
            "image_url": "https://storage.googleapis.com/lw-poppodium013-roadburn-prod/cms/uploads/2021-04-16-9cfe84a3531af5a5ed8fc730f06f14595d13026d.jpg"
          }
        ],
        "data_url": null,
        "meta_image": null,
        "meta_title": null,
        "thumb_url": null,
        "data_type": null,
        "channel_id": null
      },
      "category": null,
      "time_end": null,
      "time_start": "2021-04-15T10:00:00.000000Z",
      "updated_at": "2021-04-17T17:04:00.000000Z",
      "post_type": "carousel",
      "comments_count": 3,
      "active": 1,
      "content": "<p><strong>Autarkh</strong>&nbsp;- captured by&nbsp;Paul Verhagen, live from the 013 venue, Tilburg. April 16, 2021.</p>",
      "highlight": 0,
      "slug": "autarkh-in-pictures",
      "data_id": 194,
      "published_at": "2021-04-16T17:20:00.000000Z",
      "created_at": "2021-04-16T17:16:44.000000Z"
    },
    {
      "liked": false,
      "likes_count": 124,
      "post_type_status": "available",
      "title": "Jo Quail",
      "post_type_data": {
        "images": [
          {
            "name": "2021-04-14-cf3dcc48d30136d257408299c21df0a206dfa62e.jpg",
            "image_url": "https://storage.googleapis.com/lw-poppodium013-roadburn-prod/cms/uploads/2021-04-14-cf3dcc48d30136d257408299c21df0a206dfa62e.jpg"
          }
        ],
        "data_url": "https://player.vimeo.com/video/531659382",
        "meta_image": null,
        "meta_title": null,
        "thumb_url": null,
        "data_type": "VIMEO",
        "channel_id": null
      },
      "category": {
        "code": "exclusive_sets",
        "category_name": "Exclusive sets",
        "category_id": 2
      },
      "time_end": null,
      "time_start": "2021-04-14T07:10:00.000000Z",
      "updated_at": "2021-04-18T22:37:55.000000Z",
      "post_type": "video",
      "comments_count": 17,
      "active": 1,
      "content": "<p>We’re so delighted to have <strong>Jo Quail </strong>still be part of Roadburn Redux - despite travel restrictions forcing (another!) postponement of <em>The Cartographer</em>. Instead she recorded this very special short set for us featuring <em>Maquette</em> - a track that has never been performed before, existing only as sheet music - and <em>Rex Infractus</em>, the first track from her first album, which hasn’t been played live for several years. As ever, <strong>Jo</strong> has created something incredibly special and we’re honoured to be the ones to present that to you.</p><p>Want more <strong>Jo Quail</strong>? <a href=\"https://joquail.bandcamp.com/\" rel=\"noopener noreferrer\" target=\"_blank\">We don't blame you.</a> </p>",
      "highlight": 1,
      "slug": "jo-quail",
      "data_id": 112,
      "published_at": "2021-04-16T17:10:00.000000Z",
      "created_at": "2021-04-14T06:23:49.000000Z"
    },
    {
      "liked": false,
      "likes_count": 29,
      "post_type_status": "available",
      "title": "Friday - half-time re-cap",
      "post_type_data": {
        "images": [],
        "data_url": null,
        "meta_image": null,
        "meta_title": null,
        "thumb_url": null,
        "data_type": null,
        "channel_id": null
      },
      "category": null,
      "time_end": null,
      "time_start": "2021-04-15T09:00:00.000000Z",
      "updated_at": "2021-04-17T17:04:04.000000Z",
      "post_type": "written_update",
      "comments_count": 6,
      "active": 1,
      "content": "<p>Whew, we're just about half way through Friday, but with a whole lot still to come. What have been your highlights so far?</p><p>If you're just joining us here's what you've missed:</p><ul><li>We snuck in off-schedule premieres from <strong>Darkher</strong> and <strong>BIG | BRAVE</strong></li><li>We aired a documentary about artist, <strong>Douwe Dijkstra</strong></li><li>We unveiled <strong>Amenra</strong> as the first participant of The Songs of Townes Van Zandt Vol. III</li><li>Premieres from <strong>Of Wolves</strong>, <strong>Kayo Dot</strong>, <strong>Thy Catafalque</strong></li><li>Q&amp;As with <strong>Robin Staps</strong> and <strong>BIG | BRAVE</strong> (not together, that would be odd!)</li><li>A psychedelic jam from <strong>Doctors of Space</strong></li><li>Audio from <strong>Emma Ruth Rundle</strong> &amp; <strong>Thou'</strong>s 2019 show</li><li>Sets from <strong>Nadja</strong>, <strong>Nero Di Marte</strong></li><li>A handful of killer articles from awesome writers</li><li>A whole bunch of <strong>Pelagic Records</strong> bands doing their thing</li><li>And LIVE STREAMS (!!) from <strong>Die Wilde Jagd</strong> and <strong>Autarkh</strong>. </li></ul><p>Tell us if we forgot something...?</p><p>The Pit Stop is open if you want to have a virtual hangout with your fellow 'burners. </p><p>Donations are welcome (but not required!)</p><p>Hope you're all having a great time!</p>",
      "highlight": 0,
      "slug": "friday-half-time-re-cap",
      "data_id": 193,
      "published_at": "2021-04-16T17:05:00.000000Z",
      "created_at": "2021-04-16T16:56:08.000000Z"
    }
  ],
  "fresh_highlights": false,
  "highlights": []
}