{"fresh_dynamic_data":false,"links":{"next":"https://roadburn-api.lwprod.nl/api/posts?page=33","prev":"https://roadburn-api.lwprod.nl/api/posts?page=31","last":"https://roadburn-api.lwprod.nl/api/posts?page=38","first":"https://roadburn-api.lwprod.nl/api/posts?page=1"},"meta":{"to":160,"total":189,"last_page":38,"from":156,"per_page":5,"path":"https://roadburn-api.lwprod.nl/api/posts","current_page":32},"fresh":true,"posts_data":[{"liked":false,"likes_count":61,"post_type_status":"available","title":"Roadburn Deep Dive - Emma Ruth Rundle","post_type_data":{"images":[{"name":"2021-04-15-be26087d2da71d0860af4fd50c4c0559f5beec6f.jpg","image_url":"https://storage.googleapis.com/lw-poppodium013-roadburn-prod/cms/uploads/2021-04-15-be26087d2da71d0860af4fd50c4c0559f5beec6f.jpg"}],"data_url":"https://roadburn.com/roadburn-deep-dives-emma-ruth-rundle/","meta_image":null,"meta_title":null,"thumb_url":null,"data_type":null,"channel_id":null},"category":{"code":"articles","category_name":"Articles","category_id":5},"time_end":null,"time_start":"2021-04-14T09:00:00.000000Z","updated_at":"2021-04-18T17:58:07.000000Z","post_type":"article","comments_count":0,"active":1,"content":"<blockquote>\"At Roadburn I felt respect as a musician for the first time in a way that I had never felt before in my life: I felt like I had a place.\"</blockquote><p><br></p><p><strong>José Carlos Santos</strong> took a deep dive with <strong>Emma Ruth Rundle</strong> - throwing it back to her 2017 solo performance in the Green Room. In this article, we find out just what that show meant to <strong>Emma</strong>, and to Roadburn as a festival. </p><p><br></p>","highlight":0,"slug":"roadburn-deep-dive-emma-ruth-rundle","data_id":159,"published_at":"2021-04-16T13:40:00.000000Z","created_at":"2021-04-15T12:19:40.000000Z"},{"liked":false,"likes_count":132,"post_type_status":"available","title":"Commissioned: Die Wilde Jagd performing Atem","post_type_data":{"images":[{"name":"2021-04-14-8ad91ac82a903b1a236bd2d99bf128880f534728.jpg","image_url":"https://storage.googleapis.com/lw-poppodium013-roadburn-prod/cms/uploads/2021-04-14-8ad91ac82a903b1a236bd2d99bf128880f534728.jpg"}],"data_url":"https://player.vimeo.com/video/537925277","meta_image":null,"meta_title":null,"thumb_url":"https://media-storage.lwmicro.com/uploads/andgage_content/d19003e0-9ece-11eb-9604-7b2374a82911_posterimage-1530-dag-1.jpg","data_type":null,"channel_id":"uzkCtxxb"},"category":{"code":"livestreams","category_name":"Livestreams","category_id":1},"time_end":null,"time_start":"2021-04-16T13:30:00.000000Z","updated_at":"2021-04-19T01:00:36.000000Z","post_type":"livestream","comments_count":13,"active":1,"content":"<p>Live from the 013 venue in Tilburg - beaming into your living room - we’re thrilled to present this commissioned project from <strong>Die Wilde Jagd.</strong> </p><p>We’re as in the dark as you are in terms of how this will unfold but what we do know is that&nbsp;<em>Atem</em> is a multi-cycle piece written for a hand built wooden organ pipe installation, cello, percussion and electronics. Inspired by ancient Far Eastern knowledge about the art and science of breathing and how it can preserve physical and mental health, as well as Georgian folk harmonies, <em>Atem</em> explores breath and its essential role in human life. We’re ready…</p><p><br></p><p>More from <strong>Die Wilde Jagd</strong> <a href=\"https://diewildejagd.bandcamp.com \" rel=\"noopener noreferrer\" target=\"_blank\">HERE</a>.</p>","highlight":0,"slug":"commissioned-die-wilde-jagd-performing-atem","data_id":16,"published_at":"2021-04-16T13:30:00.000000Z","created_at":"2021-04-09T13:09:31.000000Z"},{"liked":false,"likes_count":97,"post_type_status":"available","title":"Emma Ruth Rundle & Thou - Live at Roadburn 2019","post_type_data":{"images":[{"name":"2021-04-14-b4e5cf4979b12b60b94c0fb33adabf612e3f398f.jpeg","image_url":"https://storage.googleapis.com/lw-poppodium013-roadburn-prod/cms/uploads/2021-04-14-b4e5cf4979b12b60b94c0fb33adabf612e3f398f.jpeg"}],"data_url":"https://w.soundcloud.com/player/?url=https%3A//api.soundcloud.com/tracks/1013006083%3Fsecret_token%3Ds-CnT119x2Ghg&color=%23ff5500&auto_play=false&hide_related=true&show_comments=false&show_user=true&show_reposts=false&show_teaser=false&visual=true","meta_image":null,"meta_title":null,"thumb_url":null,"data_type":null,"channel_id":null},"category":{"code":"audio_n_video_premieres","category_name":"Audio & video premieres","category_id":3},"time_end":null,"time_start":"2021-04-14T08:00:00.000000Z","updated_at":"2021-04-18T18:46:46.000000Z","post_type":"soundcloud","comments_count":5,"active":1,"content":"<p>This spellbinding performance was the jumping off point for the incredible <em>May Our Chambers Be Full</em> album that this pairing <a href=\"https://www.sacredbonesrecords.com/products/sba007-emma-ruth-rundle-thou-may-our-chambers-be-full?_pos=1&amp;_sid=6a317baab&amp;_ss=r\" rel=\"noopener noreferrer\" target=\"_blank\">spawned</a>. If you were there, you can relive it all over again, if you missed out you’ll now be able to pretend you were there all along. If your eyes need a few minutes of rest from staring at the screen already, take a moment, close your eyes and transport yourself to the Koepelhal…&nbsp;</p>","highlight":1,"slug":"emma-ruth-rundle-thou-live-at-roadburn-2019","data_id":116,"published_at":"2021-04-16T13:20:00.000000Z","created_at":"2021-04-14T08:25:02.000000Z"},{"liked":false,"likes_count":37,"post_type_status":"available","title":"Q&A: Robin Staps of Pelagic Records","post_type_data":{"images":[{"name":"2021-04-15-a47f78da96e0214b5c3849d9de27659d45ef05c1.jpg","image_url":"https://storage.googleapis.com/lw-poppodium013-roadburn-prod/cms/uploads/2021-04-15-a47f78da96e0214b5c3849d9de27659d45ef05c1.jpg"}],"data_url":"https://www.youtube.com/embed/i2gLa_YCotE","meta_image":null,"meta_title":null,"thumb_url":null,"data_type":"YOUTUBE","channel_id":null},"category":{"code":"talks","category_name":"Talks","category_id":6},"time_end":null,"time_start":"2021-04-14T08:00:00.000000Z","updated_at":"2021-04-18T20:39:23.000000Z","post_type":"video","comments_count":16,"active":1,"content":"<p>Join <strong>José Carlos Santos</strong> as he chats all things <strong>Pelagic</strong> with <strong>Robin Staps</strong>. Feel free to drop your questions in the comments below - quiz <strong>Robin</strong> about his plans for the label, or the upcoming set from <strong>The Ocean</strong>. The label has such a deep well of talent, that no doubt it was hard to whittle it down for the P<strong>elagic Presents</strong> showcase - just how does <strong>Robin</strong> go about choosing his roster? Let’s find out…</p>","highlight":1,"slug":"qa-robin-staps-of-pelagic-records","data_id":122,"published_at":"2021-04-16T13:00:00.000000Z","created_at":"2021-04-14T08:55:26.000000Z"},{"liked":false,"likes_count":98,"post_type_status":"available","title":"BIG | BRAVE - Of This Ilk","post_type_data":{"images":[],"data_url":"https://player.vimeo.com/video/536683049","meta_image":null,"meta_title":null,"thumb_url":null,"data_type":"VIMEO","channel_id":null},"category":{"code":"audio_n_video_premieres","category_name":"Audio & video premieres","category_id":3},"time_end":null,"time_start":"2021-04-15T08:00:00.000000Z","updated_at":"2021-04-18T20:40:16.000000Z","post_type":"video","comments_count":10,"active":1,"content":"<p>It's another sneaky, off-schedule addition to your Roadburn Redux day. We're thrilled to be premiering this new track/video from one our favourites - <strong>BIG | BRAVE</strong>! The track is taken from their upcoming album, <em>Vital</em>. If you like what you hear, you can pre-order the album from <a href=\"https://bigbravesl.bandcamp.com/album/vital\" rel=\"noopener noreferrer\" target=\"_blank\">Bandcamp</a> or from <a href=\"https://southernlordeurope.com/\" rel=\"noopener noreferrer\" target=\"_blank\">Southern Lord</a> - the album will be released next Friday, April 23. Don't miss their chat later on today with <strong>Marika Zorzi</strong>. </p><p>--</p><p><em>\"This video and song is an ode to those that understand this all too well, all too deeply.</em></p><p><em>There is a silent form of suffering that most do not share. It is a private shame that is very public.</em></p><p><em>The percentage of the global population that take these painstaking, costly efforts in whitening, or rather more aptly, bleaching their skin is higher than a lot would understand, let alone, would ever consider. There is a billion dollar industry in injectables and cream-like products containing harsh and even life-threatening chemicals to lighten, clarify, and whiten one’s skin.</em></p><p><em>This video is an ode to my younger self, and to all the other children, teens and adults of the past, present and future that have used bleach in every way possible, that withdrew from the sun, used clothespins on their nose, scraped their skin raw, buying every product available, in trying every means they can think of to achieve this exclusive coveted lightness, whiteness.\"</em></p><p><br></p><p><em>- Robin Wattie</em></p><p><br></p>","highlight":0,"slug":"big-brave-of-this-ilk","data_id":186,"published_at":"2021-04-16T12:45:00.000000Z","created_at":"2021-04-16T11:37:48.000000Z"}],"fresh_highlights":false,"highlights":[]}