{"fresh_dynamic_data":false,"links":{"next":"https://roadburn-api.lwprod.nl/api/posts?page=8","prev":"https://roadburn-api.lwprod.nl/api/posts?page=6","last":"https://roadburn-api.lwprod.nl/api/posts?page=38","first":"https://roadburn-api.lwprod.nl/api/posts?page=1"},"meta":{"to":35,"total":189,"last_page":38,"from":31,"per_page":5,"path":"https://roadburn-api.lwprod.nl/api/posts","current_page":7},"fresh":true,"posts_data":[{"liked":false,"likes_count":13,"post_type_status":"available","title":"What We Missed Out On","post_type_data":{"images":[{"name":"2021-04-15-7359c91b2a09d893073a271c0ae368b490778f19.jpg","image_url":"https://storage.googleapis.com/lw-poppodium013-roadburn-prod/cms/uploads/2021-04-15-7359c91b2a09d893073a271c0ae368b490778f19.jpg"}],"data_url":"https://roadburn.com/what-we-missed-out-on/","meta_image":null,"meta_title":null,"thumb_url":null,"data_type":null,"channel_id":null},"category":{"code":"articles","category_name":"Articles","category_id":5},"time_end":null,"time_start":"2021-04-15T10:00:00.000000Z","updated_at":"2021-04-19T07:26:08.000000Z","post_type":"article","comments_count":2,"active":1,"content":"<p>Whilst we always like to think we have our ear to the ground when it comes to new music, there’s no doubt we’ve had to strain a little harder to hear what’s good these last twelve months or so. We miss being able to see bands in their natural habitat, in full bloom; that’s how you can so often get the true measure of a band. But in lieu of that, we’ve done our best to keep up in an all-digital world and have pulled together a few recommendations of bands we think you may like, and might even give you cause to will along the return of normality just a little bit harder.</p><p>Enjoy!</p><p>Walter &amp; Becky.</p>","highlight":0,"slug":"what-we-missed-out-on","data_id":233,"published_at":"2021-04-18T14:40:00.000000Z","created_at":"2021-04-18T14:15:02.000000Z"},{"liked":false,"likes_count":58,"post_type_status":"available","title":"Pelagic Presents: Crown","post_type_data":{"images":[{"name":"2021-04-17-e0be47f0bfa6bbaed22b26e2502b4e3e07a6e729.jpg","image_url":"https://storage.googleapis.com/lw-poppodium013-roadburn-prod/cms/uploads/2021-04-17-e0be47f0bfa6bbaed22b26e2502b4e3e07a6e729.jpg"}],"data_url":"https://player.vimeo.com/video/530757902","meta_image":null,"meta_title":null,"thumb_url":null,"data_type":"VIMEO","channel_id":null},"category":{"code":"exclusive_sets","category_name":"Exclusive sets","category_id":2},"time_end":null,"time_start":"2021-04-14T09:00:00.000000Z","updated_at":"2021-04-19T07:26:10.000000Z","post_type":"video","comments_count":3,"active":1,"content":"<p><strong>Crown’s</strong> new album, <em>The End Of All Things </em>(which we premiered on Thursday)<em>, </em> marks a notable new chapter for the French duo, and they are celebrating its release with this performance at Roadburn Redux. These four songs will give you a taste of <em>The End Of All Things</em> - and no doubt leave you hungry for more. If so, <a href=\"https://pelagic-records.com/?s=crown&amp;post_type=product\" rel=\"noopener noreferrer\" target=\"_blank\">click here</a>!</p>","highlight":1,"slug":"pelagic-presents-crown","data_id":96,"published_at":"2021-04-18T14:30:00.000000Z","created_at":"2021-04-13T12:00:46.000000Z"},{"liked":false,"likes_count":54,"post_type_status":"available","title":"The Music of Townes Van Zandt premiere #3","post_type_data":{"images":[{"name":"2021-04-14-93d787a032c2b9e6fb584ea263cfc185d4565ca7.jpg","image_url":"https://storage.googleapis.com/lw-poppodium013-roadburn-prod/cms/uploads/2021-04-14-93d787a032c2b9e6fb584ea263cfc185d4565ca7.jpg"}],"data_url":"https://w.soundcloud.com/player/?url=https%3A//api.soundcloud.com/tracks/1027704085%3Fsecret_token%3Ds-o6gwZ5jooZy&color=%23ff0000&auto_play=false&hide_related=false&show_comments=false&show_user=false&show_reposts=false&show_teaser=false&visual=true","meta_image":null,"meta_title":null,"thumb_url":null,"data_type":null,"channel_id":null},"category":{"code":"audio_n_video_premieres","category_name":"Audio & video premieres","category_id":3},"time_end":null,"time_start":"2021-04-18T09:00:00.000000Z","updated_at":"2021-04-19T07:32:02.000000Z","post_type":"soundcloud","comments_count":5,"active":1,"content":"<p>The third and final artist that we can reveal is taking part in <em>The Music of Townes Van Zandt Vol. III </em>is... </p><p><br></p><p><strong>CAVE IN!</strong></p><p>Click play to listen to their cover of <em>The Hole</em>... and join <strong>Stephen Brodsky</strong>, <strong>Marissa Nadler</strong> and <strong>Colin&nbsp;H&nbsp;Van Eeckhout </strong>at 17.00 CEST - i.e very soon! to find out more about the album and their love of TVZ!</p><p>You can buy the album <a href=\"https://www.myproudmountainshop.com/search?controller=search&amp;orderby=position&amp;orderway=desc&amp;search_query=townes+van+zandt&amp;submit_search=search\" rel=\"noopener noreferrer\" target=\"_blank\">HERE</a>.</p>","highlight":1,"slug":"the-music-of-townes-van-zandt-premiere-3","data_id":218,"published_at":"2021-04-18T14:20:00.000000Z","created_at":"2021-04-17T17:08:16.000000Z"},{"liked":false,"likes_count":13,"post_type_status":"available","title":"Roadburn Deep Dive - Eyehategod","post_type_data":{"images":[{"name":"2021-04-15-d830061597f83e77c7ada77feaf0561e2f9096fd.jpg","image_url":"https://storage.googleapis.com/lw-poppodium013-roadburn-prod/cms/uploads/2021-04-15-d830061597f83e77c7ada77feaf0561e2f9096fd.jpg"}],"data_url":"https://roadburn.com/roadburn-deep-dives-eyehategod/","meta_image":null,"meta_title":null,"thumb_url":null,"data_type":null,"channel_id":null},"category":{"code":"articles","category_name":"Articles","category_id":5},"time_end":null,"time_start":"2021-04-14T10:00:00.000000Z","updated_at":"2021-04-19T03:43:44.000000Z","post_type":"article","comments_count":0,"active":1,"content":"<p>\"I have no idea what songs we actually played, or how many; I just know we kept cranking them out for hours.\"</p><p><br></p><p><strong>José Carlos Santos</strong> has been on many a deep dive this weekend with artists, but no matter how deep he went with this one, nobody could remember exactly what <strong>Eyehategod</strong> played during this eventful edition of Roadburn. If you're looking for excitement - this tale has it all! From volcanoes to cross-continent journeys and broken bottles! <strong>Mike IX Williams</strong> spills the beans...</p>","highlight":1,"slug":"roadburn-deep-dive-eyehategod","data_id":170,"published_at":"2021-04-18T14:10:00.000000Z","created_at":"2021-04-15T12:54:46.000000Z"},{"liked":false,"likes_count":65,"post_type_status":"available","title":"Pelagic Presents: Sâver","post_type_data":{"images":[{"name":"2021-04-17-9d5e0822546cf4ddcef89c13302b9220b64a2475.jpg","image_url":"https://storage.googleapis.com/lw-poppodium013-roadburn-prod/cms/uploads/2021-04-17-9d5e0822546cf4ddcef89c13302b9220b64a2475.jpg"}],"data_url":"https://player.vimeo.com/video/533544276","meta_image":null,"meta_title":null,"thumb_url":null,"data_type":"VIMEO","channel_id":null},"category":{"code":"exclusive_sets","category_name":"Exclusive sets","category_id":2},"time_end":null,"time_start":"2021-04-14T09:00:00.000000Z","updated_at":"2021-04-19T08:01:29.000000Z","post_type":"video","comments_count":5,"active":1,"content":"<p>Part two of the double A-side that is <strong>Sâver</strong> and <strong>Psychonaut</strong> is this track - <em>Dimensions Lost, Obscured By Aeons</em> - was captured live at Amper Tone Studios in Oslo.</p><p><a href=\"https://pelagic-records.com/?s=saver&amp;post_type=product\" rel=\"noopener noreferrer\" target=\"_blank\">More Sâver</a>.</p>","highlight":1,"slug":"pelagic-presents-saver","data_id":95,"published_at":"2021-04-18T14:00:00.000000Z","created_at":"2021-04-13T11:59:15.000000Z"}],"fresh_highlights":false,"highlights":[]}