{"fresh_dynamic_data":false,"links":{"next":"https://roadburn-api.lwprod.nl/api/posts?page=3","prev":"https://roadburn-api.lwprod.nl/api/posts?page=1","last":"https://roadburn-api.lwprod.nl/api/posts?page=38","first":"https://roadburn-api.lwprod.nl/api/posts?page=1"},"meta":{"to":10,"total":189,"last_page":38,"from":6,"per_page":5,"path":"https://roadburn-api.lwprod.nl/api/posts","current_page":2},"fresh":true,"posts_data":[{"liked":false,"likes_count":11,"post_type_status":"available","title":"Playlist: Psych","post_type_data":{"images":[],"data_url":"https://open.spotify.com/embed?uri=spotify%3Aplaylist%3A2h60W3DBWEt1eOkXMmNh9M","meta_image":null,"meta_title":null,"thumb_url":null,"data_type":null,"channel_id":null},"category":null,"time_end":null,"time_start":"2021-04-14T09:00:00.000000Z","updated_at":"2021-04-19T07:24:51.000000Z","post_type":"spotify","comments_count":0,"active":1,"content":"<p>If you enjoyed <strong>Harry Sword's</strong> <a href=\"https://roadburn.com/scene-report-psych/\" rel=\"noopener noreferrer\" target=\"_blank\">Psych scene report</a> we published earlier, then you might like to listen to its accompanying playlist. </p><p>Hit play and get weird. </p>","highlight":0,"slug":"playlist-psych","data_id":243,"published_at":"2021-04-18T20:15:00.000000Z","created_at":"2021-04-18T20:09:20.000000Z"},{"liked":false,"likes_count":50,"post_type_status":"available","title":"Aaron Turner","post_type_data":{"images":[{"name":"2021-04-15-4a95c7218fa610648fa06cd400f86aebaa1dde9b.jpg","image_url":"https://storage.googleapis.com/lw-poppodium013-roadburn-prod/cms/uploads/2021-04-15-4a95c7218fa610648fa06cd400f86aebaa1dde9b.jpg"}],"data_url":"https://player.vimeo.com/video/536743912","meta_image":null,"meta_title":null,"thumb_url":null,"data_type":"VIMEO","channel_id":null},"category":{"code":"exclusive_sets","category_name":"Exclusive sets","category_id":2},"time_end":null,"time_start":"2021-04-14T06:00:00.000000Z","updated_at":"2021-04-19T07:24:53.000000Z","post_type":"video","comments_count":5,"active":1,"content":"<p><strong>Aaron Turner</strong> has taken to Roadburn stages more times than we can count - and now he’s here with us in a digital form. No less engaging and experimental when confined to being broadcast-only, we’re honoured to present <strong>Aaron Turner’s</strong> solo set here as part of Roadburn Redux. Stay tuned for more news on his solo album due out later this year. </p>","highlight":1,"slug":"aaron-turner","data_id":137,"published_at":"2021-04-18T20:00:00.000000Z","created_at":"2021-04-14T11:00:38.000000Z"},{"liked":false,"likes_count":44,"post_type_status":"available","title":"Wolvennest - in pictures","post_type_data":{"images":[{"name":"2021-04-18-333f3602700f8444652d0c1a91a90527f789526e.jpg","image_url":"https://storage.googleapis.com/lw-poppodium013-roadburn-prod/cms/uploads/2021-04-18-333f3602700f8444652d0c1a91a90527f789526e.jpg"},{"name":"2021-04-18-49c83e424f4747fe5a28faf4fca46a97e72dfc6f.jpg","image_url":"https://storage.googleapis.com/lw-poppodium013-roadburn-prod/cms/uploads/2021-04-18-49c83e424f4747fe5a28faf4fca46a97e72dfc6f.jpg"},{"name":"2021-04-18-1f7e68452c9518ec85bb868fdfb5dc461d346690.jpg","image_url":"https://storage.googleapis.com/lw-poppodium013-roadburn-prod/cms/uploads/2021-04-18-1f7e68452c9518ec85bb868fdfb5dc461d346690.jpg"},{"name":"2021-04-18-b4623d2ac9bb2dbf01a2c45f11c82a7ddcb1c021.jpg","image_url":"https://storage.googleapis.com/lw-poppodium013-roadburn-prod/cms/uploads/2021-04-18-b4623d2ac9bb2dbf01a2c45f11c82a7ddcb1c021.jpg"},{"name":"2021-04-18-8cbea904d14e0e5f1296358e0c12c868bc2c4d6a.jpg","image_url":"https://storage.googleapis.com/lw-poppodium013-roadburn-prod/cms/uploads/2021-04-18-8cbea904d14e0e5f1296358e0c12c868bc2c4d6a.jpg"},{"name":"2021-04-18-d1377341f696168e58a33c5e37084bd490e9c56e.jpg","image_url":"https://storage.googleapis.com/lw-poppodium013-roadburn-prod/cms/uploads/2021-04-18-d1377341f696168e58a33c5e37084bd490e9c56e.jpg"},{"name":"2021-04-18-4df9879eb1e7e8a5debe30b5031fda1a89fc60da.jpg","image_url":"https://storage.googleapis.com/lw-poppodium013-roadburn-prod/cms/uploads/2021-04-18-4df9879eb1e7e8a5debe30b5031fda1a89fc60da.jpg"},{"name":"2021-04-18-c0c3d0acbcb616270f9d3aabfe72de348a64b1b1.jpg","image_url":"https://storage.googleapis.com/lw-poppodium013-roadburn-prod/cms/uploads/2021-04-18-c0c3d0acbcb616270f9d3aabfe72de348a64b1b1.jpg"},{"name":"2021-04-18-f972be9af44779c04077f18b30589c1ce61607c8.jpg","image_url":"https://storage.googleapis.com/lw-poppodium013-roadburn-prod/cms/uploads/2021-04-18-f972be9af44779c04077f18b30589c1ce61607c8.jpg"}],"data_url":null,"meta_image":null,"meta_title":null,"thumb_url":null,"data_type":null,"channel_id":null},"category":null,"time_end":null,"time_start":"2021-04-13T09:00:00.000000Z","updated_at":"2021-04-19T07:53:42.000000Z","post_type":"carousel","comments_count":2,"active":1,"content":"<p><strong>Wolvennest</strong> - captured by Lotte Schrander, live from the 013 venue, Tilburg. April 18, 2021.</p>","highlight":0,"slug":"wolvennest-in-pictures","data_id":241,"published_at":"2021-04-18T19:54:00.000000Z","created_at":"2021-04-18T19:53:41.000000Z"},{"liked":false,"likes_count":59,"post_type_status":"available","title":"Homeburn - scenes from around the globe Pt. II","post_type_data":{"images":[{"name":"2021-04-18-d6e34f7562a8afd9cf730e29a6395fa1e963fb34.jpeg","image_url":"https://storage.googleapis.com/lw-poppodium013-roadburn-prod/cms/uploads/2021-04-18-d6e34f7562a8afd9cf730e29a6395fa1e963fb34.jpeg"},{"name":"2021-04-18-7278d63fdbfaf04cd7258acbfc8842270ab527dc.jpeg","image_url":"https://storage.googleapis.com/lw-poppodium013-roadburn-prod/cms/uploads/2021-04-18-7278d63fdbfaf04cd7258acbfc8842270ab527dc.jpeg"},{"name":"2021-04-18-0c485d39816390aab8ad79e14443865925ddd663.jpeg","image_url":"https://storage.googleapis.com/lw-poppodium013-roadburn-prod/cms/uploads/2021-04-18-0c485d39816390aab8ad79e14443865925ddd663.jpeg"},{"name":"2021-04-18-b6b6b245c7b9c7a0aea727c8c26c534aa4d7073f.jpg","image_url":"https://storage.googleapis.com/lw-poppodium013-roadburn-prod/cms/uploads/2021-04-18-b6b6b245c7b9c7a0aea727c8c26c534aa4d7073f.jpg"},{"name":"2021-04-18-8fb6814b10008dd41218b69e8397eee8eea799c9.jpeg","image_url":"https://storage.googleapis.com/lw-poppodium013-roadburn-prod/cms/uploads/2021-04-18-8fb6814b10008dd41218b69e8397eee8eea799c9.jpeg"},{"name":"2021-04-18-ad355c0be90739108010604f25b375af4b7cc4a5.jpeg","image_url":"https://storage.googleapis.com/lw-poppodium013-roadburn-prod/cms/uploads/2021-04-18-ad355c0be90739108010604f25b375af4b7cc4a5.jpeg"},{"name":"2021-04-18-72c670d24894ff9d7ea368ce07800e46d4acf6d6.jpeg","image_url":"https://storage.googleapis.com/lw-poppodium013-roadburn-prod/cms/uploads/2021-04-18-72c670d24894ff9d7ea368ce07800e46d4acf6d6.jpeg"},{"name":"2021-04-18-a8dd4216266199f74ed73fb873efd102703723f4.jpeg","image_url":"https://storage.googleapis.com/lw-poppodium013-roadburn-prod/cms/uploads/2021-04-18-a8dd4216266199f74ed73fb873efd102703723f4.jpeg"},{"name":"2021-04-18-31a9c74049a80ddfe958922dce9fbfec1b5525da.jpeg","image_url":"https://storage.googleapis.com/lw-poppodium013-roadburn-prod/cms/uploads/2021-04-18-31a9c74049a80ddfe958922dce9fbfec1b5525da.jpeg"}],"data_url":null,"meta_image":null,"meta_title":null,"thumb_url":null,"data_type":null,"channel_id":null},"category":null,"time_end":null,"time_start":"2021-04-15T10:00:00.000000Z","updated_at":"2021-04-19T07:53:40.000000Z","post_type":"carousel","comments_count":5,"active":1,"content":"<p>We love cats... but it's nice to see some dogs (and a bonus rodent) also enjoying Roadburn alongside their humans. If you've got a great set up for enjoying Roadburn Redux, tag us in your pics! Bonus if there's pets involved...</p>","highlight":0,"slug":"homeburn-scenes-from-around-the-globe-pt-ii","data_id":239,"published_at":"2021-04-18T19:00:00.000000Z","created_at":"2021-04-18T18:35:29.000000Z"},{"liked":false,"likes_count":126,"post_type_status":"available","title":"Album Premiere: Wolvennest performing Temple","post_type_data":{"images":[{"name":"2021-04-17-f1c2ea6a145d8d119d1a40c02e746c89496a7e14.jpg","image_url":"https://storage.googleapis.com/lw-poppodium013-roadburn-prod/cms/uploads/2021-04-17-f1c2ea6a145d8d119d1a40c02e746c89496a7e14.jpg"}],"data_url":"https://player.vimeo.com/video/538412258","meta_image":null,"meta_title":null,"thumb_url":null,"data_type":null,"channel_id":"bGqF6Acx"},"category":{"code":"livestreams","category_name":"Livestreams","category_id":1},"time_end":null,"time_start":"2021-04-14T09:00:00.000000Z","updated_at":"2021-04-19T07:47:56.000000Z","post_type":"livestream","comments_count":8,"active":1,"content":"<p>Surely one of the most anticipated sets of the weekend, and we’ve made you wait till nearly the end to experience it! If you’ve been indulging in <em>Temple</em> since its release, you’ll be eager to dive straight in; if you’re new to <strong>Wolvennest</strong>, prepare for a baptism of fire. Without further ado, we’re honoured to present <strong>Wolvennest</strong> performing their latest album, <em>Temple</em>, in full - live from the 013 venue in Tilburg with accompanying visuals from <strong>A Thousand Lost Civilisations</strong>.</p>","highlight":1,"slug":"album-premiere-wolvennest-performing-temple","data_id":30,"published_at":"2021-04-18T18:40:00.000000Z","created_at":"2021-04-09T13:43:08.000000Z"}],"fresh_highlights":false,"highlights":[]}