{"fresh_dynamic_data":false,"links":{"next":"https://roadburn-api.lwprod.nl/api/posts?page=10","prev":"https://roadburn-api.lwprod.nl/api/posts?page=8","last":"https://roadburn-api.lwprod.nl/api/posts?page=38","first":"https://roadburn-api.lwprod.nl/api/posts?page=1"},"meta":{"to":45,"total":189,"last_page":38,"from":41,"per_page":5,"path":"https://roadburn-api.lwprod.nl/api/posts","current_page":9},"fresh":true,"posts_data":[{"liked":false,"likes_count":50,"post_type_status":"available","title":"Pelagic Presents: LLNN","post_type_data":{"images":[{"name":"2021-04-17-66cc9037217404e2a9ba315d4849f29dbba80b05.jpg","image_url":"https://storage.googleapis.com/lw-poppodium013-roadburn-prod/cms/uploads/2021-04-17-66cc9037217404e2a9ba315d4849f29dbba80b05.jpg"}],"data_url":"https://player.vimeo.com/video/533521688","meta_image":null,"meta_title":null,"thumb_url":null,"data_type":"VIMEO","channel_id":null},"category":{"code":"documentaires","category_name":"Documentaires","category_id":4},"time_end":null,"time_start":"2021-04-14T09:00:00.000000Z","updated_at":"2021-04-19T01:25:10.000000Z","post_type":"video","comments_count":6,"active":1,"content":"<p>We’re happy to have <strong>LLNN</strong> be part of Roadburn Redux in any way they see fit. And what they opted for was to give us a glimpse into their artistic process. This short - but impactful - video invites us to witness the creation of the sonic universe that surrounds them. We’re ready!</p><p><a href=\"https://pelagic-records.com/?s=LLNN&amp;post_type=product\" rel=\"noopener noreferrer\" target=\"_blank\">More LLNN.</a></p>","highlight":1,"slug":"pelagic-presents-llnn","data_id":92,"published_at":"2021-04-18T12:40:00.000000Z","created_at":"2021-04-13T11:53:38.000000Z"},{"liked":false,"likes_count":38,"post_type_status":"available","title":"Album Premiere: MIGHT performing Might","post_type_data":{"images":[{"name":"2021-04-17-828ed48cb2201b92efe9b72c34744c5286c062b2.jpg","image_url":"https://storage.googleapis.com/lw-poppodium013-roadburn-prod/cms/uploads/2021-04-17-828ed48cb2201b92efe9b72c34744c5286c062b2.jpg"}],"data_url":"https://player.vimeo.com/video/530207225","meta_image":null,"meta_title":null,"thumb_url":null,"data_type":"VIMEO","channel_id":null},"category":{"code":"exclusive_sets","category_name":"Exclusive sets","category_id":2},"time_end":null,"time_start":"2021-04-14T09:00:00.000000Z","updated_at":"2021-04-19T00:05:18.000000Z","post_type":"video","comments_count":3,"active":1,"content":"<p>Hannover-based husband and wife duo <strong>MIGHT</strong> recorded their eponymous debut album last March, just as the pandemic was engulfing the planet. Unable to play shows in the traditional sense, we’re pleased to present <em>Might</em> - here with us today making their international live debut at Roadburn Redux, playing the incredible album in full for the very first time.&nbsp;</p><p>If you like what you hear, you can pick up a copy of the album here via <strong>Exile on Mainstream:</strong></p><p><a href=\"https://shop.mainstreamrecords.de/product-tag/might\" rel=\"noopener noreferrer\" target=\"_blank\">https://shop.mainstreamrecords.de/product-tag/might</a></p>","highlight":1,"slug":"album-premiere-might-performing-might","data_id":91,"published_at":"2021-04-18T12:30:00.000000Z","created_at":"2021-04-13T11:51:03.000000Z"},{"liked":false,"likes_count":39,"post_type_status":"available","title":"Blodet","post_type_data":{"images":[{"name":"2021-04-17-f82d681113e90b40c7bcbc469641e5fdd9741334.jpg","image_url":"https://storage.googleapis.com/lw-poppodium013-roadburn-prod/cms/uploads/2021-04-17-f82d681113e90b40c7bcbc469641e5fdd9741334.jpg"}],"data_url":"https://player.vimeo.com/video/515651827","meta_image":null,"meta_title":null,"thumb_url":null,"data_type":"VIMEO","channel_id":null},"category":{"code":"audio_n_video_premieres","category_name":"Audio & video premieres","category_id":3},"time_end":null,"time_start":"2021-04-14T09:00:00.000000Z","updated_at":"2021-04-19T07:20:41.000000Z","post_type":"video","comments_count":0,"active":1,"content":"<p>Having caught our eye at ESNS, we were delighted to be given the opportunity to raid the <strong>Blodet</strong> vaults - and came out with an awesome live recording. The track is called <em>Vision</em>, and it’s unreleased - so we managed to bag quite a scoop!&nbsp;</p>","highlight":1,"slug":"blodet","data_id":90,"published_at":"2021-04-18T12:20:00.000000Z","created_at":"2021-04-13T11:48:09.000000Z"},{"liked":false,"likes_count":11,"post_type_status":"available","title":"Playlist: Rob Delaney's best stoner metal","post_type_data":{"images":[],"data_url":"https://open.spotify.com/embed/playlist/45MgeSrdnVVbzl41nBMJPr","meta_image":null,"meta_title":null,"thumb_url":null,"data_type":null,"channel_id":null},"category":null,"time_end":null,"time_start":"2021-04-14T09:00:00.000000Z","updated_at":"2021-04-19T03:44:30.000000Z","post_type":"spotify","comments_count":0,"active":1,"content":"<p>Comedian, <strong>Rob Delaney </strong>(who co-writes and co-stars in the excellent TV show <em>Catastrophe</em>, as well as all sorts of fancy Hollywood films), is a not-so-secret lover of stoner rock and doom. A few weeks ago he compiled a list of contenders for 'the best stoner metal of all time' - deliberately omitting <strong>Sleep's</strong> <em>Dopesmoker</em> (correctly crowning this the overall champion, of course), and the more obvious suggestions of <strong>Kyuss</strong> and <strong>Sabbath</strong>. What was left is a hefty 10 hour playlist jammed full of riffs. </p><p>Anyway, we asked if we could share it here and he said yes! Thanks <strong>Rob</strong>! </p><p><a href=\"https://twitter.com/robdelaney\" rel=\"noopener noreferrer\" target=\"_blank\">You can follow him on Twitter here</a> and tell him what classic track he missed out of the playlist! </p>","highlight":0,"slug":"playlist-rob-delaneys-best-stoner-metal","data_id":232,"published_at":"2021-04-18T12:15:00.000000Z","created_at":"2021-04-18T12:06:44.000000Z"},{"liked":false,"likes_count":58,"post_type_status":"available","title":"Haunted Plasma","post_type_data":{"images":[],"data_url":"https://player.vimeo.com/video/538182034","meta_image":null,"meta_title":null,"thumb_url":null,"data_type":"VIMEO","channel_id":null},"category":{"code":"exclusive_sets","category_name":"Exclusive sets","category_id":2},"time_end":null,"time_start":"2021-04-14T09:00:00.000000Z","updated_at":"2021-04-19T03:32:49.000000Z","post_type":"video","comments_count":5,"active":1,"content":"<p>Ahem... it seems something was somewhat haunting the technical end of the website last night and a glitch meant that we weren't able to deliver Haunted Plasma in all their glory at the allotted time. But if ever there was a band to make their performance debut twice, <strong>Haunted Plasma</strong> seem like a good candidate.</p><p>So consider this take II, or if you're seeing it for the first time, just get stuck in!</p><p><br></p><p>The phantoms at the beating nucleus of this unearthly machine are&nbsp;<strong>Juho Vanhanen</strong>&nbsp;(<strong>Oranssi Pazuzu, Grave Pleasures</strong>),&nbsp;<strong>Timo Kaukolampi</strong>&nbsp;(<strong>K-X-P, Op:l Bastards</strong>) and&nbsp;<strong>Tomi Leppänen</strong>&nbsp;(<strong>Circle, Aavikko, K-X-P</strong>), transmitting a music form evolved from a life of redefining sonic boundaries in their respective projects. Also featuring guest vocals from&nbsp;<strong>Mat McNerney</strong>&nbsp;(<strong>Hexvessel, Carpenter Brut, Beastmilk</strong>) and&nbsp;<strong>Ringa Manner</strong>&nbsp;(<strong>Ruusut, The Hearing</strong>).</p>","highlight":0,"slug":"haunted-plasma","data_id":231,"published_at":"2021-04-18T12:00:00.000000Z","created_at":"2021-04-18T11:50:10.000000Z"}],"fresh_highlights":false,"highlights":[]}