{"fresh_dynamic_data":false,"links":{"next":"https://roadburn-api.lwprod.nl/api/posts?page=15","prev":"https://roadburn-api.lwprod.nl/api/posts?page=13","last":"https://roadburn-api.lwprod.nl/api/posts?page=38","first":"https://roadburn-api.lwprod.nl/api/posts?page=1"},"meta":{"to":70,"total":189,"last_page":38,"from":66,"per_page":5,"path":"https://roadburn-api.lwprod.nl/api/posts","current_page":14},"fresh":true,"posts_data":[{"liked":false,"likes_count":144,"post_type_status":"available","title":"Behind The Scenes...","post_type_data":{"images":[{"name":"2021-04-17-34693fdb611c1a620a03361be5dbacae6e1a0509.JPG","image_url":"https://storage.googleapis.com/lw-poppodium013-roadburn-prod/cms/uploads/2021-04-17-34693fdb611c1a620a03361be5dbacae6e1a0509.JPG"}],"data_url":null,"meta_image":null,"meta_title":null,"thumb_url":null,"data_type":null,"channel_id":null},"category":null,"time_end":null,"time_start":"2021-04-15T10:00:00.000000Z","updated_at":"2021-04-19T07:25:11.000000Z","post_type":"written_update","comments_count":13,"active":1,"content":"<p>If you've been sat at home, impressed by the high quality of the live streams coming out of the 013, you'll not be surprised to know that there's an enormous team of people working behind the scenes, with equipment that we've never even seen before capturing these shows in all their glory! The production is more like a movie set than a regular Roadburn show. There's even a truck with all these monitors - just like Hollywood (probably).</p><p>This edition of Roadburn has been a huge undertaking - not only figuring out how to get these shows to you, but complying with various (often changing) restrictions and protocols to keep it safe for everybody. Massive thanks to everyone who has made this possible! </p><p>If you're as impressed as we are by the high level production values and incredible live streams, please consider donating to help us cover the cost of the production of Roadburn Redux. Donating is of course optional, and you are no less welcome as part of the Roadburn community if you don't contribute. Every penny helps us to continue plotting, planning and programming for the future of Roadburn too. </p>","highlight":0,"slug":"behind-the-scenes","data_id":224,"published_at":"2021-04-17T20:45:00.000000Z","created_at":"2021-04-17T20:40:52.000000Z"},{"liked":false,"likes_count":28,"post_type_status":"available","title":"Die Wilde Jagd - in pictures","post_type_data":{"images":[{"name":"2021-04-17-dff69a3c1b4cda7a3bc84e5c4daa95c9428bf581.jpg","image_url":"https://storage.googleapis.com/lw-poppodium013-roadburn-prod/cms/uploads/2021-04-17-dff69a3c1b4cda7a3bc84e5c4daa95c9428bf581.jpg"},{"name":"2021-04-17-9d4e23b660a91f1d571de7f1c921ec3781439edc.jpg","image_url":"https://storage.googleapis.com/lw-poppodium013-roadburn-prod/cms/uploads/2021-04-17-9d4e23b660a91f1d571de7f1c921ec3781439edc.jpg"},{"name":"2021-04-17-73f3e40c77da7377037c5a1fb190429091dc3a17.jpg","image_url":"https://storage.googleapis.com/lw-poppodium013-roadburn-prod/cms/uploads/2021-04-17-73f3e40c77da7377037c5a1fb190429091dc3a17.jpg"},{"name":"2021-04-17-36578341e49dafb9560e1090deb22d753453abce.jpg","image_url":"https://storage.googleapis.com/lw-poppodium013-roadburn-prod/cms/uploads/2021-04-17-36578341e49dafb9560e1090deb22d753453abce.jpg"},{"name":"2021-04-17-b6430e6b3e952ba699906f66b7215ddfd2d29137.jpg","image_url":"https://storage.googleapis.com/lw-poppodium013-roadburn-prod/cms/uploads/2021-04-17-b6430e6b3e952ba699906f66b7215ddfd2d29137.jpg"},{"name":"2021-04-17-092cb8590d437044017af1d2cb1c57d62ec7124f.jpg","image_url":"https://storage.googleapis.com/lw-poppodium013-roadburn-prod/cms/uploads/2021-04-17-092cb8590d437044017af1d2cb1c57d62ec7124f.jpg"},{"name":"2021-04-17-455e405fb54ea921a3bb90c96ce43c046b7032a0.jpg","image_url":"https://storage.googleapis.com/lw-poppodium013-roadburn-prod/cms/uploads/2021-04-17-455e405fb54ea921a3bb90c96ce43c046b7032a0.jpg"},{"name":"2021-04-17-04f93da346fcdea9b60f2b4bb1000621c078a101.jpg","image_url":"https://storage.googleapis.com/lw-poppodium013-roadburn-prod/cms/uploads/2021-04-17-04f93da346fcdea9b60f2b4bb1000621c078a101.jpg"}],"data_url":null,"meta_image":null,"meta_title":null,"thumb_url":null,"data_type":null,"channel_id":null},"category":null,"time_end":null,"time_start":"2021-04-15T08:00:00.000000Z","updated_at":"2021-04-18T09:35:03.000000Z","post_type":"carousel","comments_count":3,"active":1,"content":"<p><strong>Die Wilde Jagd</strong> - captured by Niels Vinck, live from the 013 venue, Tilburg. April 17, 2021.</p>","highlight":0,"slug":"die-wilde-jagd-in-pictures","data_id":223,"published_at":"2021-04-17T20:30:00.000000Z","created_at":"2021-04-17T20:30:17.000000Z"},{"liked":false,"likes_count":57,"post_type_status":"available","title":"Witch Mountain","post_type_data":{"images":[{"name":"2021-04-15-e0fb36f4e0b62a226993c3b8cbaf3827c37cbea5.jpg","image_url":"https://storage.googleapis.com/lw-poppodium013-roadburn-prod/cms/uploads/2021-04-15-e0fb36f4e0b62a226993c3b8cbaf3827c37cbea5.jpg"}],"data_url":"https://player.vimeo.com/video/533467566","meta_image":null,"meta_title":null,"thumb_url":null,"data_type":"VIMEO","channel_id":null},"category":{"code":"audio_n_video_premieres","category_name":"Audio & video premieres","category_id":3},"time_end":null,"time_start":"2021-04-14T06:00:00.000000Z","updated_at":"2021-04-18T21:31:04.000000Z","post_type":"video","comments_count":5,"active":1,"content":"<p>We love a birthday party! Next year, <strong>Witch Mountain</strong> will be celebrating their 25th anniversary and we’re getting things started early! Here, they tribute to one of the greatest groups from their home turf in the Pacific Northwest. A cover of <strong>Soundgarden’s</strong> <em>Limo Wreck</em> is the first <strong>Witch Mountain</strong> recording to be entirely produced in guitarist <strong>Rob Wrong</strong>’s 'Wrong Way Recording' studio. One further connection to the source: the song was mastered by Seattle legend <strong>Tad Doyle</strong>.</p>","highlight":1,"slug":"witch-mountain","data_id":84,"published_at":"2021-04-17T19:45:00.000000Z","created_at":"2021-04-13T11:11:34.000000Z"},{"liked":false,"likes_count":134,"post_type_status":"available","title":"Steve Von Till presents A Remote Wilderness","post_type_data":{"images":[{"name":"2021-04-15-db865522ec3cff0d5fe123ece2ac4bd2473cf116.jpg","image_url":"https://storage.googleapis.com/lw-poppodium013-roadburn-prod/cms/uploads/2021-04-15-db865522ec3cff0d5fe123ece2ac4bd2473cf116.jpg"}],"data_url":"https://player.vimeo.com/video/535765113","meta_image":null,"meta_title":null,"thumb_url":null,"data_type":"VIMEO","channel_id":null},"category":{"code":"exclusive_sets","category_name":"Exclusive sets","category_id":2},"time_end":null,"time_start":"2021-04-14T09:00:00.000000Z","updated_at":"2021-04-19T07:35:19.000000Z","post_type":"video","comments_count":11,"active":1,"content":"<p>Is there really a headliner slot at a virtual festival that’s running at different times around the globe, that’s re-watchable at your leisure? Not sure we can answer that for sure, but if there’s a man with a set ready to fit the bill today it’s most definitely <strong>Steve Von Till.&nbsp;</strong></p><p>Filmed and recorded live at the legendary<strong> Robert Lang Studios</strong> in Seattle, <strong>Von Till </strong>performs his album <em>No Wilderness Deep Enough</em> in full - plus a selection of other tracks.</p><p><strong>Von Till</strong> is on vocals, piano and guitar and is joined by<strong> Dave French</strong> (<strong>Brothers of the Sonic Cloth</strong>) on synthesiser, percussion, guitar and backing vocals, <strong>Lori Goldston</strong> (<strong>Nirvana</strong>, <strong>Earth</strong>) on cello, <strong>David Lutz </strong>on synthesiser, <strong>Eric Padget</strong> on French horn, and <strong>Olie Eshleman</strong> on pedal steel. Video is captured by <strong>Bobby Cochran</strong>, whose work you may know from <strong>Amenra’s</strong> <em>A Flood of Light</em> documentary.</p><p>Without further ado, please enjoy <strong>Steve Von Till’s</strong> incredible set,<em> A Remote Wilderness.</em></p><p><a href=\"https://www.vontill.org/store\" rel=\"noopener noreferrer\" target=\"_blank\">Visit Steve's store here.</a></p>","highlight":1,"slug":"steve-von-till-presents-a-remote-wilderness","data_id":83,"published_at":"2021-04-17T19:40:00.000000Z","created_at":"2021-04-13T11:09:25.000000Z"},{"liked":false,"likes_count":41,"post_type_status":"available","title":"Sunrot","post_type_data":{"images":[{"name":"2021-04-15-3e28990a25fd48374f97247e8c820c6279f4f640.jpg","image_url":"https://storage.googleapis.com/lw-poppodium013-roadburn-prod/cms/uploads/2021-04-15-3e28990a25fd48374f97247e8c820c6279f4f640.jpg"}],"data_url":"https://w.soundcloud.com/player/?url=https%3A//api.soundcloud.com/tracks/1012833619%3Fsecret_token%3Ds-fHdyhBv7RtH&color=%23ff5500&auto_play=false&hide_related=true&show_comments=false&show_user=true&show_reposts=false&show_teaser=false&visual=true","meta_image":null,"meta_title":null,"thumb_url":null,"data_type":null,"channel_id":null},"category":{"code":"audio_n_video_premieres","category_name":"Audio & video premieres","category_id":3},"time_end":null,"time_start":"2021-04-14T09:00:00.000000Z","updated_at":"2021-04-18T12:16:23.000000Z","post_type":"soundcloud","comments_count":4,"active":1,"content":"<p>Round these parts, we’ve got a lot of time and a lot of love for <strong>Sunrot</strong>. This brand new track, titled <em>1312</em>, wears its heart on its sleeve and features <strong>Zellie Imani</strong> of <strong>Black Lives Matter Paterson</strong>. It is taken from an upcoming split between <strong>Sunrot</strong> and <strong>Ides</strong> due out on May 7 via Bandcamp. All first day sales will be donated to <strong>Black Lives Matter Paterson</strong>. If this gets your heart racing and you feel like you need a moment - <a href=\"https://sunrot.bandcamp.com/\" rel=\"noopener noreferrer\" target=\"_blank\">may we suggest checking out the third track of their recent release </a>which is a *guided meditation* - yes really.&nbsp;Told you... we love <strong>Sunrot</strong> here! </p>","highlight":1,"slug":"sunrot","data_id":119,"published_at":"2021-04-17T19:30:00.000000Z","created_at":"2021-04-14T08:34:23.000000Z"}],"fresh_highlights":false,"highlights":[]}