{
  "fresh_dynamic_data": false,
  "links": {
    "next": "https://roadburn-api.lwprod.nl/api/posts?page=35",
    "prev": "https://roadburn-api.lwprod.nl/api/posts?page=33",
    "last": "https://roadburn-api.lwprod.nl/api/posts?page=38",
    "first": "https://roadburn-api.lwprod.nl/api/posts?page=1"
  },
  "meta": {
    "to": 170,
    "total": 189,
    "last_page": 38,
    "from": 166,
    "per_page": 5,
    "path": "https://roadburn-api.lwprod.nl/api/posts",
    "current_page": 34
  },
  "fresh": true,
  "posts_data": [
    {
      "liked": false,
      "likes_count": 84,
      "post_type_status": "available",
      "title": "The Music of Townes Van Zandt premiere #1",
      "post_type_data": {
        "images": [
          {
            "name": "2021-04-14-93d787a032c2b9e6fb584ea263cfc185d4565ca7.jpg",
            "image_url": "https://storage.googleapis.com/lw-poppodium013-roadburn-prod/cms/uploads/2021-04-14-93d787a032c2b9e6fb584ea263cfc185d4565ca7.jpg"
          }
        ],
        "data_url": "https://player.vimeo.com/video/535834652",
        "meta_image": null,
        "meta_title": null,
        "thumb_url": null,
        "data_type": "VIMEO",
        "channel_id": null
      },
      "category": {
        "code": "audio_n_video_premieres",
        "category_name": "Audio & video premieres",
        "category_id": 3
      },
      "time_end": null,
      "time_start": "2021-04-14T06:00:00.000000Z",
      "updated_at": "2021-04-19T05:54:06.000000Z",
      "post_type": "video",
      "comments_count": 7,
      "active": 1,
      "content": "<p>With two volumes of <strong>The Songs of Townes Van Zandt</strong> already out there in the world, we’re delighted to be able to play a part in unveiling the third chapter. The first artist that we’re unveiling is… </p><p><strong>AMENRA</strong>. </p><p>Enjoy their cover of <em>Kathleen</em> now - and tune in on Sunday when <strong>Colin</strong> will be joining a Q&amp;A about the release of <strong>The Songs of Townes Van Zandt Vol. III </strong>- which you can pre-order <a href=\"https://www.myproudmountainshop.com/search?controller=search&amp;orderby=position&amp;orderway=desc&amp;search_query=townes+van+zandt&amp;submit_search=search\" rel=\"noopener noreferrer\" target=\"_blank\">HERE</a>. </p><p>This video is by Jannis Acbard and Ilona Desmet. The track was recorded by Gilles Demolder.</p><p><br></p><p><br></p>",
      "highlight": 1,
      "slug": "the-music-of-townes-van-zandt-premiere-1",
      "data_id": 53,
      "published_at": "2021-04-16T12:00:00.000000Z",
      "created_at": "2021-04-13T09:07:57.000000Z"
    },
    {
      "liked": false,
      "likes_count": 12,
      "post_type_status": "available",
      "title": "Scene Report: Dark Electronics",
      "post_type_data": {
        "images": [
          {
            "name": "2021-04-15-77b7c4bbcf1f684adabf8c46b9c893eef2f3e4bc.jpg",
            "image_url": "https://storage.googleapis.com/lw-poppodium013-roadburn-prod/cms/uploads/2021-04-15-77b7c4bbcf1f684adabf8c46b9c893eef2f3e4bc.jpg"
          }
        ],
        "data_url": "https://roadburn.com/scene-report-dark-electronics/",
        "meta_image": null,
        "meta_title": null,
        "thumb_url": null,
        "data_type": null,
        "channel_id": null
      },
      "category": {
        "code": "articles",
        "category_name": "Articles",
        "category_id": 5
      },
      "time_end": null,
      "time_start": "2021-04-14T09:00:00.000000Z",
      "updated_at": "2021-04-17T10:44:19.000000Z",
      "post_type": "article",
      "comments_count": 1,
      "active": 1,
      "content": "<p>For Roadburn Redux we approached three of our favourite writers to see if they’d use their skills and insight to whip up something of a scene report on an area of their expertise, in a style that felt most natural to them.</p><p>For this report on Dark Electronics, we approached<strong> Kelsey Chapman</strong>, a writer who has bylines at Revolver and The Independent among others. We knew of her enduring love for<strong> Kælan Mikla</strong> and had a suspicion that she could do justice to the topic in hand. We weren’t disappointed. Nor were we surprised that the <strong>Sisters of Mercy</strong> found their way in there too… </p><p><br></p><p><br></p>",
      "highlight": 0,
      "slug": "scene-report-dark-electronics",
      "data_id": 158,
      "published_at": "2021-04-16T11:45:00.000000Z",
      "created_at": "2021-04-15T12:14:49.000000Z"
    },
    {
      "liked": false,
      "likes_count": 66,
      "post_type_status": "available",
      "title": "Of Wolves",
      "post_type_data": {
        "images": [
          {
            "name": "2021-04-14-34579cf3526f33a28121972c97175e8f42041611.jpg",
            "image_url": "https://storage.googleapis.com/lw-poppodium013-roadburn-prod/cms/uploads/2021-04-14-34579cf3526f33a28121972c97175e8f42041611.jpg"
          }
        ],
        "data_url": "https://player.vimeo.com/video/527239231",
        "meta_image": null,
        "meta_title": null,
        "thumb_url": null,
        "data_type": "VIMEO",
        "channel_id": null
      },
      "category": {
        "code": "audio_n_video_premieres",
        "category_name": "Audio & video premieres",
        "category_id": 3
      },
      "time_end": null,
      "time_start": "2021-04-14T07:30:00.000000Z",
      "updated_at": "2021-04-18T02:08:54.000000Z",
      "post_type": "video",
      "comments_count": 10,
      "active": 1,
      "content": "<p>We’re thrilled to be bringing you the video premiere of the track <em>Balance</em>, taken from the album of the same name by Chicago’s <strong>Of Wolves</strong>. The track features guest musicians, <strong>Alison Chesley</strong> (<strong>Helen Money</strong>) on cello and <strong>Jim Staffe</strong>l (<strong>Yakuza</strong>) on timpani/kettle drums. The album is available to <a href=\"Http://ofwolves.bandcamp.com\" rel=\"noopener noreferrer\" target=\"_blank\">buy now</a>, and pre-orders for vinyl will be starting soon.</p>",
      "highlight": 1,
      "slug": "of-wolves",
      "data_id": 51,
      "published_at": "2021-04-16T11:30:00.000000Z",
      "created_at": "2021-04-12T15:25:20.000000Z"
    },
    {
      "liked": false,
      "likes_count": 75,
      "post_type_status": "available",
      "title": "Darkher - exclusive video premiere",
      "post_type_data": {
        "images": [],
        "data_url": "https://player.vimeo.com/video/535830851",
        "meta_image": null,
        "meta_title": null,
        "thumb_url": null,
        "data_type": "VIMEO",
        "channel_id": null
      },
      "category": null,
      "time_end": null,
      "time_start": "2021-04-14T10:00:00.000000Z",
      "updated_at": "2021-04-17T17:05:23.000000Z",
      "post_type": "video",
      "comments_count": 6,
      "active": 1,
      "content": "<p>We fell in love with <strong>Darkher</strong> immediately - and invited them to play Roadburn back in 2015. Nevermind that they'd never even played a show at that point. Anyway, it turned out great and we've followed the work of <strong>Jayn Maiven</strong> ever since.</p><p>So there was no way that we could turn down the opportunity to premiere a new video of hers - even if it meant squeezing it in at the last minute. It's a bonus for all of you tuning in to Roadburn Redux, and who can say no to that?</p><p>This video features an acoustic version of a song taken from the forthcoming album, recorded on location in the woods of Hell Hole Rocks.&nbsp;The&nbsp;album is due for release later this year.&nbsp;But that's all we can tell you for now... </p>",
      "highlight": 0,
      "slug": "darkher-exclusive-video-premiere",
      "data_id": 185,
      "published_at": "2021-04-16T11:15:00.000000Z",
      "created_at": "2021-04-16T10:01:36.000000Z"
    },
    {
      "liked": false,
      "likes_count": 47,
      "post_type_status": "available",
      "title": "Douwe Dijkstra documentary",
      "post_type_data": {
        "images": [
          {
            "name": "2021-04-14-77fc0cc404912e92fc108b2f08ed751a7a8b9b95.jpg",
            "image_url": "https://storage.googleapis.com/lw-poppodium013-roadburn-prod/cms/uploads/2021-04-14-77fc0cc404912e92fc108b2f08ed751a7a8b9b95.jpg"
          }
        ],
        "data_url": "https://player.vimeo.com/video/536781213",
        "meta_image": null,
        "meta_title": null,
        "thumb_url": null,
        "data_type": "VIMEO",
        "channel_id": null
      },
      "category": {
        "code": "documentaires",
        "category_name": "Documentaires",
        "category_id": 4
      },
      "time_end": null,
      "time_start": "2021-04-13T20:00:00.000000Z",
      "updated_at": "2021-04-17T20:37:44.000000Z",
      "post_type": "video",
      "comments_count": 3,
      "active": 1,
      "content": "<p>Due to be our poster artist for the 2020 edition of Roadburn, <strong>Douwe Dijkstra</strong> caught our eye and captured our attention with his technicolour creations. We may not have been able to present his work in a more traditional exhibition setting, but we couldn’t let this talented artist slide out of view along with 2020’s best laid plans without honouring his fantastic work. This documentary delves into his world.</p><p>Find out even more about <strong>Douwe</strong> and order his <strong>Roadburn 2020</strong> prints <a href=\"https://douwedijkstraillustration.com/\" rel=\"noopener noreferrer\" target=\"_blank\">HERE</a>.</p>",
      "highlight": 1,
      "slug": "douwe-dijkstra-documentary",
      "data_id": 143,
      "published_at": "2021-04-16T11:00:00.000000Z",
      "created_at": "2021-04-14T13:13:56.000000Z"
    }
  ],
  "fresh_highlights": false,
  "highlights": []
}