{
  "fresh_dynamic_data": false,
  "links": {
    "next": "https://roadburn-api.lwprod.nl/api/posts?page=37",
    "prev": "https://roadburn-api.lwprod.nl/api/posts?page=35",
    "last": "https://roadburn-api.lwprod.nl/api/posts?page=38",
    "first": "https://roadburn-api.lwprod.nl/api/posts?page=1"
  },
  "meta": {
    "to": 180,
    "total": 189,
    "last_page": 38,
    "from": 176,
    "per_page": 5,
    "path": "https://roadburn-api.lwprod.nl/api/posts",
    "current_page": 36
  },
  "fresh": true,
  "posts_data": [
    {
      "liked": false,
      "likes_count": 75,
      "post_type_status": "available",
      "title": "Alora Crucible",
      "post_type_data": {
        "images": [
          {
            "name": "2021-04-14-489c46f70df2ab9b5e79813071751ca71f040dec.jpg",
            "image_url": "https://storage.googleapis.com/lw-poppodium013-roadburn-prod/cms/uploads/2021-04-14-489c46f70df2ab9b5e79813071751ca71f040dec.jpg"
          }
        ],
        "data_url": "https://w.soundcloud.com/player/?url=https%3A//api.soundcloud.com/tracks/1018487005&color=%23ff0000&auto_play=false&hide_related=false&show_comments=false&show_user=false&show_reposts=false&show_teaser=false&visual=true",
        "meta_image": null,
        "meta_title": null,
        "thumb_url": null,
        "data_type": null,
        "channel_id": null
      },
      "category": {
        "code": "audio_n_video_premieres",
        "category_name": "Audio & video premieres",
        "category_id": 3
      },
      "time_end": null,
      "time_start": "2021-04-14T07:10:00.000000Z",
      "updated_at": "2021-04-18T23:30:54.000000Z",
      "post_type": "soundcloud",
      "comments_count": 11,
      "active": 1,
      "content": "<p>Keeping those transcendental vibes flowing, we’re delighted to premiere a track from a brand new project called Alora Crucible. The track name is <em>Synaxarion of John Isangelous. </em>The perfect way to wind down after the first few hours of Roadburn Redux and prepare yourself for the next three days of ‘burning. If you like what you hear, then keep your eyes peeled for the debut album due later this year via <a href=\"https://www.houseofmythology.com/ \" rel=\"noopener noreferrer\" target=\"_blank\">House of Mythology.</a> </p>",
      "highlight": 1,
      "slug": "alora-crucible",
      "data_id": 52,
      "published_at": "2021-04-15T20:10:00.000000Z",
      "created_at": "2021-04-12T15:27:21.000000Z"
    },
    {
      "liked": false,
      "likes_count": 21,
      "post_type_status": "available",
      "title": "Preview: Die Wilde Jagd",
      "post_type_data": {
        "images": [
          {
            "name": "2021-04-15-0c3450e325c94c266728619be2f34194be3c8ae6.jpg",
            "image_url": "https://storage.googleapis.com/lw-poppodium013-roadburn-prod/cms/uploads/2021-04-15-0c3450e325c94c266728619be2f34194be3c8ae6.jpg"
          }
        ],
        "data_url": "https://roadburn.com/interview-die-wilde-jagd/",
        "meta_image": null,
        "meta_title": null,
        "thumb_url": null,
        "data_type": null,
        "channel_id": null
      },
      "category": {
        "code": "articles",
        "category_name": "Articles",
        "category_id": 5
      },
      "time_end": null,
      "time_start": null,
      "updated_at": "2021-04-17T08:35:32.000000Z",
      "post_type": "article",
      "comments_count": 0,
      "active": 1,
      "content": "<blockquote>“Believe it or not, I had not heard of Roadburn before being invited to play the festival in 2020”</blockquote><p>Just how has <strong>Sebastian Lee Philip</strong> gone from having no clue who or what Roadburn was to performing - not once, but twice - at the most unusual incarnation of the festival to date? <strong>Dom Lawson </strong>set out to find out more about that journey and what to expect from both of his ambitious performances.&nbsp;</p><p><br></p>",
      "highlight": 0,
      "slug": "preview-die-wilde-jagd",
      "data_id": 150,
      "published_at": "2021-04-15T19:15:00.000000Z",
      "created_at": "2021-04-14T15:05:09.000000Z"
    },
    {
      "liked": false,
      "likes_count": 151,
      "post_type_status": "available",
      "title": "Commissioned: Tau presents Dream Awake",
      "post_type_data": {
        "images": [
          {
            "name": "2021-04-14-9f27f298c738767a8fa0a1276ed0e61ddef145ab.jpg",
            "image_url": "https://storage.googleapis.com/lw-poppodium013-roadburn-prod/cms/uploads/2021-04-14-9f27f298c738767a8fa0a1276ed0e61ddef145ab.jpg"
          }
        ],
        "data_url": "https://player.vimeo.com/video/536827399",
        "meta_image": null,
        "meta_title": null,
        "thumb_url": null,
        "data_type": "VIMEO",
        "channel_id": null
      },
      "category": {
        "code": "exclusive_sets",
        "category_name": "Exclusive sets",
        "category_id": 2
      },
      "time_end": null,
      "time_start": "2021-04-21T19:00:00.000000Z",
      "updated_at": "2021-04-18T22:36:57.000000Z",
      "post_type": "video",
      "comments_count": 20,
      "active": 1,
      "content": "<p>We knew we were in for something special when <strong>Tau</strong> mastermind, <strong>Sean Mulrooney</strong>, told us he was planning a two part set that spanned the past and the future of the band. </p><p>Due to some kind of magical force, or fate, who knows… they managed to enlist one of the legends of Irish music, Pól Brennan from <strong>Clannad</strong>. If your Thursday needs an injection of psychedelia then sit back and let <strong>Tau</strong> do their thing…</p><p><a href=\"https://tauofficial.bandcamp.com\" rel=\"noopener noreferrer\" target=\"_blank\">Click here for more <strong>Tau</strong>.</a></p>",
      "highlight": 1,
      "slug": "commissioned-tau-presents-dream-awake",
      "data_id": 48,
      "published_at": "2021-04-15T19:00:00.000000Z",
      "created_at": "2021-04-12T14:15:00.000000Z"
    },
    {
      "liked": false,
      "likes_count": 72,
      "post_type_status": "available",
      "title": "An Autumn For Crippled Children",
      "post_type_data": {
        "images": [
          {
            "name": "2021-04-14-e91b336a3ca59d7d69b38a81f3faa9d7974e8800.jpg",
            "image_url": "https://storage.googleapis.com/lw-poppodium013-roadburn-prod/cms/uploads/2021-04-14-e91b336a3ca59d7d69b38a81f3faa9d7974e8800.jpg"
          }
        ],
        "data_url": "https://player.vimeo.com/video/530205839",
        "meta_image": null,
        "meta_title": null,
        "thumb_url": null,
        "data_type": "VIMEO",
        "channel_id": null
      },
      "category": {
        "code": "audio_n_video_premieres",
        "category_name": "Audio & video premieres",
        "category_id": 3
      },
      "time_end": null,
      "time_start": "2021-04-14T01:30:00.000000Z",
      "updated_at": "2021-04-18T18:40:55.000000Z",
      "post_type": "video",
      "comments_count": 6,
      "active": 1,
      "content": "<p>Next month, <strong>An Autumn For Crippled Children</strong> will release a brand new album - but there’s not much else we can tell you, given how shrouded in mystery this band is. What we do know is that we have this exclusive premiere of <em>Melancholia</em>, taken from their upcoming new album, <em>As The Morning Dawns We Close Our Eyes</em> (<a href=\"https://smarturl.it/AAFCC\" rel=\"noopener noreferrer\" target=\"_blank\">which you can buy here</a>).</p>",
      "highlight": 1,
      "slug": "an-autumn-for-crippled-children",
      "data_id": 47,
      "published_at": "2021-04-15T18:50:00.000000Z",
      "created_at": "2021-04-12T13:54:06.000000Z"
    },
    {
      "liked": false,
      "likes_count": 134,
      "post_type_status": "available",
      "title": "Drowse",
      "post_type_data": {
        "images": [
          {
            "name": "2021-04-14-ef058e65db8a82c90e7b21372469f330709deda2.jpg",
            "image_url": "https://storage.googleapis.com/lw-poppodium013-roadburn-prod/cms/uploads/2021-04-14-ef058e65db8a82c90e7b21372469f330709deda2.jpg"
          }
        ],
        "data_url": "https://player.vimeo.com/video/533944412",
        "meta_image": null,
        "meta_title": null,
        "thumb_url": null,
        "data_type": "VIMEO",
        "channel_id": null
      },
      "category": {
        "code": "exclusive_sets",
        "category_name": "Exclusive sets",
        "category_id": 2
      },
      "time_end": null,
      "time_start": "2021-04-14T08:30:00.000000Z",
      "updated_at": "2021-04-18T20:50:59.000000Z",
      "post_type": "video",
      "comments_count": 20,
      "active": 1,
      "content": "<p><strong>Drowse</strong> was due to be part of <a href=\"https://nowflensing.com/\" rel=\"noopener noreferrer\" target=\"_blank\">The Flenser</a> showcase in 2020 - but as we know, the universe had other plans for us. However <strong>Kyle Bates</strong> is not one to stay still for long and has collated, composed, recorded and directed a performance piece that we’re premiering here today. Featuring recordings that span from to 2013 right up to recent weeks, this piece captures both the past and present of <strong>Drowse</strong>.&nbsp;</p>",
      "highlight": 1,
      "slug": "drowse",
      "data_id": 46,
      "published_at": "2021-04-15T18:30:00.000000Z",
      "created_at": "2021-04-12T13:52:09.000000Z"
    }
  ],
  "fresh_highlights": false,
  "highlights": []
}