{"fresh_dynamic_data":false,"links":{"next":"https://roadburn-api.lwprod.nl/api/posts?page=17","prev":"https://roadburn-api.lwprod.nl/api/posts?page=15","last":"https://roadburn-api.lwprod.nl/api/posts?page=38","first":"https://roadburn-api.lwprod.nl/api/posts?page=1"},"meta":{"to":80,"total":189,"last_page":38,"from":76,"per_page":5,"path":"https://roadburn-api.lwprod.nl/api/posts","current_page":16},"fresh":true,"posts_data":[{"liked":false,"likes_count":122,"post_type_status":"available","title":"Commissioned: Mizmor presents Wit's End","post_type_data":{"images":[{"name":"2021-04-17-4d99389e88584e093211ff701f6c9514cd2fd54f.jpg","image_url":"https://storage.googleapis.com/lw-poppodium013-roadburn-prod/cms/uploads/2021-04-17-4d99389e88584e093211ff701f6c9514cd2fd54f.jpg"}],"data_url":"https://player.vimeo.com/video/538016044","meta_image":null,"meta_title":null,"thumb_url":null,"data_type":"VIMEO","channel_id":null},"category":{"code":"audio_n_video_premieres","category_name":"Audio & video premieres","category_id":3},"time_end":null,"time_start":"2021-04-17T09:00:00.000000Z","updated_at":"2021-04-19T01:16:39.000000Z","post_type":"video","comments_count":23,"active":1,"content":"<p><a href=\"https://www.roadburnredux.com/#detail?id=149\" rel=\"noopener noreferrer\" target=\"_blank\">This</a> great interview with <strong>Mizmor’</strong>s <strong>A.L.N</strong>. by <strong>Cody F Davis</strong> does more justice than we could ever hope to when it comes to explaining what this incredible track is all about. With <strong>Mizmor</strong>, there’s almost always another layer to peel back and explore and <em>Wit’s End</em> is no difference. Words can’t express how lucky we feel to be presenting this piece of music to you. </p><p><em>Wit’s End </em>was written, performed, produced, recorded, and mixed by <strong>A.L.N</strong>., mastered by <strong>Adam Gonsalves</strong> and has an accompanying video by <strong>Zev Deans</strong>. </p><p><em>Wit's End</em> is the title track off an upcoming <strong>Mizmor</strong> EP coming to <strong>Gilead Media</strong> later this year. Click <a href=\"https://linktr.ee/MizmorALN\" rel=\"noopener noreferrer\" target=\"_blank\">here </a>to find out more/support <strong>Mizmor.</strong></p>","highlight":1,"slug":"commissioned-mizmor-presents-wits-end","data_id":206,"published_at":"2021-04-17T18:20:00.000000Z","created_at":"2021-04-17T07:51:14.000000Z"},{"liked":false,"likes_count":17,"post_type_status":"available","title":"Haunted Plasma - coming up soon!","post_type_data":{"images":[{"name":"2021-04-17-f64476c687f62f320a655d9a7b4d8985f418900b.jpeg","image_url":"https://storage.googleapis.com/lw-poppodium013-roadburn-prod/cms/uploads/2021-04-17-f64476c687f62f320a655d9a7b4d8985f418900b.jpeg"}],"data_url":null,"meta_image":null,"meta_title":null,"thumb_url":null,"data_type":null,"channel_id":null},"category":null,"time_end":null,"time_start":"2021-04-15T10:00:00.000000Z","updated_at":"2021-04-18T09:31:27.000000Z","post_type":"written_update","comments_count":0,"active":1,"content":"<p>If you missed our excited posts about it in advance, Haunted Plasma is a power-house of futuristic synth in symbiosis with the super violence of kosmische black metal. The phantoms at the beating nucleus of this unearthly machine are <strong>Juho Vanhanen</strong> (<strong>Oranssi Pazuzu, Grave Pleasures</strong>), <strong>Timo Kaukolampi</strong> (<strong>K-X-P, Op:l Bastards</strong>) and <strong>Tomi Leppänen</strong> (<strong>CIRCLE, Aavikko, K-X-P</strong>), transmitting a music form evolved from a life of redefining sonic boundaries in their respective projects. Also featuring guest vocals from <strong>Mat McNerney </strong>(<strong>Hexvessel, Carpenter Brut, Beast Milk</strong>) and<strong> Ringa Manner</strong> (<strong>Ruusut, The Hearing</strong>).</p><p>If we were together in Tilburg today - THIS would be the set that everyone in the Weirdo Canyon was getting hyped for.</p>","highlight":0,"slug":"haunted-plasma-coming-up-soon","data_id":220,"published_at":"2021-04-17T18:00:00.000000Z","created_at":"2021-04-17T18:02:38.000000Z"},{"liked":false,"likes_count":158,"post_type_status":"available","title":"Commissioned: BADA","post_type_data":{"images":[{"name":"2021-04-15-9189448ea0987d2c7e4524add0b15bb4e5bc2153.jpg","image_url":"https://storage.googleapis.com/lw-poppodium013-roadburn-prod/cms/uploads/2021-04-15-9189448ea0987d2c7e4524add0b15bb4e5bc2153.jpg"}],"data_url":"https://player.vimeo.com/video/531179499","meta_image":null,"meta_title":null,"thumb_url":null,"data_type":"VIMEO","channel_id":null},"category":{"code":"exclusive_sets","category_name":"Exclusive sets","category_id":2},"time_end":null,"time_start":"2021-04-14T08:00:00.000000Z","updated_at":"2021-04-18T22:55:32.000000Z","post_type":"video","comments_count":18,"active":1,"content":"<p><strong>Anna Von Hausswolff</strong> is full of surprises. Despite our love for her output we weren’t quite prepared for how she dominated the Main Stage in 2019… and now, with her band, <strong>BADA</strong>, we weren’t sure what to expect from this commissioned performance. If sprawling, psychedelic jams are your thing then these guys have delivered just the thing to get your Saturday evening heading in some kind of spacey direction. Hit play and prepare to be transported somewhere altogether more diaphanous.</p><p><a href=\"https://badaband.bandcamp.com/releases\" rel=\"noopener noreferrer\" target=\"_blank\">Click here for bonus <strong>BADA.</strong></a></p>","highlight":1,"slug":"commissioned-bada","data_id":79,"published_at":"2021-04-17T17:50:00.000000Z","created_at":"2021-04-13T11:00:40.000000Z"},{"liked":false,"likes_count":25,"post_type_status":"available","title":"Roadburn Deep Dive - Wolves In The Throne Room","post_type_data":{"images":[{"name":"2021-04-15-2571be080efc5ff063a52d55fc2fb21594032446.jpg","image_url":"https://storage.googleapis.com/lw-poppodium013-roadburn-prod/cms/uploads/2021-04-15-2571be080efc5ff063a52d55fc2fb21594032446.jpg"}],"data_url":"https://roadburn.com/roadburn-deep-dives-wolves-in-the-throne-room/","meta_image":null,"meta_title":null,"thumb_url":null,"data_type":null,"channel_id":null},"category":{"code":"articles","category_name":"Articles","category_id":5},"time_end":null,"time_start":"2021-04-14T09:00:00.000000Z","updated_at":"2021-04-18T12:54:55.000000Z","post_type":"article","comments_count":0,"active":1,"content":"<p>“It was a formative time for Wolves In The Throne Room and also for Roadburn\"</p><p><strong>José Carlos Santos </strong>caught up with <strong>Aaron Weaver </strong>and took him on a deep dive into <strong>Wolves In The Throne Room</strong>'s formidable Roadburn debut, way back in 2008.</p>","highlight":1,"slug":"roadburn-deep-dive-wolves-in-the-throne-room","data_id":166,"published_at":"2021-04-17T17:45:00.000000Z","created_at":"2021-04-15T12:42:19.000000Z"},{"liked":false,"likes_count":62,"post_type_status":"available","title":"Offermose presents Jordens åbne sår","post_type_data":{"images":[{"name":"2021-04-15-9f31bee10e5a3a38221ad7c745be275c30e35ab1.jpeg","image_url":"https://storage.googleapis.com/lw-poppodium013-roadburn-prod/cms/uploads/2021-04-15-9f31bee10e5a3a38221ad7c745be275c30e35ab1.jpeg"}],"data_url":"https://player.vimeo.com/video/533543561","meta_image":null,"meta_title":null,"thumb_url":null,"data_type":"VIMEO","channel_id":null},"category":{"code":"exclusive_sets","category_name":"Exclusive sets","category_id":2},"time_end":null,"time_start":"2021-04-14T08:30:00.000000Z","updated_at":"2021-04-19T07:48:47.000000Z","post_type":"video","comments_count":5,"active":1,"content":"<p>Craving tidal waves of shape shifting sounds that open wide the hidden portal of the mind and the twisted trails to the distant light within thyself? Look no further - from the bottomless depths of murky forest lakes to the unfathomable reaches of primordial cosmos, <strong>Offermose</strong> have arrived with yet another dark ritual of sacrifice, this time exclusively for Roadburn Redux.</p><p><a href=\"https://offermose.bandcamp.com/\" rel=\"noopener noreferrer\" target=\"_blank\">Keep <strong>Offermose</strong> here</a>. </p><p><br></p><p><br></p>","highlight":1,"slug":"offermose-presents-jordens-abne-sar","data_id":78,"published_at":"2021-04-17T17:30:00.000000Z","created_at":"2021-04-13T10:59:17.000000Z"}],"fresh_highlights":false,"highlights":[]}