{"fresh_dynamic_data":false,"links":{"next":"https://roadburn-api.lwprod.nl/api/posts?page=14","prev":"https://roadburn-api.lwprod.nl/api/posts?page=12","last":"https://roadburn-api.lwprod.nl/api/posts?page=38","first":"https://roadburn-api.lwprod.nl/api/posts?page=1"},"meta":{"to":65,"total":189,"last_page":38,"from":61,"per_page":5,"path":"https://roadburn-api.lwprod.nl/api/posts","current_page":13},"fresh":true,"posts_data":[{"liked":false,"likes_count":52,"post_type_status":"available","title":"Haunted Plasma - bear with us!","post_type_data":{"images":[{"name":"2021-04-17-f64476c687f62f320a655d9a7b4d8985f418900b.jpeg","image_url":"https://storage.googleapis.com/lw-poppodium013-roadburn-prod/cms/uploads/2021-04-17-f64476c687f62f320a655d9a7b4d8985f418900b.jpeg"}],"data_url":null,"meta_image":null,"meta_title":null,"thumb_url":null,"data_type":null,"channel_id":null},"category":null,"time_end":null,"time_start":"2021-04-15T10:00:00.000000Z","updated_at":"2021-04-18T21:30:09.000000Z","post_type":"written_update","comments_count":6,"active":1,"content":"<p>We've had a technical hitch with <strong>Haunted Plasm</strong>a! </p><p>Please accept our apologies, we're working to get this fixed as soon as possible. We want you to enjoy the full might of <strong>Haunted Plasma</strong> so will ensure this gets the platform it deserves! So sorry for the inconvenience... </p>","highlight":0,"slug":"haunted-plasma-bear-with-us","data_id":226,"published_at":"2021-04-17T22:05:00.000000Z","created_at":"2021-04-17T22:00:30.000000Z"},{"liked":false,"likes_count":83,"post_type_status":"available","title":"Hante.","post_type_data":{"images":[{"name":"2021-04-15-a13f0311846479612c515eebf0b89833f9bf26af.jpg","image_url":"https://storage.googleapis.com/lw-poppodium013-roadburn-prod/cms/uploads/2021-04-15-a13f0311846479612c515eebf0b89833f9bf26af.jpg"}],"data_url":"https://player.vimeo.com/video/530206378","meta_image":null,"meta_title":null,"thumb_url":null,"data_type":"VIMEO","channel_id":null},"category":{"code":"audio_n_video_premieres","category_name":"Audio & video premieres","category_id":3},"time_end":null,"time_start":"2021-04-14T09:00:00.000000Z","updated_at":"2021-04-18T23:36:19.000000Z","post_type":"video","comments_count":12,"active":1,"content":"<p>We’re thrilled to be premiering a brand new track by <strong>Hante.</strong>, with an accompanying video. The track - <em>Blank Love</em> -&nbsp; is taken from her forthcoming album, <em>Morning Tsunami,</em> <a href=\"https://hante.bandcamp.com,\" rel=\"noopener noreferrer\" target=\"_blank\">due for release</a> via her own label, <strong>Synth Religion</strong> on July 2.</p>","highlight":1,"slug":"hante","data_id":87,"published_at":"2021-04-17T21:40:00.000000Z","created_at":"2021-04-13T11:36:30.000000Z"},{"liked":false,"likes_count":80,"post_type_status":"available","title":"Gallops","post_type_data":{"images":[{"name":"2021-04-15-e3964f65e61456fbfdafca902f4a4bf43c14e83b.png","image_url":"https://storage.googleapis.com/lw-poppodium013-roadburn-prod/cms/uploads/2021-04-15-e3964f65e61456fbfdafca902f4a4bf43c14e83b.png"}],"data_url":"https://player.vimeo.com/video/523804158","meta_image":null,"meta_title":null,"thumb_url":null,"data_type":"VIMEO","channel_id":null},"category":{"code":"exclusive_sets","category_name":"Exclusive sets","category_id":2},"time_end":null,"time_start":"2021-04-13T21:00:00.000000Z","updated_at":"2021-04-18T22:53:33.000000Z","post_type":"video","comments_count":13,"active":1,"content":"<p>Divided as we may be (sadly separated by time and distance), united we are about to become - thanks to <strong>Gallops</strong>. We don’t care what timezone you’re on - the Saturday night dance party starts here. Recorded in the remote Welsh wilderness, <strong>Gallops</strong> are throwing it back to Roadburn 2018 when they dominated Het Patronaat and simultaneously beaming us somewhere far into the future. Wherever we’re going, we’re on board.&nbsp;</p>","highlight":1,"slug":"gallops","data_id":86,"published_at":"2021-04-17T21:15:00.000000Z","created_at":"2021-04-13T11:30:35.000000Z"},{"liked":false,"likes_count":18,"post_type_status":"available","title":"Playlist: Death Metal","post_type_data":{"images":[],"data_url":"https://open.spotify.com/embed/playlist/7jKavVutvZgmI4flRv80I0","meta_image":null,"meta_title":null,"thumb_url":null,"data_type":null,"channel_id":null},"category":null,"time_end":null,"time_start":"2021-04-15T10:00:00.000000Z","updated_at":"2021-04-18T23:36:36.000000Z","post_type":"spotify","comments_count":2,"active":1,"content":"<p>Did you check out <strong>Vince Bellino</strong>'s scene report on death metal? If not, click <a href=\"https://roadburn.com/scene-report-death-metal/?fbclid=IwAR2rpXJ2rjotL1e-N4sbZC2Wuo11pqpknPqK0cc_GtI6UJu5JBawiF7_oW0\" rel=\"noopener noreferrer\" target=\"_blank\">HERE</a>. </p><p>If you wanna hear some of the blood-soaked bands he's talking about? Go wild! </p>","highlight":0,"slug":"playlist-death-metal","data_id":217,"published_at":"2021-04-17T21:00:00.000000Z","created_at":"2021-04-17T16:39:15.000000Z"},{"liked":false,"likes_count":167,"post_type_status":"available","title":"Commissioned: The Nest performing Her True Nature","post_type_data":{"images":[{"name":"2021-04-15-294fcf4878c56263a60e5fd91e88b75818289ed6.jpg","image_url":"https://storage.googleapis.com/lw-poppodium013-roadburn-prod/cms/uploads/2021-04-15-294fcf4878c56263a60e5fd91e88b75818289ed6.jpg"}],"data_url":"https://player.vimeo.com/video/538179360","meta_image":null,"meta_title":null,"thumb_url":null,"data_type":null,"channel_id":"FMwXJV3t"},"category":{"code":"livestreams","category_name":"Livestreams","category_id":1},"time_end":null,"time_start":"2021-04-14T09:00:00.000000Z","updated_at":"2021-04-19T04:07:26.000000Z","post_type":"livestream","comments_count":33,"active":1,"content":"<p><strong>The Nes</strong>t is a collaboration between <strong>Wolvennest</strong> - who are surely making themselves at home on the MainStage by now - and some special guests. We announced their special guests yesterday - <strong>AA Nemtheanga</strong> (<strong>Primordial, Dread Sovereign</strong>), <strong>Tommie Eriksson </strong>(<strong>Saturnalia Temple</strong>), <strong>Bones</strong> (<strong>Dread Sovereign</strong>), <strong>Alexander von Meilenwald</strong> (<strong>The Ruins Of Beverast</strong>), and <strong>Ryanne van Dorst</strong> (<strong>DOOL</strong>) -- but everything else is tightly under wraps. We’re extremely ready to experience their commissioned composition, titled <em>Her True Nature</em>.</p>","highlight":1,"slug":"commissioned-the-nest-performing-her-true-nature","data_id":25,"published_at":"2021-04-17T20:50:00.000000Z","created_at":"2021-04-09T13:26:57.000000Z"}],"fresh_highlights":false,"highlights":[]}