{"fresh_dynamic_data":false,"links":{"next":"https://roadburn-api.lwprod.nl/api/posts?page=32","prev":"https://roadburn-api.lwprod.nl/api/posts?page=30","last":"https://roadburn-api.lwprod.nl/api/posts?page=38","first":"https://roadburn-api.lwprod.nl/api/posts?page=1"},"meta":{"to":155,"total":189,"last_page":38,"from":151,"per_page":5,"path":"https://roadburn-api.lwprod.nl/api/posts","current_page":31},"fresh":true,"posts_data":[{"liked":false,"likes_count":21,"post_type_status":"available","title":"Preview: Primitive Man/ Many Blessings","post_type_data":{"images":[{"name":"2021-04-15-c56b482c684b7fcad21941f708e26dc1a308764b.jpeg","image_url":"https://storage.googleapis.com/lw-poppodium013-roadburn-prod/cms/uploads/2021-04-15-c56b482c684b7fcad21941f708e26dc1a308764b.jpeg"}],"data_url":"https://roadburn.com/interview-primitive-man/","meta_image":null,"meta_title":null,"thumb_url":null,"data_type":null,"channel_id":null},"category":{"code":"articles","category_name":"Articles","category_id":5},"time_end":null,"time_start":"2021-04-14T10:00:00.000000Z","updated_at":"2021-04-17T17:04:30.000000Z","post_type":"article","comments_count":1,"active":1,"content":"<blockquote>“I create in spite of everything that's going on.”</blockquote><p><strong>Ethan Lee McCarthy</strong> is a force of nature. <strong>Vince Bellino</strong> found out what motivates him to create, and how writing music during a pandemic impacted (or not) on his output.&nbsp;</p><p><br></p><p><br></p>","highlight":0,"slug":"preview-primitive-man-many-blessings","data_id":160,"published_at":"2021-04-16T15:00:00.000000Z","created_at":"2021-04-15T12:23:16.000000Z"},{"liked":false,"likes_count":79,"post_type_status":"available","title":"Thy Catafalque","post_type_data":{"images":[{"name":"2021-04-14-a58935480a4cc02e9f3dc550468c0b7640e9c78e.jpg","image_url":"https://storage.googleapis.com/lw-poppodium013-roadburn-prod/cms/uploads/2021-04-14-a58935480a4cc02e9f3dc550468c0b7640e9c78e.jpg"}],"data_url":"https://player.vimeo.com/video/536819750","meta_image":null,"meta_title":null,"thumb_url":null,"data_type":"VIMEO","channel_id":null},"category":{"code":"audio_n_video_premieres","category_name":"Audio & video premieres","category_id":3},"time_end":null,"time_start":"2021-04-14T08:00:00.000000Z","updated_at":"2021-04-18T08:52:00.000000Z","post_type":"video","comments_count":7,"active":1,"content":"<p>Shrouded in mystery, <strong>Thy Catafalque</strong> will be pulling back the curtain just a little this summer with the release of a new album titled <em>Vadak</em>. We’re so pleased to be able to bring you a premiere of a brand new track, titled <em>Szarvas</em>, taken from that very same new album.&nbsp;</p>","highlight":1,"slug":"thy-catafalque","data_id":152,"published_at":"2021-04-16T14:50:00.000000Z","created_at":"2021-04-14T15:18:44.000000Z"},{"liked":false,"likes_count":75,"post_type_status":"available","title":"Kayo Dot","post_type_data":{"images":[{"name":"2021-04-14-2d2626779473a6e685d0c19caf9bd472e76b2b3a.jpg","image_url":"https://storage.googleapis.com/lw-poppodium013-roadburn-prod/cms/uploads/2021-04-14-2d2626779473a6e685d0c19caf9bd472e76b2b3a.jpg"}],"data_url":"https://w.soundcloud.com/player/?url=https%3A//api.soundcloud.com/tracks/1018493062%3Fsecret_token%3Ds-LrwsEEonTbN&color=%23ff5500&auto_play=false&hide_related=false&show_comments=true&show_user=true&show_reposts=false&show_teaser=true&visual=true","meta_image":null,"meta_title":null,"thumb_url":null,"data_type":null,"channel_id":null},"category":{"code":"audio_n_video_premieres","category_name":"Audio & video premieres","category_id":3},"time_end":null,"time_start":"2021-04-14T08:30:00.000000Z","updated_at":"2021-04-18T19:32:20.000000Z","post_type":"soundcloud","comments_count":14,"active":1,"content":"<p>Ohh boy, we’re excited about this one! <strong>Kayo Dot </strong>are back with a new album - <em>Moss Grew on the Swords and Plowshares Alike</em> - which will see a release later this year via Prophecy Productions. And we have the first track from it right here - <em>The Knight Errant.</em></p><p>Stop reading this immediately and hit play.</p><p><br></p><p>More from <strong>Kayo Dot</strong> <a href=\"https://kayodot.bandcamp.com/\" rel=\"noopener noreferrer\" target=\"_blank\">HERE</a>. </p>","highlight":1,"slug":"kayo-dot","data_id":110,"published_at":"2021-04-16T14:30:00.000000Z","created_at":"2021-04-13T19:14:53.000000Z"},{"liked":false,"likes_count":77,"post_type_status":"available","title":"Thank you!","post_type_data":{"images":[],"data_url":null,"meta_image":null,"meta_title":null,"thumb_url":null,"data_type":null,"channel_id":null},"category":null,"time_end":null,"time_start":"2021-04-14T08:00:00.000000Z","updated_at":"2021-04-17T17:04:39.000000Z","post_type":"written_update","comments_count":4,"active":1,"content":"<p>Thank you to everyone who has joined us on our Roadburn Redux journey already! Everything's going to plan so far... </p><p>If you enjoyed Die Wilde Jagd's set, and you want to support Roadburn in being able to continue to deliver mind-bending, once in a lifetime sets long into the future, then please consider donating - you can use the button at the top of the page to do so.</p><p><br></p><p><br></p>","highlight":0,"slug":"thank-you","data_id":188,"published_at":"2021-04-16T14:25:00.000000Z","created_at":"2021-04-16T12:36:10.000000Z"},{"liked":false,"likes_count":85,"post_type_status":"available","title":"Nadja performing Seemannsgarn","post_type_data":{"images":[{"name":"2021-04-14-1bebc9c4e7cbe6adc83be23b0b6146901b7f0f93.jpg","image_url":"https://storage.googleapis.com/lw-poppodium013-roadburn-prod/cms/uploads/2021-04-14-1bebc9c4e7cbe6adc83be23b0b6146901b7f0f93.jpg"}],"data_url":"https://player.vimeo.com/video/534014341","meta_image":null,"meta_title":null,"thumb_url":null,"data_type":"VIMEO","channel_id":null},"category":{"code":"exclusive_sets","category_name":"Exclusive sets","category_id":2},"time_end":null,"time_start":"2021-04-14T08:15:00.000000Z","updated_at":"2021-04-18T20:49:07.000000Z","post_type":"video","comments_count":10,"active":1,"content":"<p>This special performance of <strong>Nadja's</strong> <em>Seemannsgarn</em> was filmed at The Black Lodge in Berlin earlier this year. This beautifully meditative video is exclusive to Roadburn Redux, and we’re delighted to present you this oasis of audio pleasure to sink into on a Friday afternoon.</p><p><br></p><p>More from <strong>Nadja</strong> <a href=\"https://nadja.bandcamp.com \" rel=\"noopener noreferrer\" target=\"_blank\">HERE</a>.</p>","highlight":1,"slug":"nadja-performing-seemannsgarn","data_id":55,"published_at":"2021-04-16T14:15:00.000000Z","created_at":"2021-04-13T09:20:38.000000Z"}],"fresh_highlights":false,"highlights":[]}