{"fresh_dynamic_data":false,"links":{"next":"https://roadburn-api.lwprod.nl/api/posts?page=13","prev":"https://roadburn-api.lwprod.nl/api/posts?page=11","last":"https://roadburn-api.lwprod.nl/api/posts?page=38","first":"https://roadburn-api.lwprod.nl/api/posts?page=1"},"meta":{"to":60,"total":189,"last_page":38,"from":56,"per_page":5,"path":"https://roadburn-api.lwprod.nl/api/posts","current_page":12},"fresh":true,"posts_data":[{"liked":false,"likes_count":110,"post_type_status":"available","title":"Svart Sessions: Haunted Plasma","post_type_data":{"images":[{"name":"2021-04-15-40a59a489f71a6fed9f74fbccfb6f4a68fbfb90f.png","image_url":"https://storage.googleapis.com/lw-poppodium013-roadburn-prod/cms/uploads/2021-04-15-40a59a489f71a6fed9f74fbccfb6f4a68fbfb90f.png"}],"data_url":"https://player.vimeo.com/video/538182034","meta_image":null,"meta_title":null,"thumb_url":null,"data_type":"VIMEO","channel_id":null},"category":{"code":"exclusive_sets","category_name":"Exclusive sets","category_id":2},"time_end":null,"time_start":"2021-04-17T23:10:00.000000Z","updated_at":"2021-04-19T06:48:03.000000Z","post_type":"video","comments_count":17,"active":1,"content":"<p>You want new bands? We’ve got new bands. When we included a special, secret show in the very first Roadburn Redux announcement, this band had barely even rehearsed together, nevermind started to think about a live show. But if there’s anywhere in the world that can breed hyperproductive, ubercreative beings, it’s Tampere, Finland.&nbsp;</p><p>The phantoms at the beating nucleus of this unearthly machine are <strong>Juho Vanhanen</strong> (<strong>Oranssi Pazuzu, Grave Pleasures</strong>), <strong>Timo Kaukolampi</strong> (<strong>K-X-P, Op:l Bastards</strong>) and <strong>Tomi Leppänen </strong>(<strong>Circle, Aavikko, K-X-P</strong>), transmitting a music form evolved from a life of redefining sonic boundaries in their respective projects. Also featuring guest vocals from <strong>Mat McNerney</strong> (<strong>Hexvessel, Carpenter Brut, Beastmilk</strong>) and <strong>Ringa Manner</strong> (<strong>Ruusut, The Hearing</strong>) <strong>Haunted Plasma</strong> promises an extraterrestrial experience from some of the foremost contemporary musicians at the heart of the Finnish heavy and avant-garde musical underworld. Enough introduction - bring on the <strong>Haunted Plasma!</strong></p>","highlight":0,"slug":"svart-sessions-haunted-plasma","data_id":148,"published_at":"2021-04-17T23:10:00.000000Z","created_at":"2021-04-14T13:55:35.000000Z"},{"liked":false,"likes_count":149,"post_type_status":"available","title":"Commissioned: Neptunian Maximalism: Set Chaos To The Heart Of The Moon","post_type_data":{"images":[{"name":"2021-04-15-e5fa82cf08679801fc4877bf75ca2f407cab054f.jpeg","image_url":"https://storage.googleapis.com/lw-poppodium013-roadburn-prod/cms/uploads/2021-04-15-e5fa82cf08679801fc4877bf75ca2f407cab054f.jpeg"}],"data_url":"https://player.vimeo.com/video/538199415","meta_image":null,"meta_title":null,"thumb_url":null,"data_type":null,"channel_id":"GEg9OOMn"},"category":{"code":"livestreams","category_name":"Livestreams","category_id":1},"time_end":null,"time_start":"2021-04-13T22:00:00.000000Z","updated_at":"2021-04-19T01:24:26.000000Z","post_type":"livestream","comments_count":35,"active":1,"content":"<p>We often talk of bands straddling genres, or defying convention, but few do it with the same exploratory mindset that <strong>Neptunian Maximalism</strong> possess. If you’ve been wondering when the best time to truly let loose is - we can confirm that time is now. Give yourselves over to<strong> Neptunian Maximalism</strong> - there’s no-one and nothing quite like them.&nbsp;</p>","highlight":1,"slug":"commissioned-neptunian-maximalism-set-chaos-to-the-heart-of-the-moon","data_id":26,"published_at":"2021-04-17T23:00:00.000000Z","created_at":"2021-04-09T13:27:52.000000Z"},{"liked":false,"likes_count":36,"post_type_status":"available","title":"The Nest - in pictures","post_type_data":{"images":[{"name":"2021-04-18-14d97f25a8869284a2ebbe78be1390f0412b1556.jpg","image_url":"https://storage.googleapis.com/lw-poppodium013-roadburn-prod/cms/uploads/2021-04-18-14d97f25a8869284a2ebbe78be1390f0412b1556.jpg"},{"name":"2021-04-18-2809d64df2ab267360a160cbc169816347f94250.jpg","image_url":"https://storage.googleapis.com/lw-poppodium013-roadburn-prod/cms/uploads/2021-04-18-2809d64df2ab267360a160cbc169816347f94250.jpg"},{"name":"2021-04-18-e07531d5d7844bf91c7c17b3bffb0904f25bc5c4.jpg","image_url":"https://storage.googleapis.com/lw-poppodium013-roadburn-prod/cms/uploads/2021-04-18-e07531d5d7844bf91c7c17b3bffb0904f25bc5c4.jpg"},{"name":"2021-04-18-fbb1ec9abc2a0bf7fac53e1864ae4fe8c20cfdfd.jpg","image_url":"https://storage.googleapis.com/lw-poppodium013-roadburn-prod/cms/uploads/2021-04-18-fbb1ec9abc2a0bf7fac53e1864ae4fe8c20cfdfd.jpg"},{"name":"2021-04-18-e7232c2a497fc15e389e4167aa2f49262bd1bf98.jpg","image_url":"https://storage.googleapis.com/lw-poppodium013-roadburn-prod/cms/uploads/2021-04-18-e7232c2a497fc15e389e4167aa2f49262bd1bf98.jpg"},{"name":"2021-04-18-bdc386401f1ba42391e1bcff1419e370397b5b0a.jpg","image_url":"https://storage.googleapis.com/lw-poppodium013-roadburn-prod/cms/uploads/2021-04-18-bdc386401f1ba42391e1bcff1419e370397b5b0a.jpg"},{"name":"2021-04-18-13af9d7922c5f301819dca5c8d538295cd11c4de.jpg","image_url":"https://storage.googleapis.com/lw-poppodium013-roadburn-prod/cms/uploads/2021-04-18-13af9d7922c5f301819dca5c8d538295cd11c4de.jpg"},{"name":"2021-04-18-d0a7fd7a9e58cd7faac5598af21a38a3f692b67c.jpg","image_url":"https://storage.googleapis.com/lw-poppodium013-roadburn-prod/cms/uploads/2021-04-18-d0a7fd7a9e58cd7faac5598af21a38a3f692b67c.jpg"},{"name":"2021-04-18-72a7ea6d3caeddc7bfbd3e840d723b18bfb92362.jpg","image_url":"https://storage.googleapis.com/lw-poppodium013-roadburn-prod/cms/uploads/2021-04-18-72a7ea6d3caeddc7bfbd3e840d723b18bfb92362.jpg"},{"name":"2021-04-18-baa30d6f8f6c1127fef21e904374c7d9bde1bced.jpg","image_url":"https://storage.googleapis.com/lw-poppodium013-roadburn-prod/cms/uploads/2021-04-18-baa30d6f8f6c1127fef21e904374c7d9bde1bced.jpg"}],"data_url":null,"meta_image":null,"meta_title":null,"thumb_url":null,"data_type":null,"channel_id":null},"category":null,"time_end":null,"time_start":"2021-04-16T10:00:00.000000Z","updated_at":"2021-04-18T21:29:45.000000Z","post_type":"carousel","comments_count":0,"active":1,"content":"<p><strong>The Nest</strong> - captured by Niels Vinck, live from the 013 venue, Tilburg. April 17, 2021.</p>","highlight":0,"slug":"the-nest-in-pictures","data_id":227,"published_at":"2021-04-17T22:47:00.000000Z","created_at":"2021-04-17T22:47:27.000000Z"},{"liked":false,"likes_count":52,"post_type_status":"available","title":"Blanck Mass","post_type_data":{"images":[{"name":"2021-04-15-7dbf83fb878147c447ea8d0a0b557d68b3837162.jpg","image_url":"https://storage.googleapis.com/lw-poppodium013-roadburn-prod/cms/uploads/2021-04-15-7dbf83fb878147c447ea8d0a0b557d68b3837162.jpg"}],"data_url":"https://player.vimeo.com/video/531221752","meta_image":null,"meta_title":null,"thumb_url":null,"data_type":"VIMEO","channel_id":null},"category":{"code":"exclusive_sets","category_name":"Exclusive sets","category_id":2},"time_end":null,"time_start":"2021-04-13T21:00:00.000000Z","updated_at":"2021-04-19T07:15:27.000000Z","post_type":"video","comments_count":7,"active":1,"content":"<p><strong>Benjamin John Power</strong> AKA <strong>Blanck Mass </strong>has filmed us a set full of all those tracks we were so eager to see performed live last year. This special set features live visual manipulation from <strong>Power’s</strong> longtime friend <strong>Dan Tombs</strong>. It’s time to get your dancing shoes on and lose yourself for a while…</p><p><a href=\"https://www.musicglue.com/blanck-mass-1 \" rel=\"noopener noreferrer\" target=\"_blank\">Buy Blanck Mass goods here</a> </p>","highlight":1,"slug":"blanck-mass","data_id":88,"published_at":"2021-04-17T22:30:00.000000Z","created_at":"2021-04-13T11:38:19.000000Z"},{"liked":false,"likes_count":6,"post_type_status":"available","title":"The Pit Stop is open","post_type_data":{"images":[{"name":"2021-04-16-97c2602de680645b12abbbed34012a08e380c698.png","image_url":"https://storage.googleapis.com/lw-poppodium013-roadburn-prod/cms/uploads/2021-04-16-97c2602de680645b12abbbed34012a08e380c698.png"}],"data_url":null,"meta_image":null,"meta_title":null,"thumb_url":null,"data_type":null,"channel_id":null},"category":null,"time_end":null,"time_start":"2021-04-15T10:00:00.000000Z","updated_at":"2021-04-18T21:30:05.000000Z","post_type":"written_update","comments_count":1,"active":1,"content":"<p>Don't forget - if you wanna hang out with your fellow Roadburners face to face, <strong>The Pit Stop</strong> is open now! </p><p>Click the link at the top of the screen! You'll need to be using a Chrome browser and have a mic &amp; camera to get the full effect! C'mon, let's get weird.</p>","highlight":0,"slug":"the-pit-stop-is-open","data_id":216,"published_at":"2021-04-17T22:05:00.000000Z","created_at":"2021-04-17T15:40:31.000000Z"}],"fresh_highlights":false,"highlights":[]}