{
  "fresh_dynamic_data": false,
  "links": {
    "next": "https://roadburn-api.lwprod.nl/api/posts?page=12",
    "prev": "https://roadburn-api.lwprod.nl/api/posts?page=10",
    "last": "https://roadburn-api.lwprod.nl/api/posts?page=38",
    "first": "https://roadburn-api.lwprod.nl/api/posts?page=1"
  },
  "meta": {
    "to": 55,
    "total": 189,
    "last_page": 38,
    "from": 51,
    "per_page": 5,
    "path": "https://roadburn-api.lwprod.nl/api/posts",
    "current_page": 11
  },
  "fresh": true,
  "posts_data": [
    {
      "liked": false,
      "likes_count": 12,
      "post_type_status": "available",
      "title": "Preview: Dirk Serries",
      "post_type_data": {
        "images": [
          {
            "name": "2021-04-15-7bdf96d8d885bc794f1966f998095b4a7f5eb7f9.jpg",
            "image_url": "https://storage.googleapis.com/lw-poppodium013-roadburn-prod/cms/uploads/2021-04-15-7bdf96d8d885bc794f1966f998095b4a7f5eb7f9.jpg"
          }
        ],
        "data_url": "https://roadburn.com/interview-dirk-serries/",
        "meta_image": null,
        "meta_title": null,
        "thumb_url": null,
        "data_type": null,
        "channel_id": null
      },
      "category": {
        "code": "articles",
        "category_name": "Articles",
        "category_id": 5
      },
      "time_end": null,
      "time_start": "2021-04-13T10:00:00.000000Z",
      "updated_at": "2021-04-18T23:47:48.000000Z",
      "post_type": "article",
      "comments_count": 0,
      "active": 1,
      "content": "<p>\"Roadburn is a philosophy”</p><p>Our creative relationship with <strong>Dirk Serries</strong> has taken many forms over the years, but at the heart of it all is a deep mutual respect. <strong>Dom Lawson</strong> checked in with him to find out how Roadburn Redux differs from his previous experiences, and to find out more about his commissioned project, <em>Epitaph</em>.</p>",
      "highlight": 1,
      "slug": "preview-dirk-serries",
      "data_id": 167,
      "published_at": "2021-04-18T10:30:00.000000Z",
      "created_at": "2021-04-15T12:44:51.000000Z"
    },
    {
      "liked": false,
      "likes_count": 23,
      "post_type_status": "available",
      "title": "Weirdo Canyon Dispatch Daily Fanzine 2021 – Sunday Issue Now Available!",
      "post_type_data": {
        "images": [
          {
            "name": "2021-04-18-f7accd8beab86ec27f70538594c8cbd7fd8895a2.jpg",
            "image_url": "https://storage.googleapis.com/lw-poppodium013-roadburn-prod/cms/uploads/2021-04-18-f7accd8beab86ec27f70538594c8cbd7fd8895a2.jpg"
          }
        ],
        "data_url": "http://roadburn.com/wp-content/uploads/2021/04/Weirdo-Canyon-Dispatch-2021-Sunday.pdf",
        "meta_image": null,
        "meta_title": null,
        "thumb_url": null,
        "data_type": null,
        "channel_id": null
      },
      "category": {
        "code": "weirdo_canyon_dispatch",
        "category_name": "Weirdo canyon dispatch",
        "category_id": 8
      },
      "time_end": null,
      "time_start": "2021-04-15T10:00:00.000000Z",
      "updated_at": "2021-04-18T21:29:16.000000Z",
      "post_type": "article",
      "comments_count": 1,
      "active": 1,
      "content": "<p>The last issue of 2021's <strong>Weirdo Canyon Dispatch</strong> also just happens to be the most packed! Before we let you go for another year, make sure you check out our chats with <strong>Wayfarer</strong>, <strong>Tau and the Drones of Praise</strong>, <strong>Wolvennest</strong> and <strong>The Devil's Trade</strong>. It's been a sincere pleasure bringing you the <strong>WCD</strong> all weekend, and thank you for reading. Enjoy this issue, and don't forget&nbsp;<a href=\"http://weirdocanyondispatch.com/\" rel=\"noopener noreferrer\" target=\"_blank\">weirdocanyondispatch.com</a>&nbsp;has all the archives!</p>",
      "highlight": 0,
      "slug": "weirdo-canyon-dispatch-daily-fanzine-2021-sunday-issue-now-available",
      "data_id": 228,
      "published_at": "2021-04-18T10:20:00.000000Z",
      "created_at": "2021-04-18T06:34:12.000000Z"
    },
    {
      "liked": false,
      "likes_count": 7,
      "post_type_status": "available",
      "title": "Roadburn Redux Podcast with Metal Matters - Sunday",
      "post_type_data": {
        "images": [
          {
            "name": "2021-04-17-9d82e73ef4d8154967a8958241809c47aacb4593.JPG",
            "image_url": "https://storage.googleapis.com/lw-poppodium013-roadburn-prod/cms/uploads/2021-04-17-9d82e73ef4d8154967a8958241809c47aacb4593.JPG"
          }
        ],
        "data_url": "https://w.soundcloud.com/player/?url=https%3A//api.soundcloud.com/tracks/1029361510%3Fsecret_token%3Ds-28wBiHLmaNq&color=%23ff5500&auto_play=false&hide_related=false&show_comments=true&show_user=true&show_reposts=false&show_teaser=true&visual=true",
        "meta_image": null,
        "meta_title": null,
        "thumb_url": null,
        "data_type": null,
        "channel_id": null
      },
      "category": {
        "code": "podcasts",
        "category_name": "Podcasts",
        "category_id": 7
      },
      "time_end": null,
      "time_start": "2021-04-14T09:00:00.000000Z",
      "updated_at": "2021-04-18T21:29:25.000000Z",
      "post_type": "soundcloud",
      "comments_count": 0,
      "active": 1,
      "content": "<p>Welcome to the final episode of the Roadburn Redux Podcast with Metal Matters - aka Fred Pessaro and Mike Berdan! Huge thanks to those two for pulling all of this together for us! </p><p><br></p><p>In today's episode we have two extended conversations with <strong>Inter Arma</strong> and <strong>Vile Creature</strong>, discussing the insanity of brutal death metal,&nbsp;the secret world of metal lyrics and life in the \"B\" city. In addition, stick around for discussion with <strong>Lustmord</strong>, <strong>Michel Neinhus</strong> of <strong>Autarkh</strong>&nbsp;/ <strong>Autarkh&nbsp;III</strong>, and more!</p><p><br></p><p>Lustmord </p><p>Inter Arma</p><p>Autarkh</p><p>Vile Creature</p><p>Full of Hell </p><p><br></p><p>Follow <strong>Metal Matters</strong> on <a href=\"https://twitter.com/metalmatterspod\" rel=\"noopener noreferrer\" target=\"_blank\">Twitter</a> and like/subscribe to them wherever you get your podcasts!</p><p><br></p>",
      "highlight": 0,
      "slug": "roadburn-redux-podcast-with-metal-matters-sunday",
      "data_id": 156,
      "published_at": "2021-04-18T10:00:00.000000Z",
      "created_at": "2021-04-15T07:53:55.000000Z"
    },
    {
      "liked": false,
      "likes_count": 13,
      "post_type_status": "available",
      "title": "Playlist: At Peace With The Abyss Pt.3",
      "post_type_data": {
        "images": [],
        "data_url": "https://open.spotify.com/embed/playlist/6AHrJT46ZBmFRpLLnLHkwO",
        "meta_image": null,
        "meta_title": null,
        "thumb_url": null,
        "data_type": null,
        "channel_id": null
      },
      "category": null,
      "time_end": null,
      "time_start": "2021-04-15T10:00:00.000000Z",
      "updated_at": "2021-04-18T21:29:32.000000Z",
      "post_type": "spotify",
      "comments_count": 1,
      "active": 1,
      "content": "<p>We'll leave you tonight with this to tide you over til we pick back up again tomorrow... just in case you haven't already got enough to catch up with!</p><p><br></p><p>We've taken you through the outer reaches with Roadburn's Essential Sounds contributor, David Elouvre's special trip through future krautrock sounds. Let us now escape the atmosphere for the third and last instalment of our voyage. Safe travels and thanks for listening!</p>",
      "highlight": 0,
      "slug": "playlist-at-peace-with-the-abyss-pt3",
      "data_id": 225,
      "published_at": "2021-04-17T23:30:00.000000Z",
      "created_at": "2021-04-17T21:44:53.000000Z"
    },
    {
      "liked": false,
      "likes_count": 18,
      "post_type_status": "available",
      "title": "Algiers Mixtape",
      "post_type_data": {
        "images": [
          {
            "name": "2021-04-15-7cca78be3064f10994eab9f050dda74449bbe1c0.jpg",
            "image_url": "https://storage.googleapis.com/lw-poppodium013-roadburn-prod/cms/uploads/2021-04-15-7cca78be3064f10994eab9f050dda74449bbe1c0.jpg"
          }
        ],
        "data_url": "https://w.soundcloud.com/player/?url=https%3A//api.soundcloud.com/tracks/1023148513%3Fsecret_token%3Ds-6aSpNleR5Zw&color=%23ff5500&auto_play=false&hide_related=true&show_comments=false&show_user=true&show_reposts=false&show_teaser=false&visual=true",
        "meta_image": null,
        "meta_title": null,
        "thumb_url": null,
        "data_type": null,
        "channel_id": null
      },
      "category": {
        "code": "audio_n_video_premieres",
        "category_name": "Audio & video premieres",
        "category_id": 3
      },
      "time_end": null,
      "time_start": "2021-04-13T21:00:00.000000Z",
      "updated_at": "2021-04-18T17:17:53.000000Z",
      "post_type": "soundcloud",
      "comments_count": 2,
      "active": 1,
      "content": "<p><strong>Algiers</strong> have made us a mixtape to share with Roadburn Redux attendees - injecting their distinctive spirit into proceedings and perhaps giving you some new discoveries to explore! This one will take you into the night - or be waiting for you here on Sunday morning. Hit play to traverse this musical offering from <strong>Algiers</strong>.&nbsp;</p>",
      "highlight": 1,
      "slug": "algiers-mixtape",
      "data_id": 120,
      "published_at": "2021-04-17T23:15:00.000000Z",
      "created_at": "2021-04-14T08:37:06.000000Z"
    }
  ],
  "fresh_highlights": false,
  "highlights": []
}