{
  "fresh_dynamic_data": false,
  "links": {
    "next": "https://roadburn-api.lwprod.nl/api/posts?page=24",
    "prev": "https://roadburn-api.lwprod.nl/api/posts?page=22",
    "last": "https://roadburn-api.lwprod.nl/api/posts?page=38",
    "first": "https://roadburn-api.lwprod.nl/api/posts?page=1"
  },
  "meta": {
    "to": 115,
    "total": 189,
    "last_page": 38,
    "from": 111,
    "per_page": 5,
    "path": "https://roadburn-api.lwprod.nl/api/posts",
    "current_page": 23
  },
  "fresh": true,
  "posts_data": [
    {
      "liked": false,
      "likes_count": 70,
      "post_type_status": "available",
      "title": "Album Premiere: Trialogos performing Stroh Zu Gold",
      "post_type_data": {
        "images": [
          {
            "name": "2021-04-15-660325fd43458802093603c158c6f577b1a0e03f.jpg",
            "image_url": "https://storage.googleapis.com/lw-poppodium013-roadburn-prod/cms/uploads/2021-04-15-660325fd43458802093603c158c6f577b1a0e03f.jpg"
          }
        ],
        "data_url": "https://player.vimeo.com/video/535766841",
        "meta_image": null,
        "meta_title": null,
        "thumb_url": null,
        "data_type": "VIMEO",
        "channel_id": null
      },
      "category": {
        "code": "exclusive_sets",
        "category_name": "Exclusive sets",
        "category_id": 2
      },
      "time_end": null,
      "time_start": "2021-04-14T07:00:00.000000Z",
      "updated_at": "2021-04-18T21:27:15.000000Z",
      "post_type": "video",
      "comments_count": 21,
      "active": 1,
      "content": "<p>Roadburn regulars will likely be familiar with <strong>Conny Ochs</strong>, who has brought his haunting folk to the festival’s stages numerous times, both in a solo capacity and alongside collaborator <strong>Wino</strong>. For <strong>Trialogos</strong> he joins up with <strong>Sicker Man</strong>, a cellist and composer and producer of film and theatre scores, and <strong>Kiki Bohemia</strong>, a singer and autodidactic player of lost and found instruments and toys - <em>Stroh Zu Gold</em> is the result!</p><p>If you like what you hear, order your copy of an exclusive, pre-release ‘Roadburned’ version of the album on vinyl, in a special handcrafted screen printedcover, limited to only 50 copies. Your order will be shipped right away and you will receive your copy two months before the official release date. For purchase click <a href=\"https://shop.mainstreamrecords.de/product/eom100x\" rel=\"noopener noreferrer\" target=\"_blank\">HERE</a>! All Hail Exile On Mainstream!&nbsp;</p><p>Password: <span style=\"color: rgb(153, 51, 255);\">Roadburned</span></p><p>For pre-ordering the regular edition of the album click <a href=\"https://shop.mainstreamrecords.de/product/eom100\" rel=\"noopener noreferrer\" target=\"_blank\">here</a></p>",
      "highlight": 1,
      "slug": "album-premiere-trialogos-performing-stroh-zu-gold",
      "data_id": 70,
      "published_at": "2021-04-17T11:00:00.000000Z",
      "created_at": "2021-04-13T10:10:12.000000Z"
    },
    {
      "liked": false,
      "likes_count": 45,
      "post_type_status": "available",
      "title": "We Are The New Chimeras",
      "post_type_data": {
        "images": [
          {
            "name": "2021-04-16-977901fd0309dcf76ce803ff909b462eb9d2828b.jpg",
            "image_url": "https://storage.googleapis.com/lw-poppodium013-roadburn-prod/cms/uploads/2021-04-16-977901fd0309dcf76ce803ff909b462eb9d2828b.jpg"
          }
        ],
        "data_url": "https://player.vimeo.com/video/531650245",
        "meta_image": null,
        "meta_title": null,
        "thumb_url": null,
        "data_type": "VIMEO",
        "channel_id": null
      },
      "category": {
        "code": "documentaires",
        "category_name": "Documentaires",
        "category_id": 4
      },
      "time_end": null,
      "time_start": "2021-04-14T08:30:00.000000Z",
      "updated_at": "2021-04-19T05:02:37.000000Z",
      "post_type": "video",
      "comments_count": 0,
      "active": 1,
      "content": "<p>French-made documentary <strong>We Are The New Chimeras</strong>: 50 minutes of Flames, Black Metal and Utopia is making its online premiere via Roadburn Redux - right here, right now!</p><p>Can a festival be life-altering? In the case of France's<strong> Les Feux de Beltane</strong> (or Beltane Fires), a gathering of like-minded spirits can change lives. It can even bypass our industrial and commercial society by creating an event that differs from any other festival in artistic scope and feel. Or, on a human scale, while profoundly capturing what’s so appealing and fundamental about black metal, and its pagan and uncompromising spirit.</p>",
      "highlight": 1,
      "slug": "we-are-the-new-chimeras",
      "data_id": 69,
      "published_at": "2021-04-17T10:30:00.000000Z",
      "created_at": "2021-04-13T10:03:20.000000Z"
    },
    {
      "liked": false,
      "likes_count": 9,
      "post_type_status": "available",
      "title": "Ticket To Tilburg: Autarkh",
      "post_type_data": {
        "images": [
          {
            "name": "2021-04-16-9cfe84a3531af5a5ed8fc730f06f14595d13026d.jpg",
            "image_url": "https://storage.googleapis.com/lw-poppodium013-roadburn-prod/cms/uploads/2021-04-16-9cfe84a3531af5a5ed8fc730f06f14595d13026d.jpg"
          }
        ],
        "data_url": null,
        "meta_image": null,
        "meta_title": null,
        "thumb_url": null,
        "data_type": null,
        "channel_id": null
      },
      "category": null,
      "time_end": null,
      "time_start": "2021-04-16T10:00:00.000000Z",
      "updated_at": "2021-04-17T17:47:29.000000Z",
      "post_type": "written_update",
      "comments_count": 0,
      "active": 1,
      "content": "<p>Can't get enough <strong>Autarkh</strong>? <strong>Ticket to Tilburg</strong> caught up with this homegrown band ahead of Roadburn, and you can read the article here in both <a href=\"https://www.tickettotilburg.com/nl/praktische-info/blogs/tilburgse-metalband-autarkh-speelt-debuut-op-roadburn-redux\" rel=\"noopener noreferrer\" target=\"_blank\">Dutch</a> and <a href=\"https://www.tickettotilburg.com/en/practical-information/blogs/tilburg-based-metal-band-autarkh-plays-debut-at-roadburn-redux\" rel=\"noopener noreferrer\" target=\"_blank\">English</a>! </p><p><br></p><p>(Photo credit in this post: Paul Verhagen)</p>",
      "highlight": 0,
      "slug": "ticket-to-tilburg-autarkh",
      "data_id": 210,
      "published_at": "2021-04-17T10:25:00.000000Z",
      "created_at": "2021-04-17T10:20:12.000000Z"
    },
    {
      "liked": false,
      "likes_count": 20,
      "post_type_status": "available",
      "title": "Weirdo Canyon Dispatch Daily Fanzine 2021 – Saturday Issue Now Available!",
      "post_type_data": {
        "images": [
          {
            "name": "2021-04-17-c575ceb23cfe0d43f67b0127960a95648d7a6521.jpg",
            "image_url": "https://storage.googleapis.com/lw-poppodium013-roadburn-prod/cms/uploads/2021-04-17-c575ceb23cfe0d43f67b0127960a95648d7a6521.jpg"
          }
        ],
        "data_url": "http://roadburn.com/wp-content/uploads/2021/04/Weirdo-Canyon-Dispatch-2021-Saturday.pdf",
        "meta_image": null,
        "meta_title": null,
        "thumb_url": null,
        "data_type": null,
        "channel_id": null
      },
      "category": {
        "code": "weirdo_canyon_dispatch",
        "category_name": "Weirdo canyon dispatch",
        "category_id": 8
      },
      "time_end": null,
      "time_start": "2021-04-15T10:15:00.000000Z",
      "updated_at": "2021-04-18T20:40:47.000000Z",
      "post_type": "article",
      "comments_count": 1,
      "active": 1,
      "content": "<p>Reeling from yesterday's onslaught of exclusive premieres and videos and all the overwhelming multimedia barrage of Roadburn Redux? Good. Sit back with our second issue of <strong>Weirdo Canyon Dispatch</strong> and dig into more of the weekend's offerings through our interviews with <strong>Steve Von Till</strong> and <strong>Primitive Man</strong>! You can read it right here and check out&nbsp;<a href=\"http://weirdocanyondispatch.com/\" rel=\"noopener noreferrer\" target=\"_blank\">weirdocanyondispatch.com</a>&nbsp;for all issues past and present!</p>",
      "highlight": 0,
      "slug": "weirdo-canyon-dispatch-daily-fanzine-2021-saturday-issue-now-available",
      "data_id": 207,
      "published_at": "2021-04-17T10:15:00.000000Z",
      "created_at": "2021-04-17T07:56:15.000000Z"
    },
    {
      "liked": false,
      "likes_count": 6,
      "post_type_status": "available",
      "title": "Roadburn Redux Podcast with Metal Matters - Saturday",
      "post_type_data": {
        "images": [
          {
            "name": "2021-04-16-60a7e1ef19ec865b79d006211c11a7944db5fbdf.JPG",
            "image_url": "https://storage.googleapis.com/lw-poppodium013-roadburn-prod/cms/uploads/2021-04-16-60a7e1ef19ec865b79d006211c11a7944db5fbdf.JPG"
          }
        ],
        "data_url": "https://w.soundcloud.com/player/?url=https%3A//api.soundcloud.com/tracks/1029361390%3Fsecret_token%3Ds-JlhVtLHENU4&color=%23ff5500&auto_play=false&hide_related=false&show_comments=true&show_user=true&show_reposts=false&show_teaser=true&visual=true",
        "meta_image": null,
        "meta_title": null,
        "thumb_url": null,
        "data_type": null,
        "channel_id": null
      },
      "category": {
        "code": "podcasts",
        "category_name": "Podcasts",
        "category_id": 7
      },
      "time_end": null,
      "time_start": "2021-04-14T07:00:00.000000Z",
      "updated_at": "2021-04-17T17:06:59.000000Z",
      "post_type": "soundcloud",
      "comments_count": 0,
      "active": 1,
      "content": "<p>In episode two of the Roadburn Redux with Metal Matters podcast we have a selection of interviews to soothe your hangover and get you hyped for today's activities!</p><p><br></p><p>In today's episode we have two extended conversations with <strong>Greg Anderson</strong> (<strong>Sunn o))</strong>) and <strong>Ethan McCarthy</strong> (<strong>Primitive Man</strong>), discussing the cross-section between free jazz and hardcore, staying busy and sane during the pandemic and discussing George Floyd while in your record cycle. In addition, stick around for discussion with <strong>Jonathan Tuite</strong> of <strong>The Flenser</strong>, <strong>Sunrot</strong> and more!</p><p><br></p><p>Here's todays's full line up:</p><p>Death Bells</p><p>Greg Anderson</p><p>Jonthan of the Flenser </p><p>Ethan McCarthy of Primitive Man</p><p>Sunrot </p><p>Algiers</p><p><br></p><p>Follow <strong>Metal Matters</strong> on <a href=\"https://twitter.com/metalmatterspod\" rel=\"noopener noreferrer\" target=\"_blank\">Twitter</a> and subscribe to hear more from them wherever you get your podcasts! </p><p><br></p>",
      "highlight": 0,
      "slug": "roadburn-redux-podcast-with-metal-matters-saturday",
      "data_id": 155,
      "published_at": "2021-04-17T10:00:00.000000Z",
      "created_at": "2021-04-15T07:52:55.000000Z"
    }
  ],
  "fresh_highlights": false,
  "highlights": []
}