{
  "fresh_dynamic_data": false,
  "links": {
    "next": "https://roadburn-api.lwprod.nl/api/posts?page=31",
    "prev": "https://roadburn-api.lwprod.nl/api/posts?page=29",
    "last": "https://roadburn-api.lwprod.nl/api/posts?page=38",
    "first": "https://roadburn-api.lwprod.nl/api/posts?page=1"
  },
  "meta": {
    "to": 150,
    "total": 189,
    "last_page": 38,
    "from": 146,
    "per_page": 5,
    "path": "https://roadburn-api.lwprod.nl/api/posts",
    "current_page": 30
  },
  "fresh": true,
  "posts_data": [
    {
      "liked": false,
      "likes_count": 127,
      "post_type_status": "available",
      "title": "Album Premiere: Autarkh performing Form In Motion",
      "post_type_data": {
        "images": [
          {
            "name": "2021-04-14-c853427350a2eb03114c01e55c24b82195ba4380.jpg",
            "image_url": "https://storage.googleapis.com/lw-poppodium013-roadburn-prod/cms/uploads/2021-04-14-c853427350a2eb03114c01e55c24b82195ba4380.jpg"
          }
        ],
        "data_url": "https://player.vimeo.com/video/537928272",
        "meta_image": null,
        "meta_title": null,
        "thumb_url": "https://media-storage.lwmicro.com/uploads/andgage_content/999b7e30-9ed1-11eb-9db3-0f336e2d5aef_Roadburn_2.jpg",
        "data_type": null,
        "channel_id": "cDnyB3H0"
      },
      "category": {
        "code": "livestreams",
        "category_name": "Livestreams",
        "category_id": 1
      },
      "time_end": null,
      "time_start": "2021-04-16T15:30:00.000000Z",
      "updated_at": "2021-04-19T02:09:27.000000Z",
      "post_type": "livestream",
      "comments_count": 27,
      "active": 1,
      "content": "<p><strong>Autarkh</strong> have created one of the most oppressive, claustrophobic and totally exhilarating wild ride albums we’ve heard so far this year, and we’re delighted that they’re here with us right now, about to play<em> Form In Motion</em> in full. Strap in… <a href=\"https://linktr.ee/autarkhband\" rel=\"noopener noreferrer\" target=\"_blank\"><em>Form In Motion</em></a> is out now via <strong>Season of Mist</strong>.</p>",
      "highlight": 1,
      "slug": "album-premiere-autarkh-performing-form-in-motion",
      "data_id": 17,
      "published_at": "2021-04-16T15:30:00.000000Z",
      "created_at": "2021-04-09T13:13:22.000000Z"
    },
    {
      "liked": false,
      "likes_count": 18,
      "post_type_status": "available",
      "title": "The Pit Stop is open",
      "post_type_data": {
        "images": [
          {
            "name": "2021-04-16-97c2602de680645b12abbbed34012a08e380c698.png",
            "image_url": "https://storage.googleapis.com/lw-poppodium013-roadburn-prod/cms/uploads/2021-04-16-97c2602de680645b12abbbed34012a08e380c698.png"
          }
        ],
        "data_url": null,
        "meta_image": null,
        "meta_title": null,
        "thumb_url": null,
        "data_type": null,
        "channel_id": null
      },
      "category": null,
      "time_end": null,
      "time_start": "2021-04-15T10:00:00.000000Z",
      "updated_at": "2021-04-17T08:33:12.000000Z",
      "post_type": "written_update",
      "comments_count": 2,
      "active": 1,
      "content": "<p>Roadburn is all about community - and if you're missing out on hanging out with your fellow Roadburners, we've got just the thing for you! </p><p>We teamed up with Bramble to create a psychedelic space to hang out, talk, and see each other in real time! All you need to do is hit the Pit Stop button at the top of the page and log in. </p><p>For full functionality, you need to be using Google Chrome, and you'll need your mic and camera switched on! Join us! </p>",
      "highlight": 0,
      "slug": "the-pit-stop-is-open",
      "data_id": 191,
      "published_at": "2021-04-16T15:25:00.000000Z",
      "created_at": "2021-04-16T15:17:23.000000Z"
    },
    {
      "liked": false,
      "likes_count": 42,
      "post_type_status": "available",
      "title": "Die Wilde Jagd - in pictures",
      "post_type_data": {
        "images": [
          {
            "name": "2021-04-16-c6d37e840fcc2dedd4c17cb86751a1e2092af4d4.jpg",
            "image_url": "https://storage.googleapis.com/lw-poppodium013-roadburn-prod/cms/uploads/2021-04-16-c6d37e840fcc2dedd4c17cb86751a1e2092af4d4.jpg"
          },
          {
            "name": "2021-04-16-d4bdc86ae10fd96dcc776b69cd326291183e2725.jpg",
            "image_url": "https://storage.googleapis.com/lw-poppodium013-roadburn-prod/cms/uploads/2021-04-16-d4bdc86ae10fd96dcc776b69cd326291183e2725.jpg"
          },
          {
            "name": "2021-04-16-396abec0fa74fc209637308d7e88ee50abf087cf.jpg",
            "image_url": "https://storage.googleapis.com/lw-poppodium013-roadburn-prod/cms/uploads/2021-04-16-396abec0fa74fc209637308d7e88ee50abf087cf.jpg"
          },
          {
            "name": "2021-04-16-619bd07cf6b8dda77726d830268256e9eb040db2.jpg",
            "image_url": "https://storage.googleapis.com/lw-poppodium013-roadburn-prod/cms/uploads/2021-04-16-619bd07cf6b8dda77726d830268256e9eb040db2.jpg"
          },
          {
            "name": "2021-04-16-6022a294924f554f0291c247d593428c4cc91255.jpg",
            "image_url": "https://storage.googleapis.com/lw-poppodium013-roadburn-prod/cms/uploads/2021-04-16-6022a294924f554f0291c247d593428c4cc91255.jpg"
          },
          {
            "name": "2021-04-16-5baa4c3b9bab73eaab2926d7d1bcddf2d94d79ab.jpg",
            "image_url": "https://storage.googleapis.com/lw-poppodium013-roadburn-prod/cms/uploads/2021-04-16-5baa4c3b9bab73eaab2926d7d1bcddf2d94d79ab.jpg"
          },
          {
            "name": "2021-04-16-0b97546cbead74bc9de38739041adef63e0c65d3.jpg",
            "image_url": "https://storage.googleapis.com/lw-poppodium013-roadburn-prod/cms/uploads/2021-04-16-0b97546cbead74bc9de38739041adef63e0c65d3.jpg"
          },
          {
            "name": "2021-04-16-8b4101164f1cc0f5651d13e5f24194e8ebed7700.jpg",
            "image_url": "https://storage.googleapis.com/lw-poppodium013-roadburn-prod/cms/uploads/2021-04-16-8b4101164f1cc0f5651d13e5f24194e8ebed7700.jpg"
          },
          {
            "name": "2021-04-16-8b4101164f1cc0f5651d13e5f24194e8ebed7700.jpg",
            "image_url": "https://storage.googleapis.com/lw-poppodium013-roadburn-prod/cms/uploads/2021-04-16-8b4101164f1cc0f5651d13e5f24194e8ebed7700.jpg"
          },
          {
            "name": "2021-04-16-4858407d0430820a759909330b9857ce6fc50e6a.jpg",
            "image_url": "https://storage.googleapis.com/lw-poppodium013-roadburn-prod/cms/uploads/2021-04-16-4858407d0430820a759909330b9857ce6fc50e6a.jpg"
          },
          {
            "name": "2021-04-16-145238a6886337a6f72ce1ae96b16045cc013338.jpg",
            "image_url": "https://storage.googleapis.com/lw-poppodium013-roadburn-prod/cms/uploads/2021-04-16-145238a6886337a6f72ce1ae96b16045cc013338.jpg"
          }
        ],
        "data_url": null,
        "meta_image": null,
        "meta_title": null,
        "thumb_url": null,
        "data_type": null,
        "channel_id": null
      },
      "category": null,
      "time_end": null,
      "time_start": "2021-04-15T10:00:00.000000Z",
      "updated_at": "2021-04-18T09:29:14.000000Z",
      "post_type": "carousel",
      "comments_count": 3,
      "active": 1,
      "content": "<p><strong>Die Wilde Jagd</strong> - captured by <strong>Paul Verhagen</strong>, live from the 013 venue, Tilburg. April 16, 2021.</p><p><br></p><p>Scroll through to see this special performance in photographs. </p>",
      "highlight": 0,
      "slug": "die-wilde-jagd-in-pictures",
      "data_id": 190,
      "published_at": "2021-04-16T15:20:00.000000Z",
      "created_at": "2021-04-16T15:11:50.000000Z"
    },
    {
      "liked": false,
      "likes_count": 47,
      "post_type_status": "available",
      "title": "Q&A: Big Brave",
      "post_type_data": {
        "images": [
          {
            "name": "2021-04-15-6d6055fc28562e75e7b576d38b4c543e66d3c2ae.jpg",
            "image_url": "https://storage.googleapis.com/lw-poppodium013-roadburn-prod/cms/uploads/2021-04-15-6d6055fc28562e75e7b576d38b4c543e66d3c2ae.jpg"
          }
        ],
        "data_url": "https://www.youtube.com/embed/vPjrQIuzciE",
        "meta_image": null,
        "meta_title": null,
        "thumb_url": null,
        "data_type": "YOUTUBE",
        "channel_id": null
      },
      "category": {
        "code": "talks",
        "category_name": "Talks",
        "category_id": 6
      },
      "time_end": null,
      "time_start": "2021-04-14T09:00:00.000000Z",
      "updated_at": "2021-04-18T14:00:51.000000Z",
      "post_type": "video",
      "comments_count": 8,
      "active": 1,
      "content": "<p>Another casualty of the cancelled 2020 edition of Roadburn was <strong>Big | Brave</strong> - but they’ve not stayed still despite circumstances forcing them off the stage this past year. <strong>Marika Zorzi</strong> catches up with them to find out what they’ve been up to, and what’s coming up next. If you’re watching live you can leave your questions in the comments below.&nbsp;</p>",
      "highlight": 1,
      "slug": "qa-big-brave",
      "data_id": 123,
      "published_at": "2021-04-16T15:15:00.000000Z",
      "created_at": "2021-04-14T08:59:40.000000Z"
    },
    {
      "liked": false,
      "likes_count": 84,
      "post_type_status": "available",
      "title": "Nero Di Marte",
      "post_type_data": {
        "images": [
          {
            "name": "2021-04-14-0c63cec88fb9aed95e4655b490fd533b2a8f21ff.jpg",
            "image_url": "https://storage.googleapis.com/lw-poppodium013-roadburn-prod/cms/uploads/2021-04-14-0c63cec88fb9aed95e4655b490fd533b2a8f21ff.jpg"
          }
        ],
        "data_url": "https://player.vimeo.com/video/531651841",
        "meta_image": null,
        "meta_title": null,
        "thumb_url": null,
        "data_type": "VIMEO",
        "channel_id": null
      },
      "category": {
        "code": "exclusive_sets",
        "category_name": "Exclusive sets",
        "category_id": 2
      },
      "time_end": null,
      "time_start": "2021-04-14T07:10:00.000000Z",
      "updated_at": "2021-04-19T00:32:25.000000Z",
      "post_type": "video",
      "comments_count": 13,
      "active": 1,
      "content": "<p>Combining elements of prog, death metal, psychedelia and even some contemporary classical music, <strong>Nero Di Marte </strong>are forging their own path in the realm of heavy music. They have brought two tracks from their most recent album, <em>Immoto</em>, to life, specially for us for Roadburn Redux. The band will perform these tracks with their new line up, and no doubt display the results of their transformative process.</p><p><br></p><p>Want more <strong>Nero Di Marte</strong>? Click <a href=\"https://smarturl.it/NeroDiMarteShop \" rel=\"noopener noreferrer\" target=\"_blank\">HERE</a>.</p>",
      "highlight": 1,
      "slug": "nero-di-marte",
      "data_id": 56,
      "published_at": "2021-04-16T15:10:00.000000Z",
      "created_at": "2021-04-13T09:24:10.000000Z"
    }
  ],
  "fresh_highlights": false,
  "highlights": []
}