{
  "fresh_dynamic_data": false,
  "links": {
    "next": "https://roadburn-api.lwprod.nl/api/posts?page=25",
    "prev": "https://roadburn-api.lwprod.nl/api/posts?page=23",
    "last": "https://roadburn-api.lwprod.nl/api/posts?page=38",
    "first": "https://roadburn-api.lwprod.nl/api/posts?page=1"
  },
  "meta": {
    "to": 120,
    "total": 189,
    "last_page": 38,
    "from": 116,
    "per_page": 5,
    "path": "https://roadburn-api.lwprod.nl/api/posts",
    "current_page": 24
  },
  "fresh": true,
  "posts_data": [
    {
      "liked": false,
      "likes_count": 13,
      "post_type_status": "available",
      "title": "Playlist: Dark Electronics",
      "post_type_data": {
        "images": [],
        "data_url": "https://open.spotify.com/embed/playlist/7m3ntUxjXqP3C3zhm3V91Q",
        "meta_image": null,
        "meta_title": null,
        "thumb_url": null,
        "data_type": null,
        "channel_id": null
      },
      "category": null,
      "time_end": null,
      "time_start": "2021-04-15T10:00:00.000000Z",
      "updated_at": "2021-04-17T17:06:57.000000Z",
      "post_type": "spotify",
      "comments_count": 2,
      "active": 1,
      "content": "<p>If you missed it earlier, <strong>Kelsey Chapman</strong> wrote all about the Dark Electronics infiltrating the Roadburn universe (<a href=\"https://www.roadburnredux.com/#detail?id=158\" rel=\"noopener noreferrer\" target=\"_blank\">click here</a> if you need to catch up!). There's an accompanying playlist that she made us, and it's a great listen if you're looking to continue the afterparty in your own time... Click play, get dancing! </p><p><br></p>",
      "highlight": 0,
      "slug": "playlist-dark-electronics",
      "data_id": 200,
      "published_at": "2021-04-16T23:30:00.000000Z",
      "created_at": "2021-04-16T22:13:20.000000Z"
    },
    {
      "liked": false,
      "likes_count": 111,
      "post_type_status": "available",
      "title": "Inter Arma Covered in the Compound: Live at Chesterfield East",
      "post_type_data": {
        "images": [
          {
            "name": "2021-04-14-4652332abdf88f41aaf15897491dd43253251f94.jpg",
            "image_url": "https://storage.googleapis.com/lw-poppodium013-roadburn-prod/cms/uploads/2021-04-14-4652332abdf88f41aaf15897491dd43253251f94.jpg"
          }
        ],
        "data_url": "https://player.vimeo.com/video/535832764",
        "meta_image": null,
        "meta_title": null,
        "thumb_url": null,
        "data_type": "VIMEO",
        "channel_id": null
      },
      "category": {
        "code": "exclusive_sets",
        "category_name": "Exclusive sets",
        "category_id": 2
      },
      "time_end": null,
      "time_start": "2021-04-13T21:45:00.000000Z",
      "updated_at": "2021-04-19T06:21:46.000000Z",
      "post_type": "video",
      "comments_count": 19,
      "active": 1,
      "content": "<p>We’re smart enough now to know that an <strong>Inter Arma</strong> show is a very specific kinda vibe best suited to the later hours. Arguably even more so when they’re delivering a set jam-packed with covers! We’re so stoked to be bringing you this set recorded live at Chesterfield East! Technology can do many things but we can’t overcome timezones completely - but wherever you are in the world, we think <strong>Inter Arma</strong> are capable of bringing those late night party vibes to your living room, whatever time you're watching. </p><p>Click <a href=\"https://linktr.ee/Interarma \" rel=\"noopener noreferrer\" target=\"_blank\">HERE</a> for more <strong>Inter Arma.</strong>&nbsp;</p>",
      "highlight": 1,
      "slug": "inter-arma-covered-in-the-compound-live-at-chesterfield-east",
      "data_id": 68,
      "published_at": "2021-04-16T22:45:00.000000Z",
      "created_at": "2021-04-13T09:53:44.000000Z"
    },
    {
      "liked": false,
      "likes_count": 61,
      "post_type_status": "available",
      "title": "Pelagic Presents: Blessings",
      "post_type_data": {
        "images": [
          {
            "name": "2021-04-14-ec9a035674e70eb69d773b0ed6cc8276d3b89568.jpg",
            "image_url": "https://storage.googleapis.com/lw-poppodium013-roadburn-prod/cms/uploads/2021-04-14-ec9a035674e70eb69d773b0ed6cc8276d3b89568.jpg"
          }
        ],
        "data_url": "https://player.vimeo.com/video/533521899",
        "meta_image": null,
        "meta_title": null,
        "thumb_url": null,
        "data_type": "VIMEO",
        "channel_id": null
      },
      "category": {
        "code": "exclusive_sets",
        "category_name": "Exclusive sets",
        "category_id": 2
      },
      "time_end": null,
      "time_start": "2021-04-13T21:20:00.000000Z",
      "updated_at": "2021-04-19T01:27:08.000000Z",
      "post_type": "video",
      "comments_count": 5,
      "active": 1,
      "content": "<p>Ready for some late night <strong>Blessings</strong> to be bestowed upon you? Hailing from Gothenburg, <strong>Blessings</strong> combine elements of hardcore with noise rock, post rock and more. Their debut album, <em>Biskopskniven</em>, is <a href=\"https://pelagic-records.com/?s=blessings&amp;post_type=product\" rel=\"noopener noreferrer\" target=\"_blank\">out in just a few weeks</a> via <strong>Pelagic</strong>. They got together to record a special set of tracks just for us. Hit play, let’s do this thing!</p>",
      "highlight": 1,
      "slug": "pelagic-presents-blessings",
      "data_id": 67,
      "published_at": "2021-04-16T22:20:00.000000Z",
      "created_at": "2021-04-13T09:52:07.000000Z"
    },
    {
      "liked": false,
      "likes_count": 11,
      "post_type_status": "available",
      "title": "Looking for the afterparty?",
      "post_type_data": {
        "images": [],
        "data_url": null,
        "meta_image": null,
        "meta_title": null,
        "thumb_url": null,
        "data_type": null,
        "channel_id": null
      },
      "category": null,
      "time_end": null,
      "time_start": "2021-04-14T10:00:00.000000Z",
      "updated_at": "2021-04-17T18:38:06.000000Z",
      "post_type": "written_update",
      "comments_count": 1,
      "active": 1,
      "content": "<p>Join us at <strong>The Pit Stop! </strong></p><p>If you're looking to hang out with your fellow 'burners - hit the Pit Stop button along the top of the screen and join us for a virtual afterparty! There's music, there's friends - but bring your own beers! </p><p>For the full experience, you'll need to be using Chrome, and have your mic &amp; camera on! </p>",
      "highlight": 0,
      "slug": "looking-for-the-afterparty",
      "data_id": 192,
      "published_at": "2021-04-16T22:15:00.000000Z",
      "created_at": "2021-04-16T16:35:24.000000Z"
    },
    {
      "liked": false,
      "likes_count": 81,
      "post_type_status": "available",
      "title": "Maggot Heart",
      "post_type_data": {
        "images": [
          {
            "name": "2021-04-14-7937254bf678cf6b04d64d1f338375bbf7864395.jpg",
            "image_url": "https://storage.googleapis.com/lw-poppodium013-roadburn-prod/cms/uploads/2021-04-14-7937254bf678cf6b04d64d1f338375bbf7864395.jpg"
          }
        ],
        "data_url": "https://player.vimeo.com/video/533459579",
        "meta_image": null,
        "meta_title": null,
        "thumb_url": null,
        "data_type": "VIMEO",
        "channel_id": null
      },
      "category": {
        "code": "exclusive_sets",
        "category_name": "Exclusive sets",
        "category_id": 2
      },
      "time_end": null,
      "time_start": "2021-04-13T20:00:00.000000Z",
      "updated_at": "2021-04-18T19:06:00.000000Z",
      "post_type": "video",
      "comments_count": 15,
      "active": 1,
      "content": "<p>We’ve got a lot of time for <strong>Maggot Heart</strong>. Their sweat-drenched swagger is the perfect accompaniment to a late night party. If you’re watching this on Saturday morning, then you might want to open a window and air this place out a little. Performing tracks from their 2020 release<em> Mercy Machine </em>for the first time ever - please welcome <strong>Maggot Heart</strong> to Roadburn Redux.</p><p><a href=\"https://maggotheart.bandcamp.com/\" rel=\"noopener noreferrer\" target=\"_blank\"><em>Mercy Machine</em> and more... </a></p>",
      "highlight": 1,
      "slug": "maggot-heart",
      "data_id": 66,
      "published_at": "2021-04-16T22:00:00.000000Z",
      "created_at": "2021-04-13T09:49:50.000000Z"
    }
  ],
  "fresh_highlights": false,
  "highlights": []
}