{"fresh_dynamic_data":false,"links":{"next":"https://roadburn-api.lwprod.nl/api/posts?page=21","prev":"https://roadburn-api.lwprod.nl/api/posts?page=19","last":"https://roadburn-api.lwprod.nl/api/posts?page=38","first":"https://roadburn-api.lwprod.nl/api/posts?page=1"},"meta":{"to":100,"total":189,"last_page":38,"from":96,"per_page":5,"path":"https://roadburn-api.lwprod.nl/api/posts","current_page":20},"fresh":true,"posts_data":[{"liked":false,"likes_count":45,"post_type_status":"available","title":"Wolf King","post_type_data":{"images":[{"name":"2021-04-16-2a57cf23146c3be65c8051cfb82f3d3873dedb29.jpg","image_url":"https://storage.googleapis.com/lw-poppodium013-roadburn-prod/cms/uploads/2021-04-16-2a57cf23146c3be65c8051cfb82f3d3873dedb29.jpg"}],"data_url":"https://player.vimeo.com/video/530356333","meta_image":null,"meta_title":null,"thumb_url":null,"data_type":"VIMEO","channel_id":null},"category":{"code":"audio_n_video_premieres","category_name":"Audio & video premieres","category_id":3},"time_end":null,"time_start":"2021-04-14T08:00:00.000000Z","updated_at":"2021-04-18T21:10:22.000000Z","post_type":"video","comments_count":2,"active":1,"content":"<p><strong>Wolf King</strong>’s latest album, <em>The Path of Wrath</em>, is good enough to have you moshing around your house on any given day, but today is a better day than all the others as we have this video premiere of theirs to get you in the mood. <em>Grief Portrait</em> is taken from <em>The Path Of Wrath</em> which is<a href=\"https://wolfking.bandcamp.com/\" rel=\"noopener noreferrer\" target=\"_blank\"> out now</a> via Prosthetic Records.</p>","highlight":1,"slug":"wolf-king","data_id":106,"published_at":"2021-04-17T14:10:00.000000Z","created_at":"2021-04-13T14:07:48.000000Z"},{"liked":false,"likes_count":16,"post_type_status":"available","title":"Roadburn Deep Dive - Warning","post_type_data":{"images":[{"name":"2021-04-15-97c02bad73621137aea5d63ea4689a19c5353a59.jpg","image_url":"https://storage.googleapis.com/lw-poppodium013-roadburn-prod/cms/uploads/2021-04-15-97c02bad73621137aea5d63ea4689a19c5353a59.jpg"}],"data_url":"https://roadburn.com/roadburn-deep-dives-warning/","meta_image":null,"meta_title":null,"thumb_url":null,"data_type":null,"channel_id":null},"category":{"code":"articles","category_name":"Articles","category_id":5},"time_end":null,"time_start":"2021-04-14T09:00:00.000000Z","updated_at":"2021-04-18T12:20:29.000000Z","post_type":"article","comments_count":0,"active":1,"content":"<p>\"When I think back to the 90s, the idea of playing this kind of music at a festival like Roadburn would be unfathomable.\"</p><p><br></p><p><strong>José Carlos Santos</strong> took <strong>Patrick Walker</strong> on a deep dive in to how the 2017 <strong>Warning</strong> reunion came about, and the obstacles he faced along the way. As we now know, the main stage performance of <strong>Watching from a Distance</strong> was a triumph, but it took some time to get there...</p>","highlight":1,"slug":"roadburn-deep-dive-warning","data_id":164,"published_at":"2021-04-17T13:55:00.000000Z","created_at":"2021-04-15T12:34:57.000000Z"},{"liked":false,"likes_count":32,"post_type_status":"available","title":"Sula Bassana presents Roadburn Haze","post_type_data":{"images":[{"name":"2021-04-15-cdec70aadb816a5119be3bf75f72bd7c439f20d3.jpg","image_url":"https://storage.googleapis.com/lw-poppodium013-roadburn-prod/cms/uploads/2021-04-15-cdec70aadb816a5119be3bf75f72bd7c439f20d3.jpg"}],"data_url":"https://w.soundcloud.com/player/?url=https%3A//api.soundcloud.com/tracks/1023266158%3Fsecret_token%3Ds-EwWuH7CMQjc&color=%23ff5500&auto_play=false&hide_related=true&show_comments=false&show_user=true&show_reposts=false&show_teaser=false&visual=true","meta_image":null,"meta_title":null,"thumb_url":null,"data_type":null,"channel_id":null},"category":{"code":"audio_n_video_premieres","category_name":"Audio & video premieres","category_id":3},"time_end":null,"time_start":"2021-04-14T09:00:00.000000Z","updated_at":"2021-04-18T15:22:28.000000Z","post_type":"soundcloud","comments_count":1,"active":1,"content":"<p>Depending on where in the world you are, this next offering might be a bit much for you at this hour. If you’re still wiping away the sleep from your eyes, you can probably forego that first cup of coffee and just hit go on this next recording instead. <strong>Sula Bassana</strong> AKA <strong>Dave Schmidt</strong> of <strong>Electric Moon </strong>has created a bespoke jam just for us that is revving up to catapult us into hyperspace. Buckle up, we’re just getting started…&nbsp;</p><p><a href=\"https://sulabassana.bandcamp.com/\" rel=\"noopener noreferrer\" target=\"_blank\" style=\"color: rgb(153, 51, 255);\">S</a><a href=\"https://sulabassana.bandcamp.com/\" rel=\"noopener noreferrer\" target=\"_blank\" style=\"color: rgb(255, 255, 0);\">u</a><a href=\"https://sulabassana.bandcamp.com/\" rel=\"noopener noreferrer\" target=\"_blank\" style=\"color: rgb(153, 51, 255);\">l</a><a href=\"https://sulabassana.bandcamp.com/\" rel=\"noopener noreferrer\" target=\"_blank\" style=\"color: rgb(255, 255, 0);\">a</a><a href=\"https://sulabassana.bandcamp.com/\" rel=\"noopener noreferrer\" target=\"_blank\" style=\"color: rgb(153, 51, 255);\"> B</a><a href=\"https://sulabassana.bandcamp.com/\" rel=\"noopener noreferrer\" target=\"_blank\" style=\"color: rgb(255, 255, 0);\">a</a><a href=\"https://sulabassana.bandcamp.com/\" rel=\"noopener noreferrer\" target=\"_blank\" style=\"color: rgb(153, 51, 255);\">s</a><a href=\"https://sulabassana.bandcamp.com/\" rel=\"noopener noreferrer\" target=\"_blank\" style=\"color: rgb(255, 255, 0);\">s</a><a href=\"https://sulabassana.bandcamp.com/\" rel=\"noopener noreferrer\" target=\"_blank\" style=\"color: rgb(153, 51, 255);\">a</a><a href=\"https://sulabassana.bandcamp.com/\" rel=\"noopener noreferrer\" target=\"_blank\" style=\"color: rgb(255, 255, 0);\">n</a><a href=\"https://sulabassana.bandcamp.com/\" rel=\"noopener noreferrer\" target=\"_blank\" style=\"color: rgb(153, 51, 255);\">a</a></p>","highlight":1,"slug":"sula-bassana-presents-roadburn-haze","data_id":118,"published_at":"2021-04-17T13:45:00.000000Z","created_at":"2021-04-14T08:31:57.000000Z"},{"liked":false,"likes_count":51,"post_type_status":"available","title":"Svart Sessions: Doodswens","post_type_data":{"images":[{"name":"2021-04-15-3a0b02de10c69adcdb3a471f9dbdc92fb89b99f3.jpg","image_url":"https://storage.googleapis.com/lw-poppodium013-roadburn-prod/cms/uploads/2021-04-15-3a0b02de10c69adcdb3a471f9dbdc92fb89b99f3.jpg"}],"data_url":"https://player.vimeo.com/video/536682933","meta_image":null,"meta_title":null,"thumb_url":null,"data_type":"VIMEO","channel_id":null},"category":{"code":"exclusive_sets","category_name":"Exclusive sets","category_id":2},"time_end":null,"time_start":"2021-04-14T09:00:00.000000Z","updated_at":"2021-04-18T21:10:37.000000Z","post_type":"video","comments_count":7,"active":1,"content":"<p>We couldn’t be more delighted that <strong>Doodswens</strong> have found a home with <strong>Svart Records</strong> - a label known for championing the underground, just like us. We were enamoured with <strong>Doodswens</strong> from the word go - and a handful of you may have been lucky enough to catch their intimate show at Roadburn a couple of years ago. Trust us when we say that these two are on the cusp of something big - and we’re witnessing the very start of their journey. So, please enjoy this live performance from this dynamic duo and keep your eyes peeled for more from them in the coming months.&nbsp;</p><p><a href=\"https://doodswensband.bandcamp.com/music\" rel=\"noopener noreferrer\" target=\"_blank\">More <strong>Doodswens!</strong></a></p>","highlight":1,"slug":"svart-sessions-doodswens","data_id":138,"published_at":"2021-04-17T13:30:00.000000Z","created_at":"2021-04-14T11:02:53.000000Z"},{"liked":false,"likes_count":16,"post_type_status":"available","title":"Q&A: Knoll","post_type_data":{"images":[{"name":"2021-04-15-7359c91b2a09d893073a271c0ae368b490778f19.jpg","image_url":"https://storage.googleapis.com/lw-poppodium013-roadburn-prod/cms/uploads/2021-04-15-7359c91b2a09d893073a271c0ae368b490778f19.jpg"}],"data_url":"https://www.youtube.com/embed/-vznt3fHf5M","meta_image":null,"meta_title":null,"thumb_url":null,"data_type":"YOUTUBE","channel_id":null},"category":{"code":"talks","category_name":"Talks","category_id":6},"time_end":null,"time_start":"2021-04-13T19:00:00.000000Z","updated_at":"2021-04-18T20:42:41.000000Z","post_type":"video","comments_count":1,"active":1,"content":"<p>Ahead of their set (coming up very soon!) <strong>Marika Zorzi</strong> catches up with a few members of <strong>Knoll</strong> - one of the youngest, and newest bands on the Roadburn Redux line up - to find out what it’s like to launch a <a href=\"https://knollvhs.bandcamp.com/album/interstice-2\" rel=\"noopener noreferrer\" target=\"_blank\">debut album</a> during a pandemic, what it was like to work with their musical heroes on that album, and what’s next for this talented band. Leave your questions for the guys in the comments below if you’re watching live.&nbsp;</p>","highlight":1,"slug":"qa-knoll","data_id":125,"published_at":"2021-04-17T13:15:00.000000Z","created_at":"2021-04-14T09:04:27.000000Z"}],"fresh_highlights":false,"highlights":[]}