{"fresh_dynamic_data":false,"links":{"next":"https://roadburn-api.lwprod.nl/api/posts?page=4","prev":"https://roadburn-api.lwprod.nl/api/posts?page=2","last":"https://roadburn-api.lwprod.nl/api/posts?page=38","first":"https://roadburn-api.lwprod.nl/api/posts?page=1"},"meta":{"to":15,"total":189,"last_page":38,"from":11,"per_page":5,"path":"https://roadburn-api.lwprod.nl/api/posts","current_page":3},"fresh":true,"posts_data":[{"liked":false,"likes_count":25,"post_type_status":"available","title":"Of Blood And Mercury - in pictures","post_type_data":{"images":[{"name":"2021-04-18-8f862752dd5cd3c498054cf81d985a8267cc3350.jpg","image_url":"https://storage.googleapis.com/lw-poppodium013-roadburn-prod/cms/uploads/2021-04-18-8f862752dd5cd3c498054cf81d985a8267cc3350.jpg"},{"name":"2021-04-18-4c22e2a5eb6f84f1dc815214972cb43e0532fc48.jpg","image_url":"https://storage.googleapis.com/lw-poppodium013-roadburn-prod/cms/uploads/2021-04-18-4c22e2a5eb6f84f1dc815214972cb43e0532fc48.jpg"},{"name":"2021-04-18-4d21e96ce62e8f079f904d310e1205fc5059f7ba.jpg","image_url":"https://storage.googleapis.com/lw-poppodium013-roadburn-prod/cms/uploads/2021-04-18-4d21e96ce62e8f079f904d310e1205fc5059f7ba.jpg"},{"name":"2021-04-18-f1b757e18748635a13f0afa4e79f1ccac2e1d1c5.jpg","image_url":"https://storage.googleapis.com/lw-poppodium013-roadburn-prod/cms/uploads/2021-04-18-f1b757e18748635a13f0afa4e79f1ccac2e1d1c5.jpg"},{"name":"2021-04-18-96b6cc818a568bf3d1184be79cdd0b9d82022c38.jpg","image_url":"https://storage.googleapis.com/lw-poppodium013-roadburn-prod/cms/uploads/2021-04-18-96b6cc818a568bf3d1184be79cdd0b9d82022c38.jpg"},{"name":"2021-04-18-1382c9ce8123728a8955e04fc66a27d4b21d1176.jpg","image_url":"https://storage.googleapis.com/lw-poppodium013-roadburn-prod/cms/uploads/2021-04-18-1382c9ce8123728a8955e04fc66a27d4b21d1176.jpg"},{"name":"2021-04-18-5a7cb1c04479e105f549d5abc15c490cfbb09bf9.jpg","image_url":"https://storage.googleapis.com/lw-poppodium013-roadburn-prod/cms/uploads/2021-04-18-5a7cb1c04479e105f549d5abc15c490cfbb09bf9.jpg"},{"name":"2021-04-18-1eac456fefbfb98cb1b36ad774bd6e56f4da66dc.jpg","image_url":"https://storage.googleapis.com/lw-poppodium013-roadburn-prod/cms/uploads/2021-04-18-1eac456fefbfb98cb1b36ad774bd6e56f4da66dc.jpg"},{"name":"2021-04-18-95d720c1395e388ac315b5d65451cdaf8341341c.jpg","image_url":"https://storage.googleapis.com/lw-poppodium013-roadburn-prod/cms/uploads/2021-04-18-95d720c1395e388ac315b5d65451cdaf8341341c.jpg"},{"name":"2021-04-18-9c50cf21a2bd174e1deb43aeb6e81714f83a219c.jpg","image_url":"https://storage.googleapis.com/lw-poppodium013-roadburn-prod/cms/uploads/2021-04-18-9c50cf21a2bd174e1deb43aeb6e81714f83a219c.jpg"}],"data_url":null,"meta_image":null,"meta_title":null,"thumb_url":null,"data_type":null,"channel_id":null},"category":null,"time_end":null,"time_start":"2021-04-04T08:00:00.000000Z","updated_at":"2021-04-19T07:25:11.000000Z","post_type":"carousel","comments_count":3,"active":1,"content":"<p><strong>Of Blood And Mercury</strong> - captured by Lotte Schrander, live from the 013 venue, Tilburg. April 18, 2021.</p>","highlight":0,"slug":"of-blood-and-mercury-in-pictures","data_id":238,"published_at":"2021-04-18T18:24:00.000000Z","created_at":"2021-04-18T18:23:41.000000Z"},{"liked":false,"likes_count":75,"post_type_status":"available","title":"Svart Sessions: Hexvessel performing Dawnbearer","post_type_data":{"images":[{"name":"2021-04-17-ae9bb235a5ad87e0fd6bc7e641ace77426be968b.jpg","image_url":"https://storage.googleapis.com/lw-poppodium013-roadburn-prod/cms/uploads/2021-04-17-ae9bb235a5ad87e0fd6bc7e641ace77426be968b.jpg"}],"data_url":"https://player.vimeo.com/video/536353911","meta_image":null,"meta_title":null,"thumb_url":null,"data_type":"VIMEO","channel_id":null},"category":{"code":"exclusive_sets","category_name":"Exclusive sets","category_id":2},"time_end":null,"time_start":"2021-04-14T07:00:00.000000Z","updated_at":"2021-04-19T07:25:14.000000Z","post_type":"video","comments_count":12,"active":1,"content":"<p><em>Dawnbearer</em> is an album we’ve lived with and loved intensely over the past decade - and we’re thrilled to be able to present a live version of it here for you as part of the <strong>Svart Sessions</strong> at Roadburn Redux. Marking a starting point for both the band and the label to evolve from - and for today, marking an ending of the <strong>Svart Sessions</strong> - <em>Dawnbearer</em> is steeped in emotion.&nbsp; Let’s get straight into it…&nbsp;</p>","highlight":1,"slug":"svart-sessions-hexvessel-performing-dawnbearer","data_id":136,"published_at":"2021-04-18T17:40:00.000000Z","created_at":"2021-04-14T10:57:39.000000Z"},{"liked":false,"likes_count":28,"post_type_status":"available","title":"Q&A: Aaron Turner","post_type_data":{"images":[{"name":"2021-04-15-4a95c7218fa610648fa06cd400f86aebaa1dde9b.jpg","image_url":"https://storage.googleapis.com/lw-poppodium013-roadburn-prod/cms/uploads/2021-04-15-4a95c7218fa610648fa06cd400f86aebaa1dde9b.jpg"}],"data_url":"https://www.youtube.com/embed/qZpraig-zS0","meta_image":null,"meta_title":null,"thumb_url":null,"data_type":"YOUTUBE","channel_id":null},"category":{"code":"talks","category_name":"Talks","category_id":6},"time_end":null,"time_start":"2021-04-14T10:00:00.000000Z","updated_at":"2021-04-19T07:25:16.000000Z","post_type":"video","comments_count":11,"active":1,"content":"<p>Ahead of his performance set later today, Aaron Turner is live in conversation with Marika Zorzi - talking about everything from his upcoming solo album, his work with Sumac, Old Man Gloom, Mammifer… and more! If you’re watching live you can leave your questions in the comments below!</p>","highlight":1,"slug":"qa-aaron-turner","data_id":132,"published_at":"2021-04-18T17:30:00.000000Z","created_at":"2021-04-14T09:17:20.000000Z"},{"liked":false,"likes_count":21,"post_type_status":"available","title":"Roadburn Deep Dive - Earthless","post_type_data":{"images":[{"name":"2021-04-18-e72b268e0094c3d10e278d4021790d97996105dd.jpg","image_url":"https://storage.googleapis.com/lw-poppodium013-roadburn-prod/cms/uploads/2021-04-18-e72b268e0094c3d10e278d4021790d97996105dd.jpg"}],"data_url":"https://roadburn.com/roadburn-deep-dives-earthless/","meta_image":null,"meta_title":null,"thumb_url":null,"data_type":null,"channel_id":null},"category":{"code":"articles","category_name":"Articles","category_id":5},"time_end":null,"time_start":"2021-04-14T08:00:00.000000Z","updated_at":"2021-04-19T07:54:05.000000Z","post_type":"article","comments_count":1,"active":1,"content":"<p>“Earthless and Roadburn became kindred spirits.”</p><p><br></p><p>This is a tale that <strong>Walter</strong> loves to tell, and it made absolute sense to include it as one of our deep dive articles for Roadburn Redux. Once more into the deep, <strong>José Carlos Santos </strong>talks to <strong>Mario Rubalcab</strong>a of <strong>Earthless</strong> to hear all about their now legendary 2008 appearance at the festival. </p>","highlight":1,"slug":"roadburn-deep-dive-earthless","data_id":172,"published_at":"2021-04-18T17:15:00.000000Z","created_at":"2021-04-15T13:00:34.000000Z"},{"liked":false,"likes_count":46,"post_type_status":"available","title":"Svart Sessions: Iterum Nata","post_type_data":{"images":[{"name":"2021-04-17-8266bc7e78230c877c43cbecf65853278b5be745.jpg","image_url":"https://storage.googleapis.com/lw-poppodium013-roadburn-prod/cms/uploads/2021-04-17-8266bc7e78230c877c43cbecf65853278b5be745.jpg"}],"data_url":"https://player.vimeo.com/video/536286919","meta_image":null,"meta_title":null,"thumb_url":null,"data_type":"VIMEO","channel_id":null},"category":{"code":"exclusive_sets","category_name":"Exclusive sets","category_id":2},"time_end":null,"time_start":"2021-04-14T08:00:00.000000Z","updated_at":"2021-04-19T08:09:26.000000Z","post_type":"video","comments_count":0,"active":1,"content":"<p>For the uninitiated,<strong> Iterum Nata<em> </em></strong>is the solo project created by <strong>Hexvessel’s</strong> lead guitarist, <strong>Jesse Heikkinen</strong>. This intimate show highlights the core of this project; embracing psychedelic occult folk, hit play for progressive rock influences and ambient interludes in this very special performance.&nbsp;</p>","highlight":1,"slug":"svart-sessions-iterum-nata","data_id":107,"published_at":"2021-04-18T17:00:00.000000Z","created_at":"2021-04-13T14:10:52.000000Z"}],"fresh_highlights":false,"highlights":[]}