{
  "fresh_dynamic_data": false,
  "links": {
    "next": "https://roadburn-api.lwprod.nl/api/posts?page=36",
    "prev": "https://roadburn-api.lwprod.nl/api/posts?page=34",
    "last": "https://roadburn-api.lwprod.nl/api/posts?page=38",
    "first": "https://roadburn-api.lwprod.nl/api/posts?page=1"
  },
  "meta": {
    "to": 175,
    "total": 189,
    "last_page": 38,
    "from": 171,
    "per_page": 5,
    "path": "https://roadburn-api.lwprod.nl/api/posts",
    "current_page": 35
  },
  "fresh": true,
  "posts_data": [
    {
      "liked": false,
      "likes_count": 39,
      "post_type_status": "available",
      "title": "Weirdo Canyon Dispatch Daily Fanzine 2021 – Friday Issue Now Available!",
      "post_type_data": {
        "images": [
          {
            "name": "2021-04-16-cc887a3c66956c7371d07becf004965ae4bdcdcd.jpg",
            "image_url": "https://storage.googleapis.com/lw-poppodium013-roadburn-prod/cms/uploads/2021-04-16-cc887a3c66956c7371d07becf004965ae4bdcdcd.jpg"
          }
        ],
        "data_url": "http://roadburn.com/wp-content/uploads/2021/04/Weirdo-Canyon-Dispatch-2021-Friday.pdf",
        "meta_image": null,
        "meta_title": null,
        "thumb_url": null,
        "data_type": null,
        "channel_id": null
      },
      "category": {
        "code": "weirdo_canyon_dispatch",
        "category_name": "Weirdo canyon dispatch",
        "category_id": 8
      },
      "time_end": null,
      "time_start": "2021-04-14T10:00:00.000000Z",
      "updated_at": "2021-04-17T22:52:19.000000Z",
      "post_type": "article",
      "comments_count": 2,
      "active": 1,
      "content": "<p>If you thought a year without being at Roadburn in Tilburg would mean a year without our daily zine - you're dead wrong!</p><p><br></p><p><strong>Weirdo Canyon Dispatch</strong> Issue No. 1 is out now! Whether you want to print it out or just dive-deep into our interview with <strong>Neptunian Maximalism</strong> and our special welcome to the world of Roadburn Redux right on your screen, we've got you covered. </p><p>Issues will be out each day and available all weekend -- links in the sidebar -- with exclusive interviews, album-of-the-year-so-far picks, thoughts on a year without live music and photos from the performances at 013 this year as well as from the past.&nbsp;Don't forget <strong>Weirdo Canyon Dispatch</strong> past and present is archived at <a href=\"http://weirdocanyondispatch.com\" rel=\"noopener noreferrer\" target=\"_blank\">weirdocanyondispatch.com</a>, thanks for reading, and enjoy issue 1!</p>",
      "highlight": 0,
      "slug": "weirdo-canyon-dispatch-daily-fanzine-2021-friday-issue-now-available",
      "data_id": 184,
      "published_at": "2021-04-16T10:15:00.000000Z",
      "created_at": "2021-04-16T08:50:27.000000Z"
    },
    {
      "liked": false,
      "likes_count": 15,
      "post_type_status": "available",
      "title": "Roadburn Redux Podcast with Metal Matters - Friday",
      "post_type_data": {
        "images": [],
        "data_url": "https://w.soundcloud.com/player/?url=https%3A//api.soundcloud.com/tracks/1029361063%3Fsecret_token%3Ds-3knFrKSnyJy&color=%23ff5500&auto_play=false&hide_related=false&show_comments=true&show_user=true&show_reposts=false&show_teaser=true&visual=true",
        "meta_image": null,
        "meta_title": null,
        "thumb_url": null,
        "data_type": null,
        "channel_id": null
      },
      "category": {
        "code": "podcasts",
        "category_name": "Podcasts",
        "category_id": 7
      },
      "time_end": null,
      "time_start": "2021-04-14T09:00:00.000000Z",
      "updated_at": "2021-04-17T17:05:37.000000Z",
      "post_type": "soundcloud",
      "comments_count": 2,
      "active": 1,
      "content": "<p>We teamed up with <strong>Metal Matters</strong> podcast AKA journalist <strong>Fred Pessaro</strong> and <strong>Uniform's</strong> <strong>Mike Berdan</strong> to bring you a special Roadburn podcast every day over this weekend. This should ease you into the first full day of Roadburn Redux...</p><p>In today's episode we have two extended conversations with <strong>Aaron Turner</strong> (<strong>Sumac, Old Man Gloom, Mammife</strong>r, ex-<strong>ISIS</strong> etc) and LA's <strong>Youth Code</strong>, discussing playing in odd spaces, Roadburn memories and why the Anthrax/Public Enemy collaboration was a key step toward musical world peace. In addition, stick around for discussion with <strong>Robin Staps</strong> of <strong>The Ocean / Pelagic Records</strong>, <strong>Nathan</strong> of <strong>Witch Mountain</strong> and more!</p><p><br></p><p>Here's the full pod line up!</p><p>Nadja</p><p>Aaron Turner</p><p>Witch Mountain </p><p>Youth Code</p><p>Pelagic Records </p><p>Lingua Ignota </p><p><br></p><p>Follow <strong>Metal Matters</strong> on Twitter <a href=\"https://twitter.com/metalmatterspod\" rel=\"noopener noreferrer\" target=\"_blank\">HERE</a> - and subscribe to them wherever you get your podcasts.</p>",
      "highlight": 0,
      "slug": "roadburn-redux-podcast-with-metal-matters-friday",
      "data_id": 154,
      "published_at": "2021-04-16T10:00:00.000000Z",
      "created_at": "2021-04-15T07:49:45.000000Z"
    },
    {
      "liked": false,
      "likes_count": 28,
      "post_type_status": "available",
      "title": "The Quest For Infinity Pt.1",
      "post_type_data": {
        "images": [],
        "data_url": "https://open.spotify.com/embed/playlist/5E3BEQyWoRJ0qNpt4zYtwQ",
        "meta_image": null,
        "meta_title": null,
        "thumb_url": null,
        "data_type": null,
        "channel_id": null
      },
      "category": null,
      "time_end": null,
      "time_start": "2021-04-14T09:00:00.000000Z",
      "updated_at": "2021-04-17T17:05:35.000000Z",
      "post_type": "spotify",
      "comments_count": 6,
      "active": 1,
      "content": "<p>Whether it's your pre-party, after-party or just two hours to escape your brain and explore the cosmic reaches, let our special SIX-HOUR-LONG playlist carry you off to places you've never before been.&nbsp;</p><p>Painstakingly and lovingly compiled (by Roadburn's <a href=\"https://open.spotify.com/playlist/56jVMfxcgimVpN0MUSpBhp?si=7c1011427832428a\" rel=\"noopener noreferrer\" target=\"_blank\">Essential Sounds</a> contributor, <strong>David Elouvre</strong>) and broken into three two-hour sections, it pushes beyond loud guitars into new realms of psykraut synth, taking the legacy of those who've come before and redefining space as we know it.</p><p><br></p><p>Dive in to Part 1... </p><p><br></p>",
      "highlight": 0,
      "slug": "the-quest-for-infinity-pt1",
      "data_id": 177,
      "published_at": "2021-04-15T20:35:00.000000Z",
      "created_at": "2021-04-15T20:04:42.000000Z"
    },
    {
      "liked": false,
      "likes_count": 43,
      "post_type_status": "available",
      "title": "Thursday Recap",
      "post_type_data": {
        "images": [
          {
            "name": "2021-04-15-a7a7f987c286958bb9aa516752ac1443e6db9c95.png",
            "image_url": "https://storage.googleapis.com/lw-poppodium013-roadburn-prod/cms/uploads/2021-04-15-a7a7f987c286958bb9aa516752ac1443e6db9c95.png"
          }
        ],
        "data_url": null,
        "meta_image": null,
        "meta_title": null,
        "thumb_url": null,
        "data_type": null,
        "channel_id": null
      },
      "category": null,
      "time_end": null,
      "time_start": "2021-04-14T05:00:00.000000Z",
      "updated_at": "2021-04-17T17:05:40.000000Z",
      "post_type": "written_update",
      "comments_count": 16,
      "active": 1,
      "content": "<p>Phew! We've got the first evening done and dusted! Hopefully that's eased you into your Roadburn experience nicely... But if you still want more, hit that button along the top that says <strong>The Pit Stop</strong>, join us in the weird and wonderful world that Bramble has helped us create so you can interact with fellow 'burners!</p><p>We had a little wobble with the chat function here and the site for a second earlier, but all seems to be well now.  A huge thank you to everyone who has joined us so far, and to those of you who have donated! If you'd like to make a donation, you'll find the button to do so on the top right of the page. </p><p>If you're just joining us now, here's what's ready and waiting for you to catch up on...</p><ul><li><a href=\"https://www.roadburnredux.com/#detail?id=45\" rel=\"noopener noreferrer\" target=\"_blank\">Kairon; IRSE! </a></li><li><a href=\"https://www.roadburnredux.com/#detail?id=108\" rel=\"noopener noreferrer\" target=\"_blank\">Noctule</a></li><li><a href=\"https://www.roadburnredux.com/#detail?id=46\" rel=\"noopener noreferrer\" target=\"_blank\">Drowse</a></li><li><a href=\"https://www.roadburnredux.com/#detail?id=47\" rel=\"noopener noreferrer\" target=\"_blank\">An Autumn For Crippled Children</a></li><li><a href=\"https://www.roadburnredux.com/#detail?id=48\" rel=\"noopener noreferrer\" target=\"_blank\">TAU</a></li><li><a href=\"https://www.roadburnredux.com/#detail?id=52\" rel=\"noopener noreferrer\" target=\"_blank\">Alora Crucible</a></li></ul><p>Plus a couple of articles to give you something to get your brain whirring! </p><p>What's been your highlight so far?</p>",
      "highlight": 0,
      "slug": "thursday-recap",
      "data_id": 176,
      "published_at": "2021-04-15T20:30:00.000000Z",
      "created_at": "2021-04-15T19:34:07.000000Z"
    },
    {
      "liked": false,
      "likes_count": 43,
      "post_type_status": "available",
      "title": "Roadburn Deep Dive - Thou",
      "post_type_data": {
        "images": [
          {
            "name": "2021-04-15-13f63f18a0d4642e74c83358c99237d266e0c81b.jpeg",
            "image_url": "https://storage.googleapis.com/lw-poppodium013-roadburn-prod/cms/uploads/2021-04-15-13f63f18a0d4642e74c83358c99237d266e0c81b.jpeg"
          }
        ],
        "data_url": "https://roadburn.com/roadburn-deep-dives-thou/",
        "meta_image": null,
        "meta_title": null,
        "thumb_url": null,
        "data_type": null,
        "channel_id": null
      },
      "category": {
        "code": "articles",
        "category_name": "Articles",
        "category_id": 5
      },
      "time_end": null,
      "time_start": "2021-04-14T10:00:00.000000Z",
      "updated_at": "2021-04-18T18:46:50.000000Z",
      "post_type": "article",
      "comments_count": 2,
      "active": 1,
      "content": "<p>“So look, we’re gonna have a lot of fun, or we’re going to look like a bunch of fucking dipshits. You gotta pick.\"</p><p><br></p><p><strong>José Carlos Santos</strong> took a deep dive in to<strong> Thou's</strong> now legendary Skate Hall set from Roadburn 2019. Click above to read more about how this chaotic show came into being! </p>",
      "highlight": 0,
      "slug": "roadburn-deep-dive-thou",
      "data_id": 151,
      "published_at": "2021-04-15T20:20:00.000000Z",
      "created_at": "2021-04-14T15:10:58.000000Z"
    }
  ],
  "fresh_highlights": false,
  "highlights": []
}