{
  "fresh_dynamic_data": false,
  "links": {
    "next": "https://roadburn-api.lwprod.nl/api/posts?page=16",
    "prev": "https://roadburn-api.lwprod.nl/api/posts?page=14",
    "last": "https://roadburn-api.lwprod.nl/api/posts?page=38",
    "first": "https://roadburn-api.lwprod.nl/api/posts?page=1"
  },
  "meta": {
    "to": 75,
    "total": 189,
    "last_page": 38,
    "from": 71,
    "per_page": 5,
    "path": "https://roadburn-api.lwprod.nl/api/posts",
    "current_page": 15
  },
  "fresh": true,
  "posts_data": [
    {
      "liked": false,
      "likes_count": 123,
      "post_type_status": "available",
      "title": "Wayfarer",
      "post_type_data": {
        "images": [
          {
            "name": "2021-04-15-81c31a27236eee8e701afbf71e8788b2516dea94.jpg",
            "image_url": "https://storage.googleapis.com/lw-poppodium013-roadburn-prod/cms/uploads/2021-04-15-81c31a27236eee8e701afbf71e8788b2516dea94.jpg"
          }
        ],
        "data_url": "https://player.vimeo.com/video/536243426",
        "meta_image": null,
        "meta_title": null,
        "thumb_url": null,
        "data_type": "VIMEO",
        "channel_id": null
      },
      "category": {
        "code": "exclusive_sets",
        "category_name": "Exclusive sets",
        "category_id": 2
      },
      "time_end": null,
      "time_start": "2021-04-14T09:00:00.000000Z",
      "updated_at": "2021-04-19T04:14:32.000000Z",
      "post_type": "video",
      "comments_count": 12,
      "active": 1,
      "content": "<p>Of all the festivals, in all the world, we really wanted <strong>Wayfarer</strong> to walk into ours. And in they came with an understated swagger. <em>A Romance With Violence</em> deserves to be experienced live - we know that, we can tell. But until circumstances make that a genuine possibility we’ll have to settle for this performance video from <strong>Wayfarer</strong>… however ‘settling’ does it a disservice. Hit play and prepare to be transported to a saloon bar, with a sawdust floor and one hell of a band playing in the corner… </p><p><a href=\"https://linktr.ee/Wayfarercolorado\" rel=\"noopener noreferrer\" target=\"_blank\">More about <strong>Wayfarer</strong></a></p>",
      "highlight": 1,
      "slug": "wayfarer",
      "data_id": 101,
      "published_at": "2021-04-17T19:00:00.000000Z",
      "created_at": "2021-04-13T12:15:03.000000Z"
    },
    {
      "liked": false,
      "likes_count": 84,
      "post_type_status": "available",
      "title": "Album Premiere: Die Wilde Jagd performing Haut",
      "post_type_data": {
        "images": [
          {
            "name": "2021-04-15-073749e7ddf2f853c202ec8d678e1a3ca80b106d.jpg",
            "image_url": "https://storage.googleapis.com/lw-poppodium013-roadburn-prod/cms/uploads/2021-04-15-073749e7ddf2f853c202ec8d678e1a3ca80b106d.jpg"
          }
        ],
        "data_url": "https://player.vimeo.com/video/538153225",
        "meta_image": null,
        "meta_title": null,
        "thumb_url": null,
        "data_type": null,
        "channel_id": "sziy4T7C"
      },
      "category": {
        "code": "livestreams",
        "category_name": "Livestreams",
        "category_id": 1
      },
      "time_end": null,
      "time_start": "2021-04-14T08:50:00.000000Z",
      "updated_at": "2021-04-18T21:31:49.000000Z",
      "post_type": "livestream",
      "comments_count": 9,
      "active": 1,
      "content": "<p><strong>Die Wilde Jagd’s</strong> <em>Haut</em> was one of our favourite psych albums of 2020 - no surprise given we firmly believe that this band has injected a new lease of live into what can often be a backward looking psych scene. No time for stagnating now - prepare to witness <em>Haut</em> in all its glory, live from the 013.</p>",
      "highlight": 1,
      "slug": "album-premiere-die-wilde-jagd-performing-haut",
      "data_id": 24,
      "published_at": "2021-04-17T18:50:00.000000Z",
      "created_at": "2021-04-09T13:25:49.000000Z"
    },
    {
      "liked": false,
      "likes_count": 69,
      "post_type_status": "available",
      "title": "Body Void",
      "post_type_data": {
        "images": [
          {
            "name": "2021-04-15-dce2b54c829a1bdb06f0f2c3c2985952f942a020.jpg",
            "image_url": "https://storage.googleapis.com/lw-poppodium013-roadburn-prod/cms/uploads/2021-04-15-dce2b54c829a1bdb06f0f2c3c2985952f942a020.jpg"
          }
        ],
        "data_url": "https://player.vimeo.com/video/533521456",
        "meta_image": null,
        "meta_title": null,
        "thumb_url": null,
        "data_type": "VIMEO",
        "channel_id": null
      },
      "category": {
        "code": "audio_n_video_premieres",
        "category_name": "Audio & video premieres",
        "category_id": 3
      },
      "time_end": null,
      "time_start": "2021-04-14T08:45:00.000000Z",
      "updated_at": "2021-04-19T04:14:38.000000Z",
      "post_type": "video",
      "comments_count": 15,
      "active": 1,
      "content": "<p>If epic doom is your jam, then <strong>Body Void</strong> will be right up your street. This performance is of a track titled <em>Fawn</em>, taken from their upcoming album, <em>Bury Me Beneath This Rotting Earth </em>(out next week via Prosthetic Records - <a href=\"https://smarturl.it/BodyVoid\" rel=\"noopener noreferrer\" target=\"_blank\">click here to buy</a>).</p>",
      "highlight": 1,
      "slug": "body-void",
      "data_id": 80,
      "published_at": "2021-04-17T18:45:00.000000Z",
      "created_at": "2021-04-13T11:03:33.000000Z"
    },
    {
      "liked": false,
      "likes_count": 45,
      "post_type_status": "available",
      "title": "Homeburn - scenes from around the globe",
      "post_type_data": {
        "images": [
          {
            "name": "2021-04-17-ef6c45a1139270fc6b8d5c9ad2abc453c13d5d44.jpeg",
            "image_url": "https://storage.googleapis.com/lw-poppodium013-roadburn-prod/cms/uploads/2021-04-17-ef6c45a1139270fc6b8d5c9ad2abc453c13d5d44.jpeg"
          },
          {
            "name": "2021-04-17-a2d2707598a54db88c8f28a2fb8dbb8cf9aa8d5f.jpeg",
            "image_url": "https://storage.googleapis.com/lw-poppodium013-roadburn-prod/cms/uploads/2021-04-17-a2d2707598a54db88c8f28a2fb8dbb8cf9aa8d5f.jpeg"
          },
          {
            "name": "2021-04-17-699416f6d1626fd15da595fc1545f4193c536c6a.jpeg",
            "image_url": "https://storage.googleapis.com/lw-poppodium013-roadburn-prod/cms/uploads/2021-04-17-699416f6d1626fd15da595fc1545f4193c536c6a.jpeg"
          },
          {
            "name": "2021-04-17-15379b0a18e359cf44cc7ee0616c240eca8288ef.jpeg",
            "image_url": "https://storage.googleapis.com/lw-poppodium013-roadburn-prod/cms/uploads/2021-04-17-15379b0a18e359cf44cc7ee0616c240eca8288ef.jpeg"
          },
          {
            "name": "2021-04-17-5b616c64d571305d7c7b2e4e6cc86c81e90bb333.jpeg",
            "image_url": "https://storage.googleapis.com/lw-poppodium013-roadburn-prod/cms/uploads/2021-04-17-5b616c64d571305d7c7b2e4e6cc86c81e90bb333.jpeg"
          },
          {
            "name": "2021-04-17-d77542838c344bffa986b62063b0dc7444fdd6df.jpeg",
            "image_url": "https://storage.googleapis.com/lw-poppodium013-roadburn-prod/cms/uploads/2021-04-17-d77542838c344bffa986b62063b0dc7444fdd6df.jpeg"
          },
          {
            "name": "2021-04-17-24a44bd75927d572ff33207756959f5b154d9c6e.JPG",
            "image_url": "https://storage.googleapis.com/lw-poppodium013-roadburn-prod/cms/uploads/2021-04-17-24a44bd75927d572ff33207756959f5b154d9c6e.JPG"
          },
          {
            "name": "2021-04-17-83308e9830e7a5acbce78720271b6c68af06f031.jpeg",
            "image_url": "https://storage.googleapis.com/lw-poppodium013-roadburn-prod/cms/uploads/2021-04-17-83308e9830e7a5acbce78720271b6c68af06f031.jpeg"
          },
          {
            "name": "2021-04-17-b1e982ef5464ab197db51caf3aa14088345fe07e.jpeg",
            "image_url": "https://storage.googleapis.com/lw-poppodium013-roadburn-prod/cms/uploads/2021-04-17-b1e982ef5464ab197db51caf3aa14088345fe07e.jpeg"
          }
        ],
        "data_url": null,
        "meta_image": null,
        "meta_title": null,
        "thumb_url": null,
        "data_type": null,
        "channel_id": null
      },
      "category": null,
      "time_end": null,
      "time_start": "2021-04-15T10:00:00.000000Z",
      "updated_at": "2021-04-18T20:38:10.000000Z",
      "post_type": "carousel",
      "comments_count": 3,
      "active": 1,
      "content": "<p>We've been loving your Roadburn at home pics! If you have a great set up to enjoy Roadburn from home, tag us in your tweets, insta posts or join us in the <a href=\"https://www.facebook.com/groups/Roadburners/\" rel=\"noopener noreferrer\" target=\"_blank\">Roadburners Facebook group</a> and let's have a peep! Especially if there's cats.</p>",
      "highlight": 0,
      "slug": "homeburn-scenes-from-around-the-globe",
      "data_id": 221,
      "published_at": "2021-04-17T18:40:00.000000Z",
      "created_at": "2021-04-17T18:18:08.000000Z"
    },
    {
      "liked": false,
      "likes_count": 29,
      "post_type_status": "available",
      "title": "Plague Organ - in pictures",
      "post_type_data": {
        "images": [
          {
            "name": "2021-04-17-915b0dc0a1eb80fd485dc4830da44b62d18da35e.jpg",
            "image_url": "https://storage.googleapis.com/lw-poppodium013-roadburn-prod/cms/uploads/2021-04-17-915b0dc0a1eb80fd485dc4830da44b62d18da35e.jpg"
          },
          {
            "name": "2021-04-17-d0228a97e534eb6dc318046471b1ec75248f1290.jpg",
            "image_url": "https://storage.googleapis.com/lw-poppodium013-roadburn-prod/cms/uploads/2021-04-17-d0228a97e534eb6dc318046471b1ec75248f1290.jpg"
          },
          {
            "name": "2021-04-17-c140b01d8f87de34865e505e1df469f077fb7c31.jpg",
            "image_url": "https://storage.googleapis.com/lw-poppodium013-roadburn-prod/cms/uploads/2021-04-17-c140b01d8f87de34865e505e1df469f077fb7c31.jpg"
          },
          {
            "name": "2021-04-17-4173f2b39bc868bdc4885147bdfd8c79ccacf9d9.jpg",
            "image_url": "https://storage.googleapis.com/lw-poppodium013-roadburn-prod/cms/uploads/2021-04-17-4173f2b39bc868bdc4885147bdfd8c79ccacf9d9.jpg"
          },
          {
            "name": "2021-04-17-9f02ee2e4086b308ad1e6b5d49d60d97cf26eff9.jpg",
            "image_url": "https://storage.googleapis.com/lw-poppodium013-roadburn-prod/cms/uploads/2021-04-17-9f02ee2e4086b308ad1e6b5d49d60d97cf26eff9.jpg"
          },
          {
            "name": "2021-04-17-600ef8257a3c936a39b198b8e200c68aed739077.jpg",
            "image_url": "https://storage.googleapis.com/lw-poppodium013-roadburn-prod/cms/uploads/2021-04-17-600ef8257a3c936a39b198b8e200c68aed739077.jpg"
          },
          {
            "name": "2021-04-17-c05443ff0b4c62171e7fe519071dfcd767ccccf6.jpg",
            "image_url": "https://storage.googleapis.com/lw-poppodium013-roadburn-prod/cms/uploads/2021-04-17-c05443ff0b4c62171e7fe519071dfcd767ccccf6.jpg"
          },
          {
            "name": "2021-04-17-1da179885f241f79fb4d852e63e9459fbdfffce4.jpg",
            "image_url": "https://storage.googleapis.com/lw-poppodium013-roadburn-prod/cms/uploads/2021-04-17-1da179885f241f79fb4d852e63e9459fbdfffce4.jpg"
          },
          {
            "name": "2021-04-17-b2907eb2638546b9cfa7954b1b0a16a1e11f44bb.jpg",
            "image_url": "https://storage.googleapis.com/lw-poppodium013-roadburn-prod/cms/uploads/2021-04-17-b2907eb2638546b9cfa7954b1b0a16a1e11f44bb.jpg"
          }
        ],
        "data_url": null,
        "meta_image": null,
        "meta_title": null,
        "thumb_url": null,
        "data_type": null,
        "channel_id": null
      },
      "category": null,
      "time_end": null,
      "time_start": "2021-04-14T09:00:00.000000Z",
      "updated_at": "2021-04-18T14:17:04.000000Z",
      "post_type": "carousel",
      "comments_count": 3,
      "active": 1,
      "content": "<p><strong>Plague Organ</strong> - captured by Niels Vinck, live from the 013 venue, Tilburg. April 17, 2021.</p>",
      "highlight": 1,
      "slug": "plague-organ-in-pictures",
      "data_id": 222,
      "published_at": "2021-04-17T18:40:00.000000Z",
      "created_at": "2021-04-17T18:40:39.000000Z"
    }
  ],
  "fresh_highlights": false,
  "highlights": []
}