{
  "fresh_dynamic_data": false,
  "links": {
    "next": "https://roadburn-api.lwprod.nl/api/posts?page=23",
    "prev": "https://roadburn-api.lwprod.nl/api/posts?page=21",
    "last": "https://roadburn-api.lwprod.nl/api/posts?page=38",
    "first": "https://roadburn-api.lwprod.nl/api/posts?page=1"
  },
  "meta": {
    "to": 110,
    "total": 189,
    "last_page": 38,
    "from": 106,
    "per_page": 5,
    "path": "https://roadburn-api.lwprod.nl/api/posts",
    "current_page": 22
  },
  "fresh": true,
  "posts_data": [
    {
      "liked": false,
      "likes_count": 41,
      "post_type_status": "available",
      "title": "The Music of Townes Van Zandt premiere #2",
      "post_type_data": {
        "images": [
          {
            "name": "2021-04-14-93d787a032c2b9e6fb584ea263cfc185d4565ca7.jpg",
            "image_url": "https://storage.googleapis.com/lw-poppodium013-roadburn-prod/cms/uploads/2021-04-14-93d787a032c2b9e6fb584ea263cfc185d4565ca7.jpg"
          }
        ],
        "data_url": "https://w.soundcloud.com/player/?url=https%3A//api.soundcloud.com/tracks/1027704202%3Fsecret_token%3Ds-e8FTyFHAtUm&color=%23ff0000&auto_play=false&hide_related=false&show_comments=false&show_user=false&show_reposts=false&show_teaser=false&visual=true",
        "meta_image": null,
        "meta_title": null,
        "thumb_url": null,
        "data_type": null,
        "channel_id": null
      },
      "category": {
        "code": "audio_n_video_premieres",
        "category_name": "Audio & video premieres",
        "category_id": 3
      },
      "time_end": null,
      "time_start": "2021-04-17T08:00:00.000000Z",
      "updated_at": "2021-04-19T05:54:10.000000Z",
      "post_type": "soundcloud",
      "comments_count": 2,
      "active": 1,
      "content": "<p>In the second of our big reveals for the upcoming album, <a href=\"https://www.myproudmountainshop.com/search?controller=search&amp;orderby=position&amp;orderway=desc&amp;search_query=townes+van+zandt&amp;submit_search=search\" rel=\"noopener noreferrer\" target=\"_blank\"><em>The Music of Townes Van Zandt Vol.III</em></a>, we're delighted to announce that the second artist participating in the release is... </p><p><strong>MARISSA NADLER</strong></p><p>Her recording of <em>None But The Rain</em> is exclusively premiering now right here. Hit play. </p><p>If you missed the <strong>AMENRA</strong> track we announced/unveiled yesterday, click <a href=\"https://www.roadburnredux.com/#detail?id=53\" rel=\"noopener noreferrer\" target=\"_blank\">HERE</a> to get caught up, and stay tuned for artist #3 tomorrow, plus a Q&amp;A with all artists involved tomorrow at <strong>5pm CEST.</strong></p>",
      "highlight": 1,
      "slug": "the-music-of-townes-van-zandt-premiere-2",
      "data_id": 208,
      "published_at": "2021-04-17T12:15:00.000000Z",
      "created_at": "2021-04-17T08:06:28.000000Z"
    },
    {
      "liked": false,
      "likes_count": 40,
      "post_type_status": "available",
      "title": "Wesenwille",
      "post_type_data": {
        "images": [
          {
            "name": "2021-04-15-6bea3c78f03f4438e1a10305d9c39e87974ee22a.jpg",
            "image_url": "https://storage.googleapis.com/lw-poppodium013-roadburn-prod/cms/uploads/2021-04-15-6bea3c78f03f4438e1a10305d9c39e87974ee22a.jpg"
          }
        ],
        "data_url": "https://player.vimeo.com/video/534340589",
        "meta_image": null,
        "meta_title": null,
        "thumb_url": null,
        "data_type": "VIMEO",
        "channel_id": null
      },
      "category": {
        "code": "exclusive_sets",
        "category_name": "Exclusive sets",
        "category_id": 2
      },
      "time_end": null,
      "time_start": "2021-04-14T08:10:00.000000Z",
      "updated_at": "2021-04-18T21:10:59.000000Z",
      "post_type": "video",
      "comments_count": 3,
      "active": 1,
      "content": "<p>If you’re looking for a dose of black metal then we have just the thing to hoik you out of that post-lunchtime slump in the form of Utrecht’s own <strong>Wesenwille</strong>. Filmed recently at the 013 venue, if you squint you can almost pretend you were there in person. If you like what you hear, we can’t recommend checking out <a href=\"https://wesenwille.bandcamp.com/\" rel=\"noopener noreferrer\" target=\"_blank\"><em>II: A Material God</em></a> enough - you won’t regret it!&nbsp;</p>",
      "highlight": 1,
      "slug": "wesenwille",
      "data_id": 72,
      "published_at": "2021-04-17T12:10:00.000000Z",
      "created_at": "2021-04-13T10:19:06.000000Z"
    },
    {
      "liked": false,
      "likes_count": 35,
      "post_type_status": "available",
      "title": "Pelagic Presents: Oslo Tapes",
      "post_type_data": {
        "images": [
          {
            "name": "2021-04-15-0740f85edff3f08423f1150428f0d920fc889b54.jpg",
            "image_url": "https://storage.googleapis.com/lw-poppodium013-roadburn-prod/cms/uploads/2021-04-15-0740f85edff3f08423f1150428f0d920fc889b54.jpg"
          }
        ],
        "data_url": "https://player.vimeo.com/video/533947698",
        "meta_image": null,
        "meta_title": null,
        "thumb_url": null,
        "data_type": "VIMEO",
        "channel_id": null
      },
      "category": {
        "code": "audio_n_video_premieres",
        "category_name": "Audio & video premieres",
        "category_id": 3
      },
      "time_end": null,
      "time_start": "2021-04-14T08:00:00.000000Z",
      "updated_at": "2021-04-18T23:56:51.000000Z",
      "post_type": "video",
      "comments_count": 0,
      "active": 1,
      "content": "<p>C’mon, c’mon - don’t be falling behind already! There’s a lot to get through today! Up next we have <strong>Oslo Tapes</strong> - part of the <strong>Pelagic Records</strong> showcase - who have offered up a new track in the form of a music video exclusive to Roadburn Redux. If they’re unfamiliar to you, it’s time to get acquainted…</p><p><a href=\"https://pelagic-records.com/?s=OSLO+TAPES&amp;post_type=product\" rel=\"noopener noreferrer\" target=\"_blank\">More Oslo Tapes!</a></p>",
      "highlight": 1,
      "slug": "pelagic-presents-oslo-tapes",
      "data_id": 71,
      "published_at": "2021-04-17T12:00:00.000000Z",
      "created_at": "2021-04-13T10:17:38.000000Z"
    },
    {
      "liked": false,
      "likes_count": 10,
      "post_type_status": "available",
      "title": "Preview: Solar Temple",
      "post_type_data": {
        "images": [
          {
            "name": "2021-04-15-b144f3c3a47c7dcf72b6ef4783e72aa724084594.jpg",
            "image_url": "https://storage.googleapis.com/lw-poppodium013-roadburn-prod/cms/uploads/2021-04-15-b144f3c3a47c7dcf72b6ef4783e72aa724084594.jpg"
          }
        ],
        "data_url": "https://roadburn.com/interview-solar-temple/",
        "meta_image": null,
        "meta_title": null,
        "thumb_url": null,
        "data_type": null,
        "channel_id": null
      },
      "category": {
        "code": "articles",
        "category_name": "Articles",
        "category_id": 5
      },
      "time_end": null,
      "time_start": "2021-04-14T10:00:00.000000Z",
      "updated_at": "2021-04-17T22:44:04.000000Z",
      "post_type": "article",
      "comments_count": 0,
      "active": 1,
      "content": "<blockquote>“We did not think we would perform under this moniker live, ever”</blockquote><p>We enlisted esteemed scribe, <strong>Dom Lawson </strong>to check in with the mysterious <strong>Solar Temple</strong> to find out how their commissioned project has taken shape during lockdown.&nbsp;</p><p><br></p><p><br></p>",
      "highlight": 1,
      "slug": "preview-solar-temple",
      "data_id": 162,
      "published_at": "2021-04-17T11:30:00.000000Z",
      "created_at": "2021-04-15T12:29:05.000000Z"
    },
    {
      "liked": false,
      "likes_count": 14,
      "post_type_status": "available",
      "title": "TDC INC - in pictures",
      "post_type_data": {
        "images": [
          {
            "name": "2021-04-17-62a77d61e06e258af3a6532e9ea58250836b7f33.jpg",
            "image_url": "https://storage.googleapis.com/lw-poppodium013-roadburn-prod/cms/uploads/2021-04-17-62a77d61e06e258af3a6532e9ea58250836b7f33.jpg"
          },
          {
            "name": "2021-04-17-894fd47f0aeac17a00b03f0e70dfab971818e41d.jpg",
            "image_url": "https://storage.googleapis.com/lw-poppodium013-roadburn-prod/cms/uploads/2021-04-17-894fd47f0aeac17a00b03f0e70dfab971818e41d.jpg"
          },
          {
            "name": "2021-04-17-ad80b252526b6f1de4b5aea7c6f2aece99fcf7fe.jpg",
            "image_url": "https://storage.googleapis.com/lw-poppodium013-roadburn-prod/cms/uploads/2021-04-17-ad80b252526b6f1de4b5aea7c6f2aece99fcf7fe.jpg"
          },
          {
            "name": "2021-04-17-5673bb1e6ba8509e0fa21b276d0147a5abe2b0fb.jpg",
            "image_url": "https://storage.googleapis.com/lw-poppodium013-roadburn-prod/cms/uploads/2021-04-17-5673bb1e6ba8509e0fa21b276d0147a5abe2b0fb.jpg"
          },
          {
            "name": "2021-04-17-92d28f366e1b6cad4e8bee6c7f228e8208b9800a.jpg",
            "image_url": "https://storage.googleapis.com/lw-poppodium013-roadburn-prod/cms/uploads/2021-04-17-92d28f366e1b6cad4e8bee6c7f228e8208b9800a.jpg"
          },
          {
            "name": "2021-04-17-ddebf1d6b14ac85f43d5deb026eecc2cb390252b.jpg",
            "image_url": "https://storage.googleapis.com/lw-poppodium013-roadburn-prod/cms/uploads/2021-04-17-ddebf1d6b14ac85f43d5deb026eecc2cb390252b.jpg"
          },
          {
            "name": "2021-04-17-a380231af9d1010f5ecba6e231c9ab7137af0532.jpg",
            "image_url": "https://storage.googleapis.com/lw-poppodium013-roadburn-prod/cms/uploads/2021-04-17-a380231af9d1010f5ecba6e231c9ab7137af0532.jpg"
          },
          {
            "name": "2021-04-17-65e5fe1ba8e29b3a35f4dbbe1687c5f60e20b9a6.jpg",
            "image_url": "https://storage.googleapis.com/lw-poppodium013-roadburn-prod/cms/uploads/2021-04-17-65e5fe1ba8e29b3a35f4dbbe1687c5f60e20b9a6.jpg"
          }
        ],
        "data_url": null,
        "meta_image": null,
        "meta_title": null,
        "thumb_url": null,
        "data_type": null,
        "channel_id": null
      },
      "category": null,
      "time_end": null,
      "time_start": "2021-04-15T09:00:00.000000Z",
      "updated_at": "2021-04-17T18:07:15.000000Z",
      "post_type": "carousel",
      "comments_count": 0,
      "active": 1,
      "content": "<p><strong>TDC INC</strong> - captured by Paul Verhagen, live from the 013 venue, Tilburg. April 16, 2021.</p>",
      "highlight": 0,
      "slug": "tdc-inc-in-pictures",
      "data_id": 213,
      "published_at": "2021-04-17T11:11:00.000000Z",
      "created_at": "2021-04-17T11:11:30.000000Z"
    }
  ],
  "fresh_highlights": false,
  "highlights": []
}