{
  "fresh_dynamic_data": false,
  "links": {
    "next": "https://roadburn-api.lwprod.nl/api/posts?page=6",
    "prev": "https://roadburn-api.lwprod.nl/api/posts?page=4",
    "last": "https://roadburn-api.lwprod.nl/api/posts?page=38",
    "first": "https://roadburn-api.lwprod.nl/api/posts?page=1"
  },
  "meta": {
    "to": 25,
    "total": 189,
    "last_page": 38,
    "from": 21,
    "per_page": 5,
    "path": "https://roadburn-api.lwprod.nl/api/posts",
    "current_page": 5
  },
  "fresh": true,
  "posts_data": [
    {
      "liked": false,
      "likes_count": 46,
      "post_type_status": "available",
      "title": "Q&A: Lingua Ignota",
      "post_type_data": {
        "images": [
          {
            "name": "2021-04-17-43028f7a57aea4ba5cabb505d831215d84278ce0.jpg",
            "image_url": "https://storage.googleapis.com/lw-poppodium013-roadburn-prod/cms/uploads/2021-04-17-43028f7a57aea4ba5cabb505d831215d84278ce0.jpg"
          }
        ],
        "data_url": "https://www.youtube.com/embed/w-MdLRnejKs",
        "meta_image": null,
        "meta_title": null,
        "thumb_url": null,
        "data_type": "YOUTUBE",
        "channel_id": null
      },
      "category": {
        "code": "talks",
        "category_name": "Talks",
        "category_id": 6
      },
      "time_end": null,
      "time_start": "2021-04-14T09:00:00.000000Z",
      "updated_at": "2021-04-19T07:57:08.000000Z",
      "post_type": "video",
      "comments_count": 12,
      "active": 1,
      "content": "<p>Having performed not one, but two of the most incandescent sets of Roadburn 2019, <strong>Kristin Hayter</strong> has been on a whirlwind wild ride since then. If you’ve caught her live shows you’ll know what a force of nature she is. But what’s next? <strong>Marika Zorzi </strong>catches up with her to find out - leave your questions in the comments below if you’re watching live.&nbsp;</p>",
      "highlight": 1,
      "slug": "qa-lingua-ignota",
      "data_id": 131,
      "published_at": "2021-04-18T16:00:00.000000Z",
      "created_at": "2021-04-14T09:16:24.000000Z"
    },
    {
      "liked": false,
      "likes_count": 8,
      "post_type_status": "available",
      "title": "Preview: Of Blood And Mercury",
      "post_type_data": {
        "images": [
          {
            "name": "2021-04-18-8f61aeb0da025fff5ae34e8d6efcdf47b8115396.jpg",
            "image_url": "https://storage.googleapis.com/lw-poppodium013-roadburn-prod/cms/uploads/2021-04-18-8f61aeb0da025fff5ae34e8d6efcdf47b8115396.jpg"
          }
        ],
        "data_url": "https://roadburn.com/interview-of-blood-of-and-mercury/",
        "meta_image": null,
        "meta_title": null,
        "thumb_url": null,
        "data_type": null,
        "channel_id": null
      },
      "category": {
        "code": "articles",
        "category_name": "Articles",
        "category_id": 5
      },
      "time_end": null,
      "time_start": "2021-04-15T10:00:00.000000Z",
      "updated_at": "2021-04-19T07:25:36.000000Z",
      "post_type": "article",
      "comments_count": 0,
      "active": 1,
      "content": "<p><em>\"The lyrics are focused around the universal perception of death. When you go really deep into the core of any religion or spiritual movement, they all seem to agree.\"</em></p><p><br></p><p>Want to know what to expect from <strong>Of Blood And Mercury's</strong> commissioned project later today? Read on to find out more courtesy of <strong>Dom Lawson.</strong></p>",
      "highlight": 0,
      "slug": "preview-of-blood-and-mercury",
      "data_id": 236,
      "published_at": "2021-04-18T15:55:00.000000Z",
      "created_at": "2021-04-18T15:50:11.000000Z"
    },
    {
      "liked": false,
      "likes_count": 62,
      "post_type_status": "available",
      "title": "Pelagic Presents: Lustmord & Karin Park",
      "post_type_data": {
        "images": [
          {
            "name": "2021-04-17-b4c22b81fd4f67cababff433772e05afba198d2e.jpg",
            "image_url": "https://storage.googleapis.com/lw-poppodium013-roadburn-prod/cms/uploads/2021-04-17-b4c22b81fd4f67cababff433772e05afba198d2e.jpg"
          }
        ],
        "data_url": "https://player.vimeo.com/video/533549263",
        "meta_image": null,
        "meta_title": null,
        "thumb_url": null,
        "data_type": "VIMEO",
        "channel_id": null
      },
      "category": {
        "code": "audio_n_video_premieres",
        "category_name": "Audio & video premieres",
        "category_id": 3
      },
      "time_end": null,
      "time_start": "2021-04-14T08:00:00.000000Z",
      "updated_at": "2021-04-19T07:25:38.000000Z",
      "post_type": "video",
      "comments_count": 10,
      "active": 1,
      "content": "<p>This unholy union is one we’re overjoyed to celebrate today as part of Roadburn Redux. The incomparable <strong>Lustmord</strong> has teamed up with <strong>Karin Park </strong>(probably most familiar to Roadburners as part of <strong>Årabrot</strong>) - and we have this exclusive video premiere to whet your appetite for what else is to come from this pairing.</p>",
      "highlight": 0,
      "slug": "pelagic-presents-lustmord-karin-park",
      "data_id": 98,
      "published_at": "2021-04-18T15:50:00.000000Z",
      "created_at": "2021-04-13T12:06:22.000000Z"
    },
    {
      "liked": false,
      "likes_count": 70,
      "post_type_status": "available",
      "title": "The Music of Townes Van Zandt premiere #4",
      "post_type_data": {
        "images": [
          {
            "name": "2021-04-14-93d787a032c2b9e6fb584ea263cfc185d4565ca7.jpg",
            "image_url": "https://storage.googleapis.com/lw-poppodium013-roadburn-prod/cms/uploads/2021-04-14-93d787a032c2b9e6fb584ea263cfc185d4565ca7.jpg"
          }
        ],
        "data_url": "https://player.vimeo.com/video/538047491",
        "meta_image": null,
        "meta_title": null,
        "thumb_url": null,
        "data_type": "VIMEO",
        "channel_id": null
      },
      "category": {
        "code": "audio_n_video_premieres",
        "category_name": "Audio & video premieres",
        "category_id": 3
      },
      "time_end": null,
      "time_start": "2021-04-18T07:00:00.000000Z",
      "updated_at": "2021-04-19T07:25:43.000000Z",
      "post_type": "video",
      "comments_count": 5,
      "active": 1,
      "content": "<p>If the three premieres we've already run weren't enough for you, we have one more to squeeze in from the upcoming album, <em>The Music Of Townes Van Zandt Vol. III</em>. </p><p>This one is another stunning video from <strong>AMENRA</strong> - this time for the track <em>Black Crow Blues</em>. </p><p>You can pre-order the album <a href=\"https://www.myproudmountainshop.com/search?controller=search&amp;orderby=position&amp;orderway=desc&amp;search_query=townes+van+zandt&amp;submit_search=search\" rel=\"noopener noreferrer\" target=\"_blank\">HERE</a>.</p>",
      "highlight": 1,
      "slug": "the-music-of-townes-van-zandt-premiere-4",
      "data_id": 212,
      "published_at": "2021-04-18T15:45:00.000000Z",
      "created_at": "2021-04-17T11:00:10.000000Z"
    },
    {
      "liked": false,
      "likes_count": 21,
      "post_type_status": "available",
      "title": "Dead Neanderthals - in pictures",
      "post_type_data": {
        "images": [
          {
            "name": "2021-04-18-9c733a59492fc4693b5ba2328f131a27dc010dd9.jpg",
            "image_url": "https://storage.googleapis.com/lw-poppodium013-roadburn-prod/cms/uploads/2021-04-18-9c733a59492fc4693b5ba2328f131a27dc010dd9.jpg"
          },
          {
            "name": "2021-04-18-dac32780beffada51753b2f9d662a65b13ca9f65.jpg",
            "image_url": "https://storage.googleapis.com/lw-poppodium013-roadburn-prod/cms/uploads/2021-04-18-dac32780beffada51753b2f9d662a65b13ca9f65.jpg"
          },
          {
            "name": "2021-04-18-b947d6b22abad5c416fe707a0575bb7536dfa598.jpg",
            "image_url": "https://storage.googleapis.com/lw-poppodium013-roadburn-prod/cms/uploads/2021-04-18-b947d6b22abad5c416fe707a0575bb7536dfa598.jpg"
          },
          {
            "name": "2021-04-18-b941c12cb490e4d807fdfbfaffe0e09d42fa8f50.jpg",
            "image_url": "https://storage.googleapis.com/lw-poppodium013-roadburn-prod/cms/uploads/2021-04-18-b941c12cb490e4d807fdfbfaffe0e09d42fa8f50.jpg"
          },
          {
            "name": "2021-04-18-b4cede1d89ca226b5f1471e07ad68b05762be306.jpg",
            "image_url": "https://storage.googleapis.com/lw-poppodium013-roadburn-prod/cms/uploads/2021-04-18-b4cede1d89ca226b5f1471e07ad68b05762be306.jpg"
          },
          {
            "name": "2021-04-18-ed726b2bc5a10e0a393ac458fea93611966f7bd9.jpg",
            "image_url": "https://storage.googleapis.com/lw-poppodium013-roadburn-prod/cms/uploads/2021-04-18-ed726b2bc5a10e0a393ac458fea93611966f7bd9.jpg"
          },
          {
            "name": "2021-04-18-2f1bc16b05f66e838b98fd84c0f3d111b00ab600.jpg",
            "image_url": "https://storage.googleapis.com/lw-poppodium013-roadburn-prod/cms/uploads/2021-04-18-2f1bc16b05f66e838b98fd84c0f3d111b00ab600.jpg"
          },
          {
            "name": "2021-04-18-f512af0be50ba3a899b3ad7226bbf12de8c6f2a5.jpg",
            "image_url": "https://storage.googleapis.com/lw-poppodium013-roadburn-prod/cms/uploads/2021-04-18-f512af0be50ba3a899b3ad7226bbf12de8c6f2a5.jpg"
          },
          {
            "name": "2021-04-18-15d410c6751e92a6955581689cefe74bb430bd53.jpg",
            "image_url": "https://storage.googleapis.com/lw-poppodium013-roadburn-prod/cms/uploads/2021-04-18-15d410c6751e92a6955581689cefe74bb430bd53.jpg"
          }
        ],
        "data_url": null,
        "meta_image": null,
        "meta_title": null,
        "thumb_url": null,
        "data_type": null,
        "channel_id": null
      },
      "category": null,
      "time_end": null,
      "time_start": "2021-04-12T08:00:00.000000Z",
      "updated_at": "2021-04-19T07:25:45.000000Z",
      "post_type": "carousel",
      "comments_count": 1,
      "active": 1,
      "content": "<p><strong>Dead Neanderthals</strong> - captured by Lotte Schrander, live from the 013 venue, Tilburg. April 18, 2021.</p>",
      "highlight": 0,
      "slug": "dead-neanderthals-in-pictures",
      "data_id": 235,
      "published_at": "2021-04-18T15:35:00.000000Z",
      "created_at": "2021-04-18T15:32:11.000000Z"
    }
  ],
  "fresh_highlights": false,
  "highlights": []
}