{
  "fresh_dynamic_data": false,
  "links": {
    "next": "https://roadburn-api.lwprod.nl/api/posts?page=34",
    "prev": "https://roadburn-api.lwprod.nl/api/posts?page=32",
    "last": "https://roadburn-api.lwprod.nl/api/posts?page=38",
    "first": "https://roadburn-api.lwprod.nl/api/posts?page=1"
  },
  "meta": {
    "to": 165,
    "total": 189,
    "last_page": 38,
    "from": 161,
    "per_page": 5,
    "path": "https://roadburn-api.lwprod.nl/api/posts",
    "current_page": 33
  },
  "fresh": true,
  "posts_data": [
    {
      "liked": false,
      "likes_count": 67,
      "post_type_status": "available",
      "title": "Final preparations...",
      "post_type_data": {
        "images": [
          {
            "name": "2021-04-16-7fdc28538795a3f0a3938207404fa9d4478d3eb9.jpg",
            "image_url": "https://storage.googleapis.com/lw-poppodium013-roadburn-prod/cms/uploads/2021-04-16-7fdc28538795a3f0a3938207404fa9d4478d3eb9.jpg"
          }
        ],
        "data_url": null,
        "meta_image": null,
        "meta_title": null,
        "thumb_url": null,
        "data_type": null,
        "channel_id": null
      },
      "category": null,
      "time_end": null,
      "time_start": "2021-04-15T09:00:00.000000Z",
      "updated_at": "2021-04-17T17:04:58.000000Z",
      "post_type": "written_update",
      "comments_count": 3,
      "active": 1,
      "content": "<p>The final preparations are underway at the 013 venue in Tilburg - the first performance is due to start in under an hour! </p><p>The live streams will be available all weekend and right the way through til Tuesday. However, they're being beamed in live, so once the set is over, it may take a short while before the video is available to re-watch! Bear with us, we'll be as quick as we can!</p>",
      "highlight": 0,
      "slug": "final-preparations",
      "data_id": 187,
      "published_at": "2021-04-16T12:40:00.000000Z",
      "created_at": "2021-04-16T12:32:35.000000Z"
    },
    {
      "liked": false,
      "likes_count": 98,
      "post_type_status": "available",
      "title": "Doctors of Space",
      "post_type_data": {
        "images": [
          {
            "name": "2021-04-14-8db17b44c6079432fe9f6c30f2657f33c2ddd7ee.jpg",
            "image_url": "https://storage.googleapis.com/lw-poppodium013-roadburn-prod/cms/uploads/2021-04-14-8db17b44c6079432fe9f6c30f2657f33c2ddd7ee.jpg"
          }
        ],
        "data_url": "https://player.vimeo.com/video/530211305",
        "meta_image": null,
        "meta_title": null,
        "thumb_url": null,
        "data_type": "VIMEO",
        "channel_id": null
      },
      "category": {
        "code": "exclusive_sets",
        "category_name": "Exclusive sets",
        "category_id": 2
      },
      "time_end": null,
      "time_start": "2021-04-14T08:30:00.000000Z",
      "updated_at": "2021-04-18T12:10:54.000000Z",
      "post_type": "video",
      "comments_count": 15,
      "active": 1,
      "content": "<p>Psychonauts rejoice! <strong>Dr. Martin Weaver</strong> (<strong>Wicked Lady, Dar</strong>k) and <strong>Dr. Space </strong>(<strong>Øresund Space Collective, Black Moon Circle</strong>, etc.) have arrived - bringing their intergalactic jams with them. It’s time to explore the vast cosmo with these two surgeons of psych via this specially recorded set.</p>",
      "highlight": 1,
      "slug": "doctors-of-space",
      "data_id": 54,
      "published_at": "2021-04-16T12:30:00.000000Z",
      "created_at": "2021-04-13T09:10:45.000000Z"
    },
    {
      "liked": false,
      "likes_count": 72,
      "post_type_status": "available",
      "title": "Pelagic Presents: New Signings: Shy, Low",
      "post_type_data": {
        "images": [
          {
            "name": "2021-04-14-70ac27dd2befeaf951c8fbebe5cbc691f37080fb.jpg",
            "image_url": "https://storage.googleapis.com/lw-poppodium013-roadburn-prod/cms/uploads/2021-04-14-70ac27dd2befeaf951c8fbebe5cbc691f37080fb.jpg"
          }
        ],
        "data_url": "https://player.vimeo.com/video/525032477",
        "meta_image": null,
        "meta_title": null,
        "thumb_url": null,
        "data_type": "VIMEO",
        "channel_id": null
      },
      "category": {
        "code": "audio_n_video_premieres",
        "category_name": "Audio & video premieres",
        "category_id": 3
      },
      "time_end": null,
      "time_start": "2021-04-14T09:00:00.000000Z",
      "updated_at": "2021-04-19T01:28:57.000000Z",
      "post_type": "video",
      "comments_count": 8,
      "active": 1,
      "content": "<p>The final new addition to the <strong>Pelagic Roster</strong> is <strong>Shy, Low</strong> - they’ll have their third full length album, titled <em>Snake Behind The Sun</em>, out this August via the label. The first track to be heard from that album is this one here that we’re debuting especially for you! The video was directed by Drew Storcks and the track is called <em>Helioentropy</em>. Stay tuned for more <strong>Shy, Low</strong> in the coming months!</p><p><br></p><p><br></p>",
      "highlight": 1,
      "slug": "pelagic-presents-new-signings-shy-low",
      "data_id": 145,
      "published_at": "2021-04-16T12:11:00.000000Z",
      "created_at": "2021-04-14T13:46:47.000000Z"
    },
    {
      "liked": false,
      "likes_count": 41,
      "post_type_status": "available",
      "title": "Pelagic Presents: New Signings: Horte",
      "post_type_data": {
        "images": [
          {
            "name": "2021-04-14-396e7004b3ce48af232131f6cbc83c8270c32103.jpg",
            "image_url": "https://storage.googleapis.com/lw-poppodium013-roadburn-prod/cms/uploads/2021-04-14-396e7004b3ce48af232131f6cbc83c8270c32103.jpg"
          }
        ],
        "data_url": "https://player.vimeo.com/video/533938939",
        "meta_image": null,
        "meta_title": null,
        "thumb_url": null,
        "data_type": "VIMEO",
        "channel_id": null
      },
      "category": {
        "code": "audio_n_video_premieres",
        "category_name": "Audio & video premieres",
        "category_id": 3
      },
      "time_end": null,
      "time_start": "2021-04-14T09:00:00.000000Z",
      "updated_at": "2021-04-19T01:29:03.000000Z",
      "post_type": "video",
      "comments_count": 1,
      "active": 1,
      "content": "<p>Roadburn 2018 played host to <strong>Horte</strong>, who since then have been working on their second full length album with <strong>Juho Vanhanen</strong> (<strong>Oranssi Pazuzu</strong>) in the producer’s chair. That album -<em>Maa antaa yön vaientaa</em> - is due for release via <strong>Pelagic Records</strong> on August 27 this year. We have this performance of the track <em>Valoa on liikaa</em> to help welcome them to the <strong>Pelagic</strong> family and reunite them with eager Roadburners.&nbsp;</p><p>Enigmatic as ever, the band told us:</p><p><em>\"Delightful to give a first sight once again. Surreal and luminous. A new shard for you magnificent Roadburners. Approach for this one was different. Bare and pulsating. As we are stepping into tomorrow.\"</em></p><p><br></p><p><br></p>",
      "highlight": 1,
      "slug": "pelagic-presents-new-signings-horte",
      "data_id": 144,
      "published_at": "2021-04-16T12:10:00.000000Z",
      "created_at": "2021-04-14T13:45:27.000000Z"
    },
    {
      "liked": false,
      "likes_count": 51,
      "post_type_status": "available",
      "title": "Pelagic Presents: New Signings: enPHin",
      "post_type_data": {
        "images": [],
        "data_url": "https://player.vimeo.com/video/533964037",
        "meta_image": null,
        "meta_title": null,
        "thumb_url": null,
        "data_type": "VIMEO",
        "channel_id": null
      },
      "category": {
        "code": "audio_n_video_premieres",
        "category_name": "Audio & video premieres",
        "category_id": 3
      },
      "time_end": null,
      "time_start": "2021-04-14T09:00:00.000000Z",
      "updated_at": "2021-04-19T01:29:14.000000Z",
      "post_type": "video",
      "comments_count": 2,
      "active": 1,
      "content": "<p>These guys might not ring any bells, but trust us, if you’ve frequented Roadburn you’ll have heard the name <strong>Mr Peter Hayden</strong> or even <strong>PH</strong>… Either way, <strong>enPHin</strong> is their latest incarnation and they have something new to share with us. We are about to witness their transformation in front of our very eyes: this performance is their last under the <strong>PH </strong>moniker and they will be born again immediately afterwards as <strong>enPHin</strong>.&nbsp;</p><p>Or as they put it:</p><p>“We are on the verge of transformation, an integral part of our essence. We are ready for the next phase of our evolution and this song is our farewell as and for PH.”</p><p><br></p><p><br></p>",
      "highlight": 0,
      "slug": "pelagic-presents-new-signings-enphin",
      "data_id": 146,
      "published_at": "2021-04-16T12:10:00.000000Z",
      "created_at": "2021-04-14T13:49:04.000000Z"
    }
  ],
  "fresh_highlights": false,
  "highlights": []
}