{
  "fresh_dynamic_data": false,
  "links": {
    "next": "https://roadburn-api.lwprod.nl/api/posts?page=7",
    "prev": "https://roadburn-api.lwprod.nl/api/posts?page=5",
    "last": "https://roadburn-api.lwprod.nl/api/posts?page=38",
    "first": "https://roadburn-api.lwprod.nl/api/posts?page=1"
  },
  "meta": {
    "to": 30,
    "total": 189,
    "last_page": 38,
    "from": 26,
    "per_page": 5,
    "path": "https://roadburn-api.lwprod.nl/api/posts",
    "current_page": 6
  },
  "fresh": true,
  "posts_data": [
    {
      "liked": false,
      "likes_count": 34,
      "post_type_status": "available",
      "title": "Death Bells",
      "post_type_data": {
        "images": [
          {
            "name": "2021-04-17-a4210ab658efd8543f3d97524f59a2fcaa1abdd0.jpg",
            "image_url": "https://storage.googleapis.com/lw-poppodium013-roadburn-prod/cms/uploads/2021-04-17-a4210ab658efd8543f3d97524f59a2fcaa1abdd0.jpg"
          }
        ],
        "data_url": "https://player.vimeo.com/video/533458887",
        "meta_image": null,
        "meta_title": null,
        "thumb_url": null,
        "data_type": "VIMEO",
        "channel_id": null
      },
      "category": {
        "code": "exclusive_sets",
        "category_name": "Exclusive sets",
        "category_id": 2
      },
      "time_end": null,
      "time_start": "2021-04-14T09:00:00.000000Z",
      "updated_at": "2021-04-19T07:25:47.000000Z",
      "post_type": "video",
      "comments_count": 4,
      "active": 1,
      "content": "<p><strong>Death Bells</strong> brought a little bit of Australia-by-way-of-California sunshine into what was, on the whole, a pretty bleak 2020. Their album, <em>New Signs Of Life</em>, released via <strong>Dais Records</strong> was nine-tracks aloof, guitar and synth driven rock that couldn’t help let a little optimism shine through the brooding dark clouds. Now they’re bringing that same sunshine to our Sunday afternoon with this live recording from Bombay Beach in California. The live audio recording of this set is available <a href=\"https://smarturl.it/deathbells-bombay\" rel=\"noopener noreferrer\" target=\"_blank\">NOW</a>.</p>",
      "highlight": 1,
      "slug": "death-bells",
      "data_id": 102,
      "published_at": "2021-04-18T15:30:00.000000Z",
      "created_at": "2021-04-13T12:50:45.000000Z"
    },
    {
      "liked": false,
      "likes_count": 21,
      "post_type_status": "available",
      "title": "Hand Model",
      "post_type_data": {
        "images": [
          {
            "name": "2021-04-17-d3db5a10051b8b6b18816b6a7c3229b3166f47b5.JPG",
            "image_url": "https://storage.googleapis.com/lw-poppodium013-roadburn-prod/cms/uploads/2021-04-17-d3db5a10051b8b6b18816b6a7c3229b3166f47b5.JPG"
          }
        ],
        "data_url": "https://player.vimeo.com/video/533944578",
        "meta_image": null,
        "meta_title": null,
        "thumb_url": null,
        "data_type": "VIMEO",
        "channel_id": null
      },
      "category": {
        "code": "audio_n_video_premieres",
        "category_name": "Audio & video premieres",
        "category_id": 3
      },
      "time_end": null,
      "time_start": "2021-04-14T09:00:00.000000Z",
      "updated_at": "2021-04-19T07:25:49.000000Z",
      "post_type": "video",
      "comments_count": 2,
      "active": 1,
      "content": "<p><strong>Hand Model </strong>is the solo project of <strong>Ignat Frege</strong> - one half of the experimental metal band <strong>Wreck and Reference</strong>, who made their Roadburn debut back in 2018. This video is for the track <em>The Thinking Monster</em> which is a collaboration with the producer <strong>WTCHCRFT</strong>. Due for release via <strong>The Flenser</strong> this year, stay tuned for more <strong>Hand Model</strong> action in the coming months.&nbsp;</p>",
      "highlight": 1,
      "slug": "hand-model",
      "data_id": 97,
      "published_at": "2021-04-18T15:15:00.000000Z",
      "created_at": "2021-04-13T12:03:38.000000Z"
    },
    {
      "liked": false,
      "likes_count": 23,
      "post_type_status": "available",
      "title": "Q&A: The Music of Townes Van Zandt",
      "post_type_data": {
        "images": [
          {
            "name": "2021-04-14-93d787a032c2b9e6fb584ea263cfc185d4565ca7.jpg",
            "image_url": "https://storage.googleapis.com/lw-poppodium013-roadburn-prod/cms/uploads/2021-04-14-93d787a032c2b9e6fb584ea263cfc185d4565ca7.jpg"
          }
        ],
        "data_url": "https://www.youtube.com/embed/GoIGHlSf-AQ",
        "meta_image": null,
        "meta_title": null,
        "thumb_url": null,
        "data_type": "YOUTUBE",
        "channel_id": null
      },
      "category": {
        "code": "talks",
        "category_name": "Talks",
        "category_id": 6
      },
      "time_end": null,
      "time_start": "2021-04-14T09:00:00.000000Z",
      "updated_at": "2021-04-19T07:25:51.000000Z",
      "post_type": "video",
      "comments_count": 11,
      "active": 1,
      "content": "<p><strong>José Carlos Santos</strong> is joined by <strong>Marissa Nadler</strong>, <strong>Stephen Brodsky</strong> and <strong>Colin&nbsp;H&nbsp;Van Eeckhout</strong> - all of whom feature on the upcoming album, <em>The Music Of Townes Van Zandt Vol. III.</em></p><p>If you have questions for any of them - feel free to leave a comment below if you're watching live. </p>",
      "highlight": 1,
      "slug": "qa-the-music-of-townes-van-zandt",
      "data_id": 130,
      "published_at": "2021-04-18T15:00:00.000000Z",
      "created_at": "2021-04-14T09:15:28.000000Z"
    },
    {
      "liked": false,
      "likes_count": 62,
      "post_type_status": "available",
      "title": "Commissioned: Dead Neanderthals performing IXXO",
      "post_type_data": {
        "images": [
          {
            "name": "2021-04-17-4b328f5c5f4a64d90bb7e338f83e1239e402925c.png",
            "image_url": "https://storage.googleapis.com/lw-poppodium013-roadburn-prod/cms/uploads/2021-04-17-4b328f5c5f4a64d90bb7e338f83e1239e402925c.png"
          }
        ],
        "data_url": "https://player.vimeo.com/video/538344541",
        "meta_image": null,
        "meta_title": null,
        "thumb_url": null,
        "data_type": null,
        "channel_id": "VTI3pLlZ"
      },
      "category": {
        "code": "livestreams",
        "category_name": "Livestreams",
        "category_id": 1
      },
      "time_end": null,
      "time_start": "2021-04-14T09:00:00.000000Z",
      "updated_at": "2021-04-19T07:25:52.000000Z",
      "post_type": "livestream",
      "comments_count": 13,
      "active": 1,
      "content": "<p>This irrepressible duo is bursting at the seams with creative ideas - and they’ve let some of them loose within the confines of this commissioned project. <strong>Otto</strong> and <strong>René </strong>have teamed up with Dutch singer/songwriter <strong>Aafke Romeijn</strong>, and <strong>Jonge Woudloper</strong>, one of the musicians in <strong>Aafke’s</strong> band, to create <em>IXXO</em>. This&nbsp;brand new krautrock-inspired composition is heavy on the synths but promises warmth and depth. Let’s get involved…&nbsp;</p>",
      "highlight": 1,
      "slug": "commissioned-dead-neanderthals-performing-ixxo",
      "data_id": 28,
      "published_at": "2021-04-18T14:50:00.000000Z",
      "created_at": "2021-04-09T13:35:52.000000Z"
    },
    {
      "liked": false,
      "likes_count": 17,
      "post_type_status": "available",
      "title": "Dirk Serries - in pictures",
      "post_type_data": {
        "images": [
          {
            "name": "2021-04-18-ca1f716fcec4c8291d14c7fed8193ead752b1880.jpg",
            "image_url": "https://storage.googleapis.com/lw-poppodium013-roadburn-prod/cms/uploads/2021-04-18-ca1f716fcec4c8291d14c7fed8193ead752b1880.jpg"
          },
          {
            "name": "2021-04-18-af8d1c28df9893701ea82d85a811ff49f9e2cb71.jpg",
            "image_url": "https://storage.googleapis.com/lw-poppodium013-roadburn-prod/cms/uploads/2021-04-18-af8d1c28df9893701ea82d85a811ff49f9e2cb71.jpg"
          },
          {
            "name": "2021-04-18-9c1331d04692d02e1123f55e9f2f02058c4398b2.jpg",
            "image_url": "https://storage.googleapis.com/lw-poppodium013-roadburn-prod/cms/uploads/2021-04-18-9c1331d04692d02e1123f55e9f2f02058c4398b2.jpg"
          },
          {
            "name": "2021-04-18-3f3cd51f992947365b1160e25d5038cf51d6d868.jpg",
            "image_url": "https://storage.googleapis.com/lw-poppodium013-roadburn-prod/cms/uploads/2021-04-18-3f3cd51f992947365b1160e25d5038cf51d6d868.jpg"
          },
          {
            "name": "2021-04-18-f48042cfb745516c96cc40055c0db44112e4bb0c.jpg",
            "image_url": "https://storage.googleapis.com/lw-poppodium013-roadburn-prod/cms/uploads/2021-04-18-f48042cfb745516c96cc40055c0db44112e4bb0c.jpg"
          },
          {
            "name": "2021-04-18-141532e1c035030050dad3434b722f85f0908beb.jpg",
            "image_url": "https://storage.googleapis.com/lw-poppodium013-roadburn-prod/cms/uploads/2021-04-18-141532e1c035030050dad3434b722f85f0908beb.jpg"
          },
          {
            "name": "2021-04-18-c761c68d5d897fd6d091c13df7012153f7fb45ae.jpg",
            "image_url": "https://storage.googleapis.com/lw-poppodium013-roadburn-prod/cms/uploads/2021-04-18-c761c68d5d897fd6d091c13df7012153f7fb45ae.jpg"
          },
          {
            "name": "2021-04-18-bb81323acf3606ab8b505bd8be05d8099292d77c.jpg",
            "image_url": "https://storage.googleapis.com/lw-poppodium013-roadburn-prod/cms/uploads/2021-04-18-bb81323acf3606ab8b505bd8be05d8099292d77c.jpg"
          },
          {
            "name": "2021-04-18-7988b175046fe056c024fd728e6efbd1a7bae343.jpg",
            "image_url": "https://storage.googleapis.com/lw-poppodium013-roadburn-prod/cms/uploads/2021-04-18-7988b175046fe056c024fd728e6efbd1a7bae343.jpg"
          }
        ],
        "data_url": null,
        "meta_image": null,
        "meta_title": null,
        "thumb_url": null,
        "data_type": null,
        "channel_id": null
      },
      "category": null,
      "time_end": null,
      "time_start": "2021-04-06T09:00:00.000000Z",
      "updated_at": "2021-04-19T07:25:55.000000Z",
      "post_type": "carousel",
      "comments_count": 0,
      "active": 1,
      "content": "<p><strong>Dirk Serries</strong> - captured by Lotte Schrander, live from the 013 venue, Tilburg. April 18, 2021.</p>",
      "highlight": 0,
      "slug": "dirk-serries-in-pictures",
      "data_id": 234,
      "published_at": "2021-04-18T14:45:00.000000Z",
      "created_at": "2021-04-18T14:45:15.000000Z"
    }
  ],
  "fresh_highlights": false,
  "highlights": []
}